%!PS-Adobe-3.0 EPSF-3.0
%%Creator: MATLAB, The Mathworks, Inc. Version 7.10.0.499 (R2010a). Operating System: Darwin 10.8.0 Darwin Kernel Version 10.8.0: Tue Jun  7 16:33:36 PDT 2011; root:xnu-1504.15.3~1/RELEASE_I386 i386.
%%Title: ./fig2d_response_2.eps
%%CreationDate: 03/24/2012  11:53:14
%%DocumentNeededFonts: Helvetica
%%DocumentProcessColors: Cyan Magenta Yellow Black
%%LanguageLevel: 2
%%Pages: 1
%%BoundingBox:    51   199   548   614
%%EndComments

%%BeginProlog
% MathWorks dictionary
/MathWorks 160 dict begin
% definition operators
/bdef {bind def} bind def
/ldef {load def} bind def
/xdef {exch def} bdef
/xstore {exch store} bdef
% operator abbreviations
/c  /clip ldef
/cc /concat ldef
/cp /closepath ldef
/gr /grestore ldef
/gs /gsave ldef
/mt /moveto ldef
/np /newpath ldef
/cm /currentmatrix ldef
/sm /setmatrix ldef
/rm /rmoveto ldef
/rl /rlineto ldef
/s {show newpath} bdef
/sc {setcmykcolor} bdef
/sr /setrgbcolor ldef
/sg /setgray ldef
/w /setlinewidth ldef
/j /setlinejoin ldef
/cap /setlinecap ldef
/rc {rectclip} bdef
/rf {rectfill} bdef
% page state control
/pgsv () def
/bpage {/pgsv save def} bdef
/epage {pgsv restore} bdef
/bplot /gsave ldef
/eplot {stroke grestore} bdef
% orientation switch
/portraitMode 0 def /landscapeMode 1 def /rotateMode 2 def
% coordinate system mappings
/dpi2point 0 def
% font control
/FontSize 0 def
/FMS {/FontSize xstore findfont [FontSize 0 0 FontSize neg 0 0]
  makefont setfont} bdef
/reencode {exch dup where {pop load} {pop StandardEncoding} ifelse
  exch dup 3 1 roll findfont dup length dict begin
  { 1 index /FID ne {def}{pop pop} ifelse } forall
  /Encoding exch def currentdict end definefont pop} bdef
/isroman {findfont /CharStrings get /Agrave known} bdef
/FMSR {3 1 roll 1 index dup isroman {reencode} {pop pop} ifelse
  exch FMS} bdef
/csm {1 dpi2point div -1 dpi2point div scale neg translate
 dup landscapeMode eq {pop -90 rotate}
  {rotateMode eq {90 rotate} if} ifelse} bdef
% line types: solid, dotted, dashed, dotdash
/SO { [] 0 setdash } bdef
/DO { [.5 dpi2point mul 4 dpi2point mul] 0 setdash } bdef
/DA { [6 dpi2point mul] 0 setdash } bdef
/DD { [.5 dpi2point mul 4 dpi2point mul 6 dpi2point mul 4
  dpi2point mul] 0 setdash } bdef
% macros for lines and objects
/L {lineto stroke} bdef
/MP {3 1 roll moveto 1 sub {rlineto} repeat} bdef
/AP {{rlineto} repeat} bdef
/PDlw -1 def
/W {/PDlw currentlinewidth def setlinewidth} def
/PP {closepath eofill} bdef
/DP {closepath stroke} bdef
/MR {4 -2 roll moveto dup  0 exch rlineto exch 0 rlineto
  neg 0 exch rlineto closepath} bdef
/FR {MR stroke} bdef
/PR {MR fill} bdef
/L1i {{currentfile picstr readhexstring pop} image} bdef
/tMatrix matrix def
/MakeOval {newpath tMatrix currentmatrix pop translate scale
0 0 1 0 360 arc tMatrix setmatrix} bdef
/FO {MakeOval stroke} bdef
/PO {MakeOval fill} bdef
/PD {currentlinewidth 2 div 0 360 arc fill
   PDlw -1 eq not {PDlw w /PDlw -1 def} if} def
/FA {newpath tMatrix currentmatrix pop translate scale
  0 0 1 5 -2 roll arc tMatrix setmatrix stroke} bdef
/PA {newpath tMatrix currentmatrix pop	translate 0 0 moveto scale
  0 0 1 5 -2 roll arc closepath tMatrix setmatrix fill} bdef
/FAn {newpath tMatrix currentmatrix pop translate scale
  0 0 1 5 -2 roll arcn tMatrix setmatrix stroke} bdef
/PAn {newpath tMatrix currentmatrix pop translate 0 0 moveto scale
  0 0 1 5 -2 roll arcn closepath tMatrix setmatrix fill} bdef
/vradius 0 def /hradius 0 def /lry 0 def
/lrx 0 def /uly 0 def /ulx 0 def /rad 0 def
/MRR {/vradius xdef /hradius xdef /lry xdef /lrx xdef /uly xdef
  /ulx xdef newpath tMatrix currentmatrix pop ulx hradius add uly
  vradius add translate hradius vradius scale 0 0 1 180 270 arc 
  tMatrix setmatrix lrx hradius sub uly vradius add translate
  hradius vradius scale 0 0 1 270 360 arc tMatrix setmatrix
  lrx hradius sub lry vradius sub translate hradius vradius scale
  0 0 1 0 90 arc tMatrix setmatrix ulx hradius add lry vradius sub
  translate hradius vradius scale 0 0 1 90 180 arc tMatrix setmatrix
  closepath} bdef
/FRR {MRR stroke } bdef
/PRR {MRR fill } bdef
/MlrRR {/lry xdef /lrx xdef /uly xdef /ulx xdef /rad lry uly sub 2 div def
  newpath tMatrix currentmatrix pop ulx rad add uly rad add translate
  rad rad scale 0 0 1 90 270 arc tMatrix setmatrix lrx rad sub lry rad
  sub translate rad rad scale 0 0 1 270 90 arc tMatrix setmatrix
  closepath} bdef
/FlrRR {MlrRR stroke } bdef
/PlrRR {MlrRR fill } bdef
/MtbRR {/lry xdef /lrx xdef /uly xdef /ulx xdef /rad lrx ulx sub 2 div def
  newpath tMatrix currentmatrix pop ulx rad add uly rad add translate
  rad rad scale 0 0 1 180 360 arc tMatrix setmatrix lrx rad sub lry rad
  sub translate rad rad scale 0 0 1 0 180 arc tMatrix setmatrix
  closepath} bdef
/FtbRR {MtbRR stroke } bdef
/PtbRR {MtbRR fill } bdef
/stri 6 array def /dtri 6 array def
/smat 6 array def /dmat 6 array def
/tmat1 6 array def /tmat2 6 array def /dif 3 array def
/asub {/ind2 exch def /ind1 exch def dup dup
  ind1 get exch ind2 get sub exch } bdef
/tri_to_matrix {
  2 0 asub 3 1 asub 4 0 asub 5 1 asub
  dup 0 get exch 1 get 7 -1 roll astore } bdef
/compute_transform {
  dmat dtri tri_to_matrix tmat1 invertmatrix 
  smat stri tri_to_matrix tmat2 concatmatrix } bdef
/ds {stri astore pop} bdef
/dt {dtri astore pop} bdef
/db {2 copy /cols xdef /rows xdef mul dup 3 mul string
  currentfile 
  3 index 0 eq {/ASCIIHexDecode filter}
  {/ASCII85Decode filter 3 index 2 eq {/RunLengthDecode filter} if }
  ifelse exch readstring pop
  dup 0 3 index getinterval /rbmap xdef
  dup 2 index dup getinterval /gbmap xdef
  1 index dup 2 mul exch getinterval /bbmap xdef pop pop}bdef
/it {gs np dtri aload pop moveto lineto lineto cp c
  cols rows 8 compute_transform 
  rbmap gbmap bbmap true 3 colorimage gr}bdef
/il {newpath moveto lineto stroke}bdef
currentdict end def
%%EndProlog

%%BeginSetup
MathWorks begin

0 cap

end
%%EndSetup

%%Page: 1 1
%%BeginPageSetup
%%PageBoundingBox:    51   199   548   614
MathWorks begin
bpage
%%EndPageSetup

%%BeginObject: obj1
bplot

/dpi2point 12 def
portraitMode 0216 7344 csm

  405   -28  5966  4983 rc
85 dict begin %Colortable dictionary
/c0 { 0.000000 0.000000 0.000000 sr} bdef
/c1 { 1.000000 1.000000 1.000000 sr} bdef
/c2 { 0.900000 0.000000 0.000000 sr} bdef
/c3 { 0.000000 0.820000 0.000000 sr} bdef
/c4 { 0.000000 0.000000 0.800000 sr} bdef
/c5 { 0.910000 0.820000 0.320000 sr} bdef
/c6 { 1.000000 0.260000 0.820000 sr} bdef
/c7 { 0.000000 0.820000 0.820000 sr} bdef
c0
1 j
1 sg
   0    0 6913 5186 rf
6 w
0 4226 5356 0 0 -4226 899 4615 4 MP
PP
-5356 0 0 4226 5356 0 0 -4226 899 4615 5 MP stroke
4 w
DO
0 sg
 899 4615 mt  899  389 L
 899  389 mt  899  389 L
1434 4615 mt 1434  389 L
1434  389 mt 1434  389 L
1970 4615 mt 1970  389 L
1970  389 mt 1970  389 L
2505 4615 mt 2505  389 L
2505  389 mt 2505  389 L
3041 4615 mt 3041  389 L
3041  389 mt 3041  389 L
3577 4615 mt 3577  389 L
3577  389 mt 3577  389 L
4112 4615 mt 4112  389 L
4112  389 mt 4112  389 L
4648 4615 mt 4648  389 L
4648  389 mt 4648  389 L
5183 4615 mt 5183  389 L
5183  389 mt 5183  389 L
5719 4615 mt 5719  389 L
5719  389 mt 5719  389 L
6255 4615 mt 6255  389 L
6255  389 mt 6255  389 L
 899 4615 mt 6255 4615 L
6255 4615 mt 6255 4615 L
 899 4192 mt 6255 4192 L
6255 4192 mt 6255 4192 L
 899 3769 mt 6255 3769 L
6255 3769 mt 6255 3769 L
 899 3347 mt 6255 3347 L
6255 3347 mt 6255 3347 L
 899 2924 mt 6255 2924 L
6255 2924 mt 6255 2924 L
 899 2502 mt 6255 2502 L
6255 2502 mt 6255 2502 L
 899 2079 mt 6255 2079 L
6255 2079 mt 6255 2079 L
 899 1656 mt 6255 1656 L
6255 1656 mt 6255 1656 L
 899 1234 mt 6255 1234 L
6255 1234 mt 6255 1234 L
 899  811 mt 6255  811 L
6255  811 mt 6255  811 L
 899  389 mt 6255  389 L
6255  389 mt 6255  389 L
SO
6 w
 899 4615 mt 6255 4615 L
 899 4615 mt  899  389 L
 899 4615 mt  899 4561 L
%%IncludeResource: font Helvetica
/Helvetica /ISOLatin1Encoding 120 FMSR

 866 4760 mt 
(0) s
1434 4615 mt 1434 4561 L
1401 4760 mt 
(5) s
1970 4615 mt 1970 4561 L
1904 4760 mt 
(10) s
2505 4615 mt 2505 4561 L
2439 4760 mt 
(15) s
3041 4615 mt 3041 4561 L
2975 4760 mt 
(20) s
3577 4615 mt 3577 4561 L
3511 4760 mt 
(25) s
4112 4615 mt 4112 4561 L
4046 4760 mt 
(30) s
4648 4615 mt 4648 4561 L
4582 4760 mt 
(35) s
5183 4615 mt 5183 4561 L
5117 4760 mt 
(40) s
5719 4615 mt 5719 4561 L
5653 4760 mt 
(45) s
6255 4615 mt 6255 4561 L
6189 4760 mt 
(50) s
 899 4615 mt  952 4615 L
 661 4659 mt 
(-50) s
 899 4192 mt  952 4192 L
 661 4236 mt 
(-40) s
 899 3769 mt  952 3769 L
 661 3813 mt 
(-30) s
 899 3347 mt  952 3347 L
 661 3391 mt 
(-20) s
 899 2924 mt  952 2924 L
 661 2968 mt 
(-10) s
 899 2502 mt  952 2502 L
 798 2546 mt 
(0) s
 899 2079 mt  952 2079 L
 731 2123 mt 
(10) s
 899 1656 mt  952 1656 L
 731 1700 mt 
(20) s
 899 1234 mt  952 1234 L
 731 1278 mt 
(30) s
 899  811 mt  952  811 L
 731  855 mt 
(40) s
 899  389 mt  952  389 L
 731  433 mt 
(50) s
gs 899 389 5357 4227 rc
/c8 { 1.000000 0.000000 0.000000 sr} bdef
c8
3 0 2 0 2 0 2 0 2 0 2 0 2 0 3 0 
2 0 2 0 2 1 2 0 2 0 2 0 3 0 2 0 
2 0 2 0 2 0 2 0 2 0 3 0 2 0 2 0 
2 0 2 0 2 0 2 -1 3 0 2 0 2 0 2 0 
2 0 2 0 2 0 3 0 2 0 2 0 2 0 2 0 
2 0 2 0 3 0 2 0 2 1 2 0 2 0 2 0 
2 0 3 0 2 0 2 0 2 0 2 0 2 0 2 0 
3 0 2 0 2 0 2 0 2 -1 2 0 2 0 3 0 
2 0 2 0 2 0 2 0 2 0 2 0 3 0 2 0 
2 0 2 0 2 0 2 0 2 0 3 1 2 0 2 0 
2 0 2 0 2 0 2 0 3 0 2 0 2 0 2 0 
2 0 2 0 2 0 3 0 2 0 2 0 2 -1 2 0 
2 0 2 0 3 0 2 0 2 0 2 0 2 0 2 0 
2 0 3 0 2 0 2 0 2 0 2 0 2 0 2 1 
3 0 2 0 2 0 2 0 2 0 2 0 2 0 3 0 
2 0 2 0 2 0 2 0 2 0 2 0 3 0 2 -1 
2 0 2 0 2 0 2 0 2 0 3 0 2 0 2 0 
2 0 2 0 2 0 2 0 3 0 2 0 2 0 2 0 
2 1 2 0 2 0 3 0 2 0 2 0 2 0 2 0 
2 0 2 0 3 0 2 0 2 0 2 0 2 0 2 0 
2 0 3 -1 2 0 2 0 2 0 2 0 2 0 2 0 
3 0 2 0 2 0 2 0 2 0 2 0 2 0 3 0 
2 0 2 1 2 0 2 0 2 0 2 0 3 0 2 0 
2 0 2 0 2 0 2 0 2 0 3 0 2 0 2 0 
2 0 2 0 2 -1 2 0 3 0 2 0 2 0 2 0 
2 0 2 0 2 0 3 0 2 0 2 0 2 0 2 0 
2 0 2 0 3 0 2 1 2 0 2 0 2 0 2 0 
2 0 3 0 2 0 2 0 2 0 2 0 2 0 2 0 
3 0 2 0 2 0 2 0 2 -1 2 0 2 0 3 0 
2 0 2 0 2 0 2 0 2 0 2 0 3 0 2 0 
2 0 2 0 2 0 2 0 2 1 3 0 2 0 2 0 
2 0 2 0 2 0 2 0 3 0 2 0 2 0 2 0 
2 0 2 0 2 0 3 0 2 0 2 -1 2 0 2 0 
2 0 2 0 3 0 2 0 2 0 2 0 2 0 2 0 
2 0 3 0 2 0 2 0 2 0 2 0 2 1 2 0 
3 0 2 0 2 0 2 0 2 0 2 0 2 1 3 -1 
2 0 2 0 2 0 2 0 2 0 2 0 3 -1 2 0 
2 0 2 0 2 0 5614 2502 300 MP stroke
2 0 2 -1 3 0 2 0 2 0 2 0 2 0 2 1 
2 0 3 0 2 0 2 0 2 1 2 0 2 0 2 0 
2 0 3 1 2 0 2 0 2 0 2 0 2 0 2 0 
3 -1 2 0 2 0 2 0 2 0 2 -1 2 0 3 0 
2 0 2 -1 2 0 2 0 2 0 2 0 3 0 2 0 
2 0 2 1 2 0 2 0 2 0 3 1 2 0 2 0 
2 0 2 1 2 0 2 0 3 0 2 0 2 0 2 0 
2 0 2 0 2 0 3 -1 2 0 2 0 2 -1 2 0 
2 0 2 0 3 -1 2 0 2 0 2 0 2 0 2 0 
2 0 3 0 2 0 2 0 2 1 2 0 2 0 2 1 
3 0 2 0 2 1 2 0 2 0 2 0 2 0 3 0 
2 0 2 0 2 0 2 0 2 0 2 -1 3 0 2 0 
2 -1 2 0 2 -1 2 0 2 0 3 0 2 -1 2 0 
2 0 2 0 2 0 2 1 3 0 2 0 2 1 2 0 
2 1 2 0 2 0 3 1 2 0 2 0 2 1 2 0 
2 0 2 0 3 0 2 0 2 -1 2 0 2 0 2 0 
2 -1 3 -1 2 0 2 -1 2 0 2 0 2 -1 2 0 
3 0 2 0 2 0 2 0 2 0 2 0 2 1 3 0 
2 1 2 0 2 1 2 0 2 1 2 0 3 1 2 0 
2 0 2 0 2 1 2 0 2 0 3 -1 2 0 2 -1 
2 0 2 0 2 -1 2 -1 3 0 2 -1 2 0 2 -1 
2 0 2 -1 2 0 3 0 2 0 2 0 2 1 2 0 
2 0 2 1 3 1 2 0 2 1 2 1 2 0 2 1 
2 0 3 1 2 0 2 0 2 1 2 -1 2 0 2 0 
3 -1 2 0 2 -1 2 0 2 -1 2 -1 2 -1 3 -1 
2 0 2 -1 2 0 2 -1 2 0 2 0 3 0 2 1 
2 0 2 1 2 0 2 0 2 2 3 0 2 1 2 1 
2 1 2 1 2 0 2 1 3 0 2 0 2 0 2 0 
2 0 2 -1 2 0 3 -1 2 0 2 -1 2 -1 2 -2 
2 -1 2 -1 3 0 2 -1 2 0 2 0 2 0 2 0 
2 -1 3 1 2 0 2 0 2 0 2 2 2 2 2 1 
3 1 2 1 2 1 2 0 2 0 2 1 2 0 3 1 
2 0 2 1 2 0 2 0 2 -1 2 -2 3 -1 2 -1 
2 -2 2 -1 2 -1 2 -1 2 0 3 0 2 -1 2 0 
2 -1 2 -1 2 0 2 0 3 0 2 1 2 1 2 1 
2 3 2 1 2 0 3 2 2 0 2 1 2 1 2 1 
2 1 2 1 3 0 2 0 2 -1 2 -1 2 -1 2 -2 
2 0 3 -1 2 -1 4973 2501 300 MP stroke
2 -1 2 -1 2 -1 2 -2 2 -2 3 -1 2 -1 2 -2 
2 0 2 1 2 2 2 1 3 2 2 1 2 2 2 0 
2 1 2 1 2 2 3 2 2 2 2 1 2 2 2 2 
2 -1 2 -1 2 -1 3 -1 2 0 2 -2 2 -1 2 0 
2 1 2 -1 3 -3 2 -2 2 -3 2 -3 2 -2 2 -2 
2 0 3 0 2 0 2 1 2 1 2 0 2 0 2 0 
3 1 2 0 2 0 2 3 2 3 2 2 2 2 3 2 
2 1 2 1 2 1 2 1 2 0 2 0 3 1 2 0 
2 0 2 0 2 0 2 1 2 -1 3 -2 2 -1 2 -1 
2 -3 2 -3 2 -3 2 -3 3 -2 2 -1 2 -1 2 0 
2 -1 2 -1 2 0 3 1 2 1 2 2 2 2 2 2 
2 2 2 2 3 1 2 1 2 1 2 1 2 2 2 1 
2 2 3 2 2 2 2 1 2 -1 2 -2 2 -2 2 -2 
3 -2 2 -1 2 1 2 -1 2 1 2 -2 2 -2 3 -3 
2 -5 2 -5 2 -4 2 -2 2 0 2 0 3 3 2 4 
2 3 2 1 2 2 2 4 2 3 3 1 2 1 2 4 
2 3 2 3 2 2 2 1 3 -1 2 -2 2 -1 2 -1 
2 -1 2 -2 2 -2 3 -1 2 -2 2 -2 2 -3 2 -6 
2 -4 2 -3 3 -2 2 1 2 1 2 2 2 1 2 1 
2 1 3 1 2 0 2 0 2 3 2 3 2 1 2 3 
3 2 2 2 2 2 2 2 2 2 2 2 2 1 3 0 
2 0 2 1 2 -1 2 -1 2 -4 2 -4 3 -1 2 -1 
2 -4 2 -2 2 -3 2 -3 2 -2 3 -2 2 -1 2 0 
2 0 2 1 2 1 2 0 3 2 2 1 2 1 2 1 
2 3 2 3 2 3 3 3 2 3 2 3 2 2 2 -1 
2 -2 2 -2 3 -2 2 -2 2 -2 2 0 2 1 2 1 
2 0 3 1 2 1 2 0 2 -2 2 -3 2 -1 2 -2 
3 -3 2 -2 2 -2 2 -2 2 -3 2 -2 2 0 3 0 
2 0 2 2 2 5 2 6 2 4 2 5 3 3 2 2 
2 2 2 1 2 -1 2 0 2 1 3 1 2 -2 2 -3 
2 -2 2 -1 2 -4 2 -4 3 -4 2 -2 2 -2 2 -1 
2 0 2 0 2 -2 3 -2 2 -3 2 -1 2 2 2 0 
2 1 2 4 3 7 2 5 2 4 2 3 2 3 2 1 
2 0 3 1 2 0 2 -1 2 -1 2 1 2 1 2 -1 
3 -4 2 -3 2 -3 2 -2 2 -2 2 -3 2 -1 3 0 
2 0 2 -1 2 0 2 -1 2 -2 2 -3 3 -1 2 0 
2 0 2 0 2 3 2 4 2 4 3 2 2 3 2 2 
2 0 2 1 2 2 4333 2494 300 MP stroke
2 3 3 2 2 3 2 2 2 2 2 1 2 -2 2 -3 
3 -4 2 -3 2 -4 2 -6 2 -4 2 -4 2 -2 3 -3 
2 -2 2 -1 2 -1 2 -2 2 0 2 3 3 4 2 2 
2 4 2 6 2 6 2 3 2 3 3 2 2 -1 2 -1 
2 -1 2 -1 2 -1 2 -1 3 -1 2 0 2 0 2 -2 
2 -1 2 -2 2 0 2 -2 3 -1 2 0 2 0 2 2 
2 1 2 2 2 1 3 0 2 -2 2 -2 2 -2 2 -2 
2 -2 2 -1 3 0 2 0 2 0 2 1 2 1 2 1 
2 1 3 0 2 0 2 0 2 1 2 0 2 2 2 1 
3 1 2 2 2 1 2 2 2 2 2 0 2 1 3 0 
2 -1 2 -2 2 -1 2 0 2 0 2 0 3 2 2 2 
2 1 2 -3 2 -2 2 -3 2 -3 3 -5 2 -4 2 -2 
2 -4 2 -2 2 -1 2 0 3 0 2 -1 2 1 2 4 
2 1 2 0 2 5 3 7 2 3 2 5 2 5 2 2 
2 2 2 1 3 0 2 -1 2 -1 2 0 2 -2 2 -1 
2 0 3 1 2 1 2 -1 2 -2 2 1 2 -1 2 -4 
3 -5 2 -4 2 -5 2 -4 2 -5 2 -5 2 -3 3 -3 
2 -2 2 -1 2 3 2 5 2 4 2 4 3 8 2 7 
2 2 2 4 2 3 2 4 2 3 3 3 2 3 2 3 
2 1 2 1 2 1 2 -3 3 -5 2 -5 2 -3 2 -3 
2 -7 2 -7 2 -6 3 -6 2 -4 2 -3 2 -2 2 0 
2 1 2 4 3 2 2 2 2 1 2 1 2 1 2 3 
2 6 3 7 2 5 2 5 2 4 2 2 2 1 2 0 
3 -1 2 -3 2 -2 2 -2 2 -2 2 -2 2 -3 3 -1 
2 -2 2 -3 2 -4 2 -4 2 -2 2 -1 3 1 2 1 
2 1 2 1 2 3 2 1 2 0 3 0 2 2 2 2 
2 2 2 5 2 4 2 3 3 0 2 0 2 -1 2 -2 
2 -4 2 -5 2 -5 3 -4 2 -2 2 0 2 1 2 1 
2 -1 2 -1 3 0 2 -1 2 0 2 1 2 4 2 5 
2 3 3 4 2 3 2 1 2 0 2 -2 2 -3 2 -2 
3 0 2 0 2 1 2 0 2 -1 2 -2 2 -1 3 -1 
2 -2 2 0 2 0 2 0 2 0 2 2 3 0 2 -1 
2 -2 2 -4 2 -4 2 1 2 4 3 6 2 6 2 5 
2 2 2 1 2 0 2 -3 3 -4 2 -3 2 -2 2 -1 
2 1 2 1 2 0 3 -2 2 -6 2 -7 2 -6 2 -6 
2 -1 2 3 3 6 2 7 2 8 2 7 2 3 2 0 
2 0 3 -1 2 -1 2 2 2 4 2 4 2 3 2 1 
3 -1 2 -5 2 -8 3692 2495 300 MP stroke
2 -9 2 -6 2 -5 2 -3 3 1 2 3 2 4 2 2 
2 -1 2 -2 2 -4 3 -4 2 -1 2 5 2 7 2 4 
2 8 2 8 3 5 2 0 2 -3 2 -4 2 -5 2 -4 
2 -2 3 2 2 8 2 7 2 3 2 0 2 0 2 -2 
3 -8 2 -9 2 -8 2 -7 2 -5 2 -2 2 1 3 1 
2 1 2 -2 2 -3 2 -1 2 -3 2 0 3 7 2 10 
2 10 2 7 2 7 2 4 2 2 2 1 3 0 2 -1 
2 1 2 2 2 1 2 0 2 -1 3 -1 2 -6 2 -13 
2 -11 2 -9 2 -5 2 -2 3 0 2 0 2 3 2 1 
2 -2 2 -1 2 0 3 2 2 2 2 6 2 9 2 4 
2 9 2 9 3 6 2 3 2 -2 2 -3 2 -5 2 -4 
2 -4 3 -3 2 1 2 0 2 -4 2 -2 2 -1 2 -5 
3 -3 2 0 2 0 2 2 2 1 2 -5 2 -8 3 -2 
2 5 2 2 2 -1 2 1 2 5 2 4 3 7 2 7 
2 7 2 2 2 -2 2 -3 2 -3 3 0 2 0 2 -1 
2 -1 2 -1 2 -1 2 -5 3 -6 2 -7 2 -6 2 -3 
2 1 2 4 2 9 3 7 2 2 2 -1 2 -2 2 -5 
2 -10 2 -7 3 -1 2 5 2 6 2 10 2 10 2 10 
2 8 3 4 2 2 2 -3 2 -6 2 -7 2 -5 2 -3 
3 -5 2 -6 2 -6 2 -4 2 -1 2 2 2 1 3 -1 
2 -1 2 -1 2 -3 2 -2 2 -2 2 -5 3 -5 2 4 
2 11 2 8 2 8 2 11 2 9 3 6 2 0 2 0 
2 -1 2 -2 2 -2 2 5 3 3 2 -2 2 -2 2 0 
2 -2 2 -12 2 -12 3 -12 2 -9 2 -6 2 -4 2 -1 
2 3 2 2 3 -1 2 -2 2 -1 2 -2 2 -5 2 -1 
2 7 3 13 2 13 2 15 2 15 2 4 2 2 2 3 
3 0 2 -1 2 0 2 3 2 2 2 1 2 3 3 2 
2 -5 2 -12 2 -6 2 -11 2 -12 2 -10 3 -9 2 -6 
2 -5 2 -4 2 -3 2 -3 2 -3 3 -4 2 1 2 6 
2 9 2 7 2 8 2 11 3 7 2 2 2 3 2 8 
2 5 2 8 2 10 3 11 2 8 2 4 2 -2 2 -9 
2 -12 2 -7 3 -3 2 -6 2 -4 2 4 2 5 2 -5 
2 -11 3 -16 2 -18 2 -16 2 -11 2 -3 2 2 2 6 
3 7 2 6 2 0 2 0 2 0 2 -3 2 -5 3 2 
2 14 2 19 2 16 2 19 2 13 2 9 3 4 2 0 
2 -4 2 -6 2 -2 2 3 2 -1 3 -5 2 -5 2 -2 
2 -4 2 -14 2 -6 2 -9 3 -10 2 -5 2 -4 2 -2 
2 -3 2 -4 2 -6 3052 2538 300 MP stroke
3 -8 2 -8 2 -2 2 4 2 8 2 9 2 16 3 18 
2 12 2 7 2 6 2 4 2 1 2 1 3 0 2 -3 
2 0 2 3 2 1 2 -7 2 -5 3 -2 2 -3 2 -8 
2 -7 2 -4 2 -5 2 -7 3 -8 2 -5 2 -4 2 -4 
2 -1 2 2 2 7 3 7 2 6 2 8 2 7 2 1 
2 -1 2 1 3 3 2 0 2 3 2 4 2 5 2 4 
2 2 3 -2 2 -5 2 -4 2 -3 2 -1 2 3 2 1 
3 0 2 -2 2 -3 2 -5 2 -4 2 -2 2 0 3 1 
2 5 2 8 2 8 2 3 2 -2 2 -5 2 -10 3 -13 
2 -12 2 -10 2 -2 2 4 2 11 2 13 3 8 2 -1 
2 -5 2 -6 2 -5 2 -5 2 0 3 7 2 9 2 5 
2 11 2 10 2 6 2 0 3 -4 2 -7 2 -7 2 -1 
2 3 2 3 2 -1 3 -2 2 0 2 0 2 -4 2 -4 
2 -6 2 -5 3 -3 2 0 2 2 2 0 2 -1 2 -4 
2 -5 3 -5 2 -4 2 1 2 7 2 9 2 10 2 8 
3 6 2 0 2 -3 2 -7 2 -6 2 -5 2 -3 3 -4 
2 1 2 6 2 9 2 9 2 6 2 5 3 3 2 0 
2 0 2 4 2 3 2 -1 2 -2 3 -1 2 -3 2 -13 
2 -13 2 -13 2 -10 2 -10 3 -7 2 0 2 3 2 3 
2 1 2 2 2 4 3 2 2 3 2 9 2 15 2 13 
2 12 2 10 3 5 2 -4 2 -11 2 -14 2 -12 2 -9 
2 -3 3 4 2 10 2 11 2 9 2 2 2 -5 2 -8 
3 -10 2 -10 2 -6 2 2 2 11 2 15 2 15 3 11 
2 2 2 -12 2 -16 2 -17 2 -16 2 -14 3 -6 2 5 
2 10 2 9 2 4 2 -3 2 -8 3 -8 2 -11 2 -8 
2 2 2 13 2 17 2 13 3 18 2 11 2 7 2 2 
2 3 2 4 2 5 3 7 2 7 2 1 2 -3 2 -6 
2 -8 2 -10 3 -11 2 -13 2 -20 2 -15 2 -6 2 -2 
2 -1 3 -1 2 -3 2 -5 2 -6 2 -6 2 -6 2 -2 
3 5 2 9 2 12 2 18 2 18 2 9 2 10 3 3 
2 13 2 16 2 12 2 9 2 7 2 3 3 -4 2 -8 
2 -11 2 -15 2 -18 2 -15 2 -10 3 -14 2 -10 2 -5 
2 -2 2 0 2 0 2 -1 3 -2 2 -3 2 -4 2 -5 
2 -2 2 0 2 2 3 4 2 5 2 7 2 9 2 11 
2 13 2 12 3 15 2 5 2 11 2 12 2 5 2 -2 
2 -5 3 -6 2 -12 2 -11 2 -5 2 0 2 -4 2 -2 
3 6 2 8 2 -4 2 -13 2 -18 2 -20 2 -19 3 -17 
2 -8 2 3 2 6 2411 2563 300 MP stroke
2 9 2 10 2 12 3 13 2 12 2 8 2 3 2 -4 
2 -3 2 1 3 6 2 3 2 4 2 0 2 -1 2 -5 
2 -3 3 0 2 1 2 2 2 5 2 8 2 6 2 4 
3 4 2 10 2 7 2 0 2 -2 2 -4 2 -6 3 -7 
2 -2 2 -10 2 -14 2 -13 2 -12 2 -13 3 -9 2 -1 
2 2 2 -4 2 -6 2 -5 2 -4 3 -6 2 -4 2 3 
2 8 2 11 2 13 2 11 3 13 2 13 2 9 2 3 
2 0 2 2 2 5 3 11 2 13 2 11 2 15 2 17 
2 6 2 -7 3 -13 2 -12 2 -9 2 -12 2 -13 2 -7 
2 -9 3 -11 2 -9 2 -9 2 -12 2 -16 2 -22 2 -23 
2 -19 3 -11 2 1 2 11 2 14 2 19 2 24 2 32 
3 28 2 12 2 9 2 8 2 3 2 -2 2 -1 3 4 
2 4 2 1 2 -3 2 -4 2 -3 2 1 3 -1 2 -4 
2 -4 2 -2 2 -7 2 -11 2 -6 3 2 2 -3 2 -2 
2 7 2 16 2 16 2 2 3 -13 2 -21 2 -19 2 -16 
2 -14 2 -10 2 -1 3 4 2 5 2 4 2 2 2 -2 
2 -14 2 -17 3 -6 2 5 2 6 2 15 2 32 2 45 
2 29 3 18 2 6 2 3 2 -14 2 -34 2 -30 2 -13 
3 0 2 -1 2 19 2 43 2 37 2 8 2 3 3 19 
2 -23 2 -57 2 -53 2 -49 2 -47 2 -35 3 -11 2 15 
2 31 2 41 2 45 2 33 2 10 3 -2 2 -8 2 -18 
2 -14 2 7 2 19 2 12 3 11 2 6 2 -2 2 -13 
2 -14 2 -5 2 2 3 10 2 19 2 27 2 29 2 18 
2 9 2 -4 3 -17 2 -36 2 -38 2 -39 2 -27 2 -7 
2 4 3 11 2 11 2 11 2 5 2 -10 2 -16 2 -20 
3 -15 2 -8 2 -7 2 -3 2 12 2 25 2 19 3 11 
2 13 2 13 2 5 2 4 2 16 2 18 3 6 2 6 
2 8 2 -2 2 -14 2 -11 2 -15 3 -16 2 -17 2 -7 
2 4 2 20 2 46 2 37 3 -1 2 1 2 12 2 -19 
2 -40 2 -47 2 -38 3 -26 2 -13 2 6 2 14 2 6 
2 0 2 4 3 6 2 -7 2 -17 2 -10 2 3 2 6 
2 12 3 26 2 40 2 39 2 20 2 2 2 -12 2 -14 
3 -6 2 -3 2 -9 2 -7 2 4 2 -6 2 -22 3 -22 
2 -13 2 -10 2 -8 2 8 2 31 2 45 3 61 2 64 
2 44 2 10 2 -5 2 -9 2 -31 3 -56 2 -52 2 -35 
2 -34 2 -34 2 -3 2 -1 3 -11 2 -13 2 -19 2 -31 
2 -34 2 -18 2 -1 3 22 2 41 2 53 2 54 2 42 
2 18 2 -12 3 -18 1770 2486 300 MP stroke
2 -17 2 -7 2 13 2 50 2 60 2 44 3 34 2 -9 
2 -46 2 -55 2 -83 2 -117 2 -84 3 -66 2 -41 2 15 
2 23 2 40 2 76 2 87 3 75 2 32 2 23 2 50 
2 2 2 -17 2 -12 3 -10 2 -7 2 -4 2 2 2 4 
2 19 2 36 3 31 2 -2 2 -27 2 -30 2 -23 2 -22 
2 -28 3 -3 2 32 2 27 2 -2 2 2 2 27 2 11 
3 -43 2 -58 2 -21 2 -1 2 -81 2 -63 2 -24 3 20 
2 46 2 40 2 17 2 5 2 -9 2 -28 3 -42 2 -41 
2 -21 2 6 2 25 2 69 2 116 3 98 2 35 2 -4 
2 -14 2 -29 2 -39 2 -40 3 -35 2 -26 2 -17 2 2 
2 37 2 74 2 45 3 4 2 23 2 36 2 -65 2 -77 
2 -82 2 -81 3 -58 2 -29 2 -3 2 32 2 57 2 63 
2 57 2 32 3 8 2 -9 2 -13 2 2 2 13 2 14 
2 23 3 36 2 -1 2 -56 2 -50 2 -26 2 -40 2 -58 
3 9 2 72 2 49 2 18 2 29 2 40 2 5 3 -26 
2 -10 2 12 2 5 2 -5 2 -6 2 25 3 29 2 23 
2 -24 2 -82 2 -73 2 -66 2 -52 3 -46 2 7 2 48 
2 24 2 17 2 20 2 28 3 36 2 7 2 -7 2 -6 
2 -16 2 -9 2 -21 3 -17 2 -9 2 0 2 22 2 52 
2 41 2 21 3 26 2 20 2 12 2 17 2 9 2 -36 
2 -42 3 -22 2 -81 2 -102 2 -10 2 50 2 -31 2 38 
3 105 2 138 2 89 2 9 2 -26 2 -44 2 -23 3 -6 
2 -18 2 -49 2 -26 2 45 2 39 2 14 3 60 2 89 
2 47 2 -9 2 -4 2 -127 2 -118 3 36 2 -123 2 -72 
2 -59 2 -17 2 -57 2 -110 3 -21 2 85 2 74 2 48 
2 149 2 159 2 146 3 103 2 60 2 13 2 -52 2 -100 
2 -228 2 -356 3 -117 2 -96 2 -80 2 -80 2 22 2 99 
2 114 3 120 2 103 2 115 2 103 2 44 2 -4 2 -7 
3 -6 2 -12 2 -20 2 -20 2 -4 2 21 2 19 3 4 
2 19 2 2 2 -37 2 -19 2 57 2 15 3 -10 2 56 
2 -86 2 -82 2 28 2 -15 2 -1 3 25 2 40 2 -37 
2 -49 2 32 2 14 2 -22 3 15 2 62 2 -91 2 -54 
2 51 2 -6 2 24 3 29 2 17 2 -36 2 -7 2 45 
2 -3 2 -12 3 41 2 6 2 -79 2 -59 2 -37 2 18 
2 78 3 31 2 -3 2 -7 2 -42 2 -63 2 -13 2 84 
3 -7 2 48 2 41 2 -4 2 -15 2 -7 2 -22 3 -17 
2 1 2 1 2 27 2 22 2 -48 2 1 3 90 2 -58 
2 -88 2 -16 2 39 1130 2532 300 MP stroke
2 8 2 -14 3 22 2 8 2 -40 2 -30 2 65 2 11 
2 37 3 17 2 -30 2 -14 2 13 2 3 2 -6 2 4 
3 20 2 -52 2 -20 2 -1 2 21 2 9 2 2 3 -39 
2 -13 2 20 2 3 2 25 2 31 2 9 3 -16 2 8 
2 -14 2 -16 2 4 2 16 2 -34 3 -24 2 40 2 11 
2 -11 2 19 2 43 2 -91 3 -53 2 25 2 53 2 3 
2 19 2 53 2 -59 3 -44 2 18 2 -11 2 4 2 43 
2 -12 2 -17 3 -12 2 8 2 4 2 9 2 11 2 -9 
2 -10 3 -6 2 12 2 6 2 7 2 22 2 -34 2 -31 
3 -4 2 27 2 0 2 9 2 16 2 -12 2 -12 3 -7 
2 4 2 6 2 4 2 -4 2 -1 2 -3 3 -4 2 6 
2 1 2 -1 2 0 2 -1 2 5 3 4 2 3 2 4 
2 -1 2 -7 2 -6 2 -3 3 1 2 2 2 1 2 0 
2 -1 2 -1 2 0 -105 2 11 0 11 0 11 0 10 0 
11 0 11 0 10 0 11 0 11 0 909 2502 118 MP stroke
DA
0 sg
3 0 2 0 2 0 2 0 2 0 2 0 2 0 3 1 
2 0 2 0 2 0 2 0 2 0 2 0 3 0 2 0 
2 0 2 -1 2 0 2 0 2 0 3 0 2 0 2 0 
2 0 2 0 2 1 2 0 3 0 2 0 2 0 2 0 
2 0 2 0 2 0 3 0 2 -1 2 0 2 0 2 0 
2 0 2 0 3 0 2 0 2 0 2 1 2 0 2 0 
2 0 3 0 2 0 2 0 2 0 2 0 2 0 2 -1 
3 0 2 0 2 0 2 0 2 0 2 0 2 0 3 0 
2 1 2 0 2 0 2 0 2 0 2 0 3 0 2 0 
2 0 2 0 2 -1 2 0 2 0 3 0 2 0 2 0 
2 0 2 0 2 0 2 1 3 0 2 0 2 0 2 0 
2 0 2 0 2 0 3 0 2 0 2 -1 2 0 2 0 
2 0 2 0 3 0 2 0 2 0 2 0 2 1 2 0 
2 0 3 0 2 0 2 0 2 0 2 0 2 0 2 0 
3 -1 2 0 2 0 2 0 2 0 2 0 2 0 3 0 
2 0 2 1 2 0 2 0 2 0 2 0 3 0 2 0 
2 0 2 0 2 0 2 -1 2 0 3 0 2 0 2 0 
2 0 2 0 2 0 2 0 3 1 2 0 2 0 2 0 
2 0 2 0 2 0 3 0 2 0 2 0 2 -1 2 0 
2 0 2 0 3 0 2 0 2 0 2 0 2 0 2 1 
2 0 3 0 2 0 2 0 2 0 2 0 2 0 2 0 
3 0 2 -1 2 0 2 0 2 0 2 0 2 0 3 0 
2 0 2 0 2 1 2 0 2 0 2 0 3 0 2 0 
2 0 2 0 2 0 2 0 2 -1 3 0 2 0 2 0 
2 0 2 0 2 0 2 0 3 0 2 1 2 0 2 0 
2 0 2 0 2 0 3 0 2 0 2 0 2 -1 2 0 
2 0 2 0 3 0 2 0 2 0 2 0 2 0 2 0 
2 1 3 0 2 0 2 0 2 0 2 0 2 0 2 0 
3 0 2 -1 2 0 2 0 2 0 2 0 2 0 3 0 
2 0 2 0 2 0 2 1 2 0 2 0 3 0 2 0 
2 0 2 0 2 0 2 0 2 -1 3 0 2 0 2 0 
2 0 2 0 2 0 2 0 3 0 2 0 2 1 2 0 
2 0 2 0 2 0 3 0 2 0 2 0 2 0 2 -1 
2 0 2 0 3 0 2 0 2 0 2 0 2 0 2 0 
2 0 3 1 2 0 2 0 2 0 2 0 2 0 2 0 
3 0 2 0 2 -1 2 0 2 0 2 0 2 0 3 0 
2 0 2 0 2 0 2 0 2 1 2 0 3 0 2 0 
2 0 2 0 2 0 5614 2501 300 MP stroke
2 0 2 0 3 -1 2 0 2 0 2 0 2 0 2 0 
2 0 3 0 2 0 2 0 2 1 2 0 2 0 2 0 
2 0 3 0 2 0 2 0 2 0 2 -1 2 0 2 0 
3 0 2 0 2 0 2 0 2 0 2 0 2 0 3 1 
2 0 2 0 2 0 2 0 2 0 2 0 3 0 2 0 
2 -1 2 0 2 0 2 0 2 0 3 0 2 0 2 0 
2 0 2 0 2 1 2 0 3 0 2 0 2 0 2 0 
2 0 2 0 2 0 3 -1 2 0 2 0 2 0 2 0 
2 0 2 0 3 0 2 0 2 0 2 1 2 0 2 0 
2 0 3 0 2 0 2 0 2 0 2 0 2 -1 2 0 
3 0 2 0 2 0 2 0 2 0 2 0 2 0 3 0 
2 1 2 0 2 0 2 0 2 0 2 0 3 0 2 0 
2 0 2 -1 2 0 2 0 2 0 3 0 2 0 2 0 
2 0 2 0 2 0 2 1 3 0 2 0 2 0 2 0 
2 0 2 0 2 0 3 0 2 -1 2 0 2 0 2 0 
2 0 2 0 3 0 2 0 2 0 2 0 2 1 2 0 
2 0 3 0 2 0 2 0 2 0 2 0 2 0 2 -1 
3 0 2 0 2 0 2 0 2 0 2 0 2 0 3 0 
2 1 2 0 2 0 2 0 2 0 2 0 3 0 2 0 
2 0 2 0 2 -1 2 0 2 0 3 0 2 0 2 0 
2 0 2 0 2 0 2 1 3 0 2 0 2 0 2 0 
2 0 2 0 2 0 3 0 2 0 2 -1 2 0 2 0 
2 0 2 0 3 0 2 0 2 0 2 0 2 1 2 0 
2 0 3 0 2 0 2 0 2 0 2 0 2 0 2 -1 
3 0 2 0 2 0 2 0 2 0 2 0 2 0 3 0 
2 0 2 1 2 0 2 0 2 0 2 0 3 0 2 0 
2 0 2 0 2 -1 2 0 2 0 3 0 2 0 2 0 
2 0 2 0 2 0 2 1 3 0 2 0 2 0 2 0 
2 0 2 0 2 0 3 0 2 -1 2 0 2 0 2 0 
2 0 2 0 3 0 2 0 2 1 2 0 2 0 2 0 
2 0 3 -1 2 1 2 0 2 0 2 -1 2 0 2 0 
3 0 2 0 2 0 2 0 2 0 2 0 2 1 3 0 
2 0 2 0 2 0 2 0 2 0 2 0 3 0 2 -1 
2 0 2 -1 2 0 2 1 2 0 3 1 2 0 2 1 
2 0 2 0 2 -1 2 0 3 -1 2 0 2 -1 2 1 
2 0 2 0 2 0 3 0 2 1 2 1 2 -1 2 0 
2 0 2 -1 3 1 2 0 2 0 2 -1 2 0 2 -1 
2 1 3 0 2 0 4973 2502 300 MP stroke
2 0 2 0 2 0 2 1 2 0 3 0 2 -1 2 0 
2 0 2 0 2 1 2 1 3 0 2 -1 2 0 2 0 
2 0 2 0 2 -1 3 0 2 -1 2 -1 2 1 2 1 
2 1 2 0 2 0 3 -1 2 1 2 1 2 0 2 0 
2 0 2 0 3 0 2 1 2 0 2 -2 2 -2 2 -3 
2 -1 3 2 2 2 2 1 2 1 2 -1 2 1 2 0 
3 1 2 -1 2 -2 2 -1 2 0 2 3 2 2 3 0 
2 -1 2 -3 2 -1 2 1 2 2 2 1 3 -1 2 -2 
2 1 2 2 2 3 2 1 2 -1 3 -3 2 -1 2 0 
2 1 2 0 2 -3 2 -4 3 -2 2 1 2 3 2 3 
2 1 2 -2 2 0 3 3 2 4 2 4 2 0 2 -4 
2 -5 2 -4 3 0 2 1 2 -1 2 -2 2 -3 2 0 
2 2 3 4 2 3 2 1 2 1 2 1 2 3 2 4 
3 1 2 -3 2 -5 2 -3 2 0 2 0 2 -2 3 -4 
2 -5 2 -4 2 0 2 3 2 4 2 3 3 2 2 5 
2 6 2 7 2 5 2 1 2 -5 3 -6 2 -7 2 -4 
2 -5 2 -5 2 -6 2 -4 3 -1 2 4 2 5 2 6 
2 4 2 4 2 5 3 6 2 6 2 5 2 0 2 -4 
2 -6 2 -7 3 -8 2 -7 2 -5 2 -4 2 -1 2 0 
2 2 3 2 2 3 2 5 2 6 2 6 2 5 2 5 
3 2 2 1 2 0 2 -2 2 -3 2 -6 2 -8 3 -9 
2 -6 2 -3 2 -1 2 0 2 2 2 2 3 4 2 7 
2 8 2 9 2 6 2 4 2 1 3 -1 2 -2 2 -3 
2 -6 2 -9 2 -11 2 -9 3 -7 2 -2 2 1 2 2 
2 3 2 5 2 8 3 10 2 11 2 10 2 4 2 -1 
2 -4 2 -4 3 -5 2 -8 2 -8 2 -8 2 -8 2 -3 
2 -1 3 4 2 4 2 4 2 5 2 6 2 8 2 6 
3 3 2 -1 2 -3 2 -4 2 -2 2 -3 2 -2 3 -5 
2 -5 2 -5 2 -2 2 2 2 4 2 4 3 3 2 2 
2 2 2 3 2 2 2 0 2 -1 3 -1 2 -3 2 -2 
2 -1 2 -1 2 -2 2 -3 3 -2 2 1 2 2 2 3 
2 2 2 3 2 0 3 1 2 1 2 0 2 1 2 0 
2 -1 2 -1 3 -1 2 -2 2 0 2 -2 2 0 2 -2 
2 -3 3 -3 2 -1 2 0 2 2 2 4 2 4 2 4 
3 3 2 2 2 2 2 0 2 0 2 0 2 -2 3 -1 
2 -3 2 -5 2 -5 2 -5 2 -3 2 -1 3 0 2 1 
2 2 2 4 2 5 2 6 2 6 3 5 2 4 2 0 
2 -2 2 -3 2 -4 4333 2492 300 MP stroke
2 -5 3 -6 2 -5 2 -4 2 -3 2 -2 2 -1 2 1 
3 2 2 2 2 4 2 5 2 6 2 5 2 6 3 4 
2 2 2 0 2 -3 2 -5 2 -5 2 -6 3 -5 2 -6 
2 -4 2 -3 2 -1 2 0 2 1 3 3 2 3 2 3 
2 4 2 5 2 6 2 6 3 4 2 2 2 -1 2 -3 
2 -4 2 -3 2 -3 2 -6 3 -6 2 -6 2 -4 2 -1 
2 2 2 4 2 4 3 5 2 3 2 3 2 4 2 2 
2 1 2 0 3 0 2 -2 2 -3 2 -3 2 -2 2 -3 
2 -3 3 -2 2 -4 2 -3 2 -2 2 1 2 7 2 7 
3 7 2 4 2 2 2 1 2 2 2 1 2 0 3 -3 
2 -6 2 -8 2 -5 2 -4 2 -2 2 -1 3 0 2 2 
2 4 2 5 2 5 2 2 2 0 3 0 2 2 2 2 
2 0 2 -3 2 -5 2 -3 3 -1 2 1 2 1 2 -1 
2 -4 2 -3 2 1 3 4 2 6 2 5 2 0 2 -1 
2 -3 2 -1 3 0 2 -1 2 -2 2 -1 2 -1 2 1 
2 1 3 2 2 0 2 1 2 3 2 4 2 3 2 0 
3 -4 2 -7 2 -6 2 -4 2 -3 2 -1 2 -1 3 0 
2 3 2 5 2 7 2 6 2 5 2 3 3 3 2 2 
2 0 2 -2 2 -7 2 -10 2 -11 3 -7 2 -3 2 -1 
2 3 2 2 2 3 2 5 3 5 2 5 2 5 2 5 
2 3 2 2 2 2 3 1 2 0 2 -5 2 -6 2 -9 
2 -7 2 -5 3 -2 2 0 2 -2 2 -1 2 0 2 2 
2 5 3 9 2 9 2 6 2 3 2 1 2 -1 2 0 
3 -2 2 -6 2 -9 2 -10 2 -8 2 -3 2 1 3 3 
2 3 2 4 2 5 2 7 2 9 2 6 3 4 2 2 
2 1 2 -1 2 -2 2 -6 2 -9 3 -12 2 -11 2 -7 
2 -1 2 2 2 4 2 3 3 2 2 4 2 7 2 8 
2 9 2 5 2 0 3 -1 2 -2 2 0 2 -2 2 -3 
2 -7 2 -8 3 -7 2 -5 2 0 2 2 2 1 2 0 
2 1 3 5 2 8 2 8 2 6 2 2 2 -3 2 -3 
3 -1 2 -1 2 -3 2 -5 2 -8 2 -6 2 -1 3 4 
2 6 2 3 2 -1 2 -4 2 -1 2 5 3 8 2 6 
2 2 2 -2 2 -4 2 -3 2 2 3 2 2 0 2 -4 
2 -7 2 -4 2 -2 2 -1 3 0 2 -2 2 -3 2 -2 
2 3 2 6 2 8 3 6 2 2 2 0 2 3 2 2 
2 1 2 -1 3 -3 2 -5 2 -2 2 0 2 1 2 -4 
2 -7 3 -8 2 -6 2 0 2 3 2 4 2 4 2 3 
3 6 2 7 2 6 3692 2489 300 MP stroke
2 4 2 -1 2 -5 2 -4 3 0 2 2 2 2 2 -2 
2 -5 2 -8 2 -6 3 -4 2 -2 2 0 2 1 2 4 
2 8 2 9 3 7 2 2 2 -2 2 -4 2 -4 2 -2 
2 -1 3 0 2 1 2 1 2 -1 2 0 2 -2 2 -4 
3 -4 2 -3 2 0 2 0 2 -2 2 -1 2 0 3 5 
2 11 2 11 2 8 2 2 2 -4 2 -5 3 -2 2 0 
2 -3 2 -6 2 -10 2 -9 2 -4 2 3 3 3 2 -1 
2 -4 2 -4 2 2 2 12 2 16 3 13 2 4 2 -5 
2 -5 2 -3 2 2 2 2 3 -3 2 -10 2 -10 2 -4 
2 0 2 2 2 0 3 -2 2 -4 2 0 2 6 2 9 
2 9 2 5 3 2 2 3 2 2 2 -3 2 -11 2 -16 
2 -15 3 -4 2 9 2 12 2 4 2 -3 2 -5 2 1 
3 12 2 19 2 14 2 2 2 -9 2 -17 2 -15 3 -4 
2 3 2 1 2 -4 2 -6 2 -3 2 -1 3 3 2 6 
2 6 2 7 2 6 2 4 2 1 3 0 2 -2 2 -4 
2 -5 2 -6 2 -7 2 -4 3 0 2 3 2 3 2 2 
2 1 2 1 2 5 3 9 2 8 2 2 2 -3 2 -8 
2 -10 2 -8 3 -5 2 -4 2 -1 2 2 2 7 2 14 
2 14 3 9 2 -1 2 -9 2 -13 2 -10 2 -6 2 -5 
3 -6 2 -3 2 0 2 5 2 13 2 15 2 11 3 2 
2 -2 2 -1 2 1 2 1 2 -3 2 -8 3 -14 2 -13 
2 -5 2 4 2 8 2 6 2 3 3 -1 2 -1 2 4 
2 8 2 4 2 -1 2 -3 3 -1 2 0 2 2 2 0 
2 -7 2 -12 2 -8 3 0 2 6 2 7 2 1 2 -2 
2 -1 2 4 3 11 2 12 2 4 2 -4 2 -11 2 -7 
2 -2 3 1 2 1 2 -2 2 -5 2 -5 2 -1 2 2 
3 1 2 -2 2 -2 2 2 2 7 2 8 2 7 3 3 
2 -1 2 -2 2 1 2 -1 2 -3 2 -5 3 -9 2 -7 
2 -3 2 3 2 4 2 3 2 2 3 2 2 3 2 5 
2 5 2 2 2 -2 2 -4 3 -5 2 -3 2 -2 2 -1 
2 -3 2 -3 2 -2 3 0 2 3 2 5 2 4 2 1 
2 0 2 -1 3 0 2 3 2 2 2 1 2 2 2 2 
2 1 3 1 2 -2 2 -6 2 -8 2 -7 2 -4 2 1 
3 2 2 1 2 2 2 4 2 6 2 5 2 2 3 -2 
2 -7 2 -6 2 3 2 9 2 10 2 4 3 -4 2 -10 
2 -11 2 -8 2 -3 2 -2 2 -6 3 -4 2 1 2 9 
2 17 2 16 2 11 2 3 3 -1 2 1 2 4 2 2 
2 -4 2 -13 2 -19 3052 2503 300 MP stroke
3 -19 2 -13 2 -5 2 0 2 3 2 4 2 9 3 16 
2 17 2 14 2 9 2 1 2 -3 2 -5 3 -6 2 -10 
2 -15 2 -15 2 -11 2 -4 2 5 3 7 2 5 2 2 
2 2 2 8 2 14 2 12 3 7 2 3 2 0 2 0 
2 -1 2 -3 2 -9 3 -16 2 -17 2 -11 2 -2 2 2 
2 -2 2 -7 3 -6 2 2 2 14 2 20 2 18 2 12 
2 5 3 5 2 7 2 6 2 -2 2 -12 2 -20 2 -19 
3 -13 2 -8 2 -7 2 -9 2 -8 2 4 2 18 3 24 
2 22 2 11 2 1 2 1 2 7 2 10 2 2 3 -16 
2 -30 2 -32 2 -18 2 -2 2 11 2 11 3 2 2 -1 
2 3 2 11 2 16 2 14 2 7 3 1 2 0 2 4 
2 6 2 2 2 -7 2 -16 3 -18 2 -17 2 -15 2 -11 
2 -6 2 -2 2 5 3 13 2 20 2 22 2 20 2 16 
2 11 2 4 3 -2 2 -10 2 -14 2 -14 2 -14 2 -14 
2 -17 3 -19 2 -18 2 -5 2 9 2 20 2 24 2 21 
3 13 2 9 2 9 2 10 2 5 2 -5 2 -15 3 -20 
2 -16 2 -7 2 -2 2 -1 2 -5 2 -4 3 0 2 6 
2 10 2 9 2 3 2 1 2 1 3 4 2 6 2 1 
2 -6 2 -10 2 -6 2 -2 3 2 2 3 2 -1 2 -6 
2 -3 2 5 2 13 3 13 2 4 2 -5 2 -4 2 1 
2 0 2 -4 3 -13 2 -21 2 -21 2 -9 2 5 2 12 
2 11 3 8 2 11 2 19 2 25 2 23 2 11 2 -4 
3 -16 2 -16 2 -13 2 -14 2 -16 2 -20 2 -19 3 -7 
2 4 2 9 2 3 2 -2 2 -2 2 5 3 17 2 29 
2 27 2 18 2 11 2 7 2 3 3 -9 2 -26 2 -38 
2 -38 2 -23 2 -5 2 5 3 7 2 3 2 2 2 9 
2 24 2 34 2 29 3 13 2 -2 2 -5 2 -5 2 -8 
2 -15 2 -23 3 -28 2 -23 2 -14 2 -3 2 4 2 6 
2 9 3 19 2 30 2 33 2 20 2 4 2 -9 2 -11 
3 -2 2 2 2 -3 2 -18 2 -26 2 -29 2 -19 3 -6 
2 5 2 7 2 7 2 9 2 15 2 20 3 17 2 8 
2 0 2 -6 2 -3 2 1 2 1 3 -4 2 -9 2 -4 
2 2 2 8 2 5 2 -3 3 -14 2 -17 2 -14 2 -5 
2 0 2 2 2 0 3 0 2 7 2 18 2 21 2 13 
2 8 2 2 3 2 2 2 2 2 2 -6 2 -20 2 -30 
2 -27 3 -14 2 -6 2 0 2 0 2 4 2 13 2 26 
3 37 2 37 2 24 2 3 2 -12 2 -16 2 -17 3 -19 
2 -20 2 -20 2 -18 2411 2539 300 MP stroke
2 -14 2 -5 2 3 3 10 2 12 2 14 2 16 2 11 
2 4 2 -3 3 -2 2 4 2 9 2 7 2 -3 2 -14 
2 -16 3 -7 2 3 2 9 2 6 2 -4 2 -14 2 -7 
3 11 2 28 2 21 2 0 2 -18 2 -26 2 -19 3 -6 
2 5 2 4 2 -4 2 -3 2 3 2 10 3 15 2 13 
2 7 2 -1 2 1 2 8 2 4 3 -9 2 -23 2 -21 
2 -8 2 5 2 11 2 3 3 -6 2 -10 2 -6 2 3 
2 8 2 6 2 0 3 2 2 13 2 26 2 34 2 22 
2 -10 2 -33 3 -36 2 -22 2 -8 2 -7 2 -15 2 -20 
2 -12 3 9 2 28 2 37 2 28 2 11 2 1 2 4 
2 10 3 9 2 0 2 -13 2 -20 2 -15 2 -1 2 13 
3 7 2 -23 2 -40 2 -39 2 -26 2 -10 2 4 3 11 
2 17 2 26 2 40 2 51 2 48 2 31 3 6 2 -12 
2 -15 2 -14 2 -21 2 -33 2 -43 3 -42 2 -29 2 -12 
2 5 2 10 2 7 2 8 3 16 2 30 2 39 2 34 
2 22 2 7 2 2 3 -1 2 -6 2 -17 2 -30 2 -36 
2 -37 2 -31 3 -19 2 -7 2 1 2 12 2 22 2 38 
2 46 3 41 2 28 2 13 2 -7 2 -33 2 -42 2 -42 
3 -26 2 -4 2 23 2 36 2 33 2 12 2 -15 3 -31 
2 -40 2 -33 2 -21 2 -7 2 3 2 9 3 25 2 42 
2 54 2 61 2 61 2 46 2 10 3 -31 2 -63 2 -84 
2 -85 2 -72 2 -59 2 -43 3 -23 2 2 2 33 2 64 
2 87 2 92 2 82 3 68 2 55 2 38 2 13 2 -16 
2 -45 2 -85 3 -113 2 -125 2 -119 2 -103 2 -67 2 -9 
2 49 3 100 2 130 2 139 2 125 2 99 2 71 2 38 
3 1 2 -40 2 -84 2 -110 2 -109 2 -96 2 -90 3 -84 
2 -66 2 -43 2 -1 2 55 2 102 2 117 3 109 2 96 
2 85 2 69 2 49 2 31 2 -14 3 -69 2 -112 2 -115 
2 -100 2 -82 2 -54 2 -38 3 -38 2 -16 2 18 2 48 
2 66 2 71 2 78 3 87 2 95 2 98 2 76 2 25 
2 -32 2 -78 3 -100 2 -109 2 -109 2 -109 2 -105 2 -86 
2 -42 3 18 2 77 2 112 2 109 2 94 2 91 2 100 
3 97 2 68 2 3 2 -67 2 -108 2 -114 2 -99 3 -82 
2 -78 2 -79 2 -59 2 -15 2 48 2 104 3 131 2 117 
2 90 2 70 2 50 2 22 2 -27 3 -79 2 -112 2 -123 
2 -115 2 -76 2 -34 2 -16 3 7 2 42 2 91 2 122 
2 107 2 71 2 48 3 35 2 28 2 22 2 -1 2 -43 
2 -98 2 -142 3 -142 1770 2633 300 MP stroke
2 -104 2 -59 2 -41 2 -23 2 13 2 48 3 86 2 113 
2 123 2 107 2 77 2 34 2 3 3 -31 2 -56 2 -45 
2 -32 2 8 2 46 2 53 3 18 2 -68 2 -133 2 -136 
2 -118 2 -82 2 -39 3 -6 2 23 2 52 2 83 2 114 
2 139 2 151 3 145 2 106 2 46 2 -15 2 -74 2 -124 
2 -155 3 -144 2 -110 2 -101 2 -109 2 -95 2 -45 2 15 
3 81 2 146 2 172 2 159 2 129 2 107 2 96 3 73 
2 36 2 -20 2 -84 2 -128 2 -157 2 -174 3 -197 2 -216 
2 -193 2 -111 2 15 2 157 2 266 3 307 2 247 2 145 
2 78 2 37 2 17 2 -16 3 -70 2 -133 2 -178 2 -178 
2 -135 2 -86 2 -55 3 -61 2 -61 2 -23 2 48 2 120 
2 157 2 156 3 126 2 106 2 102 2 118 2 109 2 57 
2 -27 2 -123 3 -186 2 -207 2 -217 2 -215 2 -207 2 -161 
2 -70 3 44 2 127 2 179 2 216 2 232 2 239 2 239 
3 229 2 147 2 26 2 -95 2 -163 2 -186 2 -218 3 -252 
2 -276 2 -281 2 -254 2 -149 2 -16 2 114 3 208 2 292 
2 322 2 312 2 315 2 247 2 131 3 -2 2 -55 2 -87 
2 -172 2 -249 2 -318 2 -341 3 -297 2 -230 2 -130 2 -41 
2 8 2 82 2 184 3 317 2 414 2 427 2 364 2 274 
2 156 2 40 3 -73 2 -232 2 -404 2 -523 2 -525 2 -415 
2 -270 3 -149 2 -75 2 17 2 181 2 348 2 494 2 584 
3 547 2 460 2 311 2 138 2 -17 2 -219 2 -426 3 -573 
2 -620 2 -594 2 -498 2 -335 2 -188 2 -17 3 224 2 467 
2 643 2 641 2 511 2 309 2 180 3 170 2 119 2 -18 
2 -205 2 -397 2 -572 2 -616 3 -449 2 -227 2 -117 2 -76 
2 28 2 171 2 326 3 432 2 455 2 383 2 230 2 32 
2 -231 2 -152 3 -33 2 -119 2 -132 2 -163 2 -149 2 -109 
2 -63 3 17 2 83 2 114 2 100 2 38 2 -13 2 -27 
3 -20 2 -13 2 -22 2 -31 2 -30 2 -17 2 2 3 34 
2 58 2 49 2 29 2 5 2 2 2 10 3 16 2 7 
2 -25 2 -47 2 -46 2 -24 2 -1 3 25 2 23 2 4 
2 -8 2 12 2 23 2 2 3 8 2 7 2 -20 2 -27 
2 14 2 5 2 -11 3 -13 2 2 2 3 2 16 2 22 
2 -3 2 -35 3 -42 2 5 2 9 2 -6 2 5 2 2 
2 -11 3 30 2 62 2 48 2 -6 2 -34 2 -60 2 -55 
3 11 2 69 2 65 2 -17 2 -67 2 -55 2 -45 3 -21 
2 34 2 61 2 38 2 -13 2 -3 2 44 3 47 2 -6 
2 -21 2 -17 2 -11 1130 2467 300 MP stroke
2 -24 2 -27 3 0 2 6 2 -9 2 -42 2 -25 2 16 
2 32 3 29 2 10 2 19 2 3 2 -13 2 5 2 21 
3 21 2 -5 2 -22 2 -25 2 -3 2 -16 2 -9 3 6 
2 7 2 -28 2 -19 2 20 2 31 2 33 3 13 2 3 
2 -26 2 -19 2 -7 2 -1 2 8 3 6 2 6 2 0 
2 -2 2 7 2 5 2 -28 3 -21 2 -13 2 2 2 34 
2 32 2 21 2 -2 3 -34 2 -37 2 -8 2 13 2 17 
2 20 2 5 3 -28 2 -17 2 13 2 15 2 9 2 4 
2 -2 3 -17 2 -9 2 20 2 14 2 -5 2 -14 2 -23 
3 -15 2 9 2 10 2 18 2 17 2 1 2 -13 3 -11 
2 -1 2 7 2 9 2 -2 2 -3 2 -8 3 -10 2 0 
2 5 2 3 2 -5 2 -1 2 4 3 7 2 6 2 7 
2 -1 2 -8 2 -6 2 -3 3 1 2 2 2 2 2 -2 
2 -1 2 -1 2 0 -105 2 11 0 11 0 11 0 10 0 
11 0 11 0 10 0 11 0 11 0 909 2502 118 MP stroke
gr

DA
2453  156 mt 
(Roof node absolute acceleration response) s
3016  294 mt 
(force-based element) s
3356 4903 mt 
(Time \(s\)) s
 579 3295 mt  -90 rotate
(Absolution acceleration \(m/s) s
90 rotate
%%IncludeResource: font Helvetica
/Helvetica /ISOLatin1Encoding 96 FMSR

 519 1789 mt  -90 rotate
(2) s
90 rotate
%%IncludeResource: font Helvetica
/Helvetica /ISOLatin1Encoding 120 FMSR

 579 1736 mt  -90 rotate
(\)) s
90 rotate
 882 4658 mt 
( ) s
6239  431 mt 
( ) s
SO
1 sg
0 334 1172 0 0 -334 5023 4556 4 MP
PP
-1172 0 0 334 1172 0 0 -334 5023 4556 5 MP stroke
4 w
DO
SO
6 w
0 sg
5023 4556 mt 6195 4556 L
5023 4222 mt 6195 4222 L
5023 4556 mt 5023 4222 L
6195 4556 mt 6195 4222 L
5023 4556 mt 6195 4556 L
5023 4556 mt 5023 4222 L
5023 4556 mt 6195 4556 L
5023 4222 mt 6195 4222 L
5023 4556 mt 5023 4222 L
6195 4556 mt 6195 4222 L
5482 4357 mt 
(nonlinear) s
gs 5023 4222 1173 335 rc
c8
353 0 5093 4315 2 MP stroke
gr

c8
0 sg
5482 4506 mt 
(linear elastic) s
gs 5023 4222 1173 335 rc
DA
353 0 5093 4462 2 MP stroke
SO
gr


end %%Color Dict

eplot
%%EndObject

epage
end

showpage

%%Trailer
%%EOF
