0.1 0 7.58821e-16 1.27774e-15 1.5712e-15
0.2 0 1.37166e-15 2.40756e-15 3.008e-15
0.3 0 2.16244e-15 3.81922e-15 4.76781e-15
0.4 0 2.76132e-15 4.87969e-15 6.13504e-15
0.5 0 3.3485e-15 5.9149e-15 7.49085e-15
0.6 0 4.17026e-15 7.39289e-15 9.35843e-15
0.7 0 4.78737e-15 8.51092e-15 1.08379e-14
0.8 0 5.54954e-15 9.94069e-15 1.26772e-14
0.9 0 6.44528e-15 1.15289e-14 1.46863e-14
1 0 7.25285e-15 1.30172e-14 1.66182e-14
