0.1 6.99377 200 -2.50973e-13 -6.99377 -200 -3021.31 -6.99377 200 7.52918e-13 6.99377 -200 3021.31
0.2 13.9875 400 2.50973e-13 -13.9875 -400 -6042.62 -13.9875 400 5.87725e-13 13.9875 -400 6042.62
0.3 20.9813 600 -4.71981e-14 -20.9813 -600 -9063.93 -20.9813 600 1.80176e-13 20.9813 -600 9063.93
0.4 27.9751 800 -6.82121e-13 -27.9751 -800 -12085.2 -27.9751 800 6.87193e-21 27.9751 -800 12085.2
0.5 34.9689 1000 -2.00778e-12 -34.9689 -1000 -15106.6 -34.9689 1000 -2.14076e-12 34.9689 -1000 15106.6
0.6 41.9626 1200 1.70325e-12 -41.9626 -1200 -18127.9 -41.9626 1200 3.97698e-12 41.9626 -1200 18127.9
0.7 48.9564 1400 -1.9692e-12 -48.9564 -1400 -21149.2 -48.9564 1400 2.16211e-12 48.9564 -1400 21149.2
0.8 55.9502 1600 2.29064e-21 -55.9502 -1600 -24170.5 -55.9502 1600 3.85813e-14 55.9502 -1600 24170.5
0.9 62.944 1800 8.33566e-12 -62.944 -1800 -27191.8 -62.944 1800 -4.24294e-12 62.944 -1800 27191.8
1 69.9377 2000 -7.72659e-12 -69.9377 -2000 -30213.1 -69.9377 2000 8.40871e-12 69.9377 -2000 30213.1
