0.0000349305000
0.0000219954000
0.0000399972000
0.0000260380000
0.0000425748000
0.0000198073000
0.0000215152000
0.0000043327700
0.0000189468000
0.0000185334000
0.0000686961000
0.0000661352000
0.0000621894000
0.0000194215000
0.0000327989000
-0.0000237401000
-0.0000392764000
-0.0000481091000
-0.0000439130000
-0.0000664606000
-0.0001368080000
-0.0002098110000
-0.0002033230000
-0.0001368560000
0.0000658645000
0.0000486344000
0.0001575640000
0.0002467670000
0.0002353350000
0.0002415370000
0.0001327290000
-0.0000099847200
0.0000358876000
0.0002400710000
0.0003091650000
0.0003671510000
0.0006289570000
0.0004135800000
-0.0000142621000
-0.0004520320000
-0.0007679730000
-0.0008709580000
-0.0006122280000
-0.0001415490000
0.0006499490000
0.0010008500000
0.0013987200000
0.0019286500000
0.0016892200000
0.0010263200000
0.0004282540000
0.0001234540000
-0.0010526200000
-0.0026786600000
-0.0041289100000
-0.0052614700000
-0.0055314300000
-0.0053174100000
-0.0039363100000
-0.0023444800000
-0.0015961300000
-0.0007070270000
-0.0002179570000
0.0008837930000
0.0018421200000
0.0031335500000
0.0051423900000
0.0077344300000
0.0092050200000
0.0090883800000
0.0081475700000
0.0061483800000
0.0022630300000
-0.0021259900000
-0.0040768600000
-0.0041410100000
-0.0043052300000
-0.0039448300000
-0.0031555500000
-0.0031959100000
-0.0048059300000
-0.0059483800000
-0.0064583900000
-0.0068017000000
-0.0058466800000
-0.0042451000000
-0.0006211780000
0.0030123900000
0.0058441200000
0.0092330900000
0.0111135000000
0.0116382000000
0.0119628000000
0.0102602000000
0.0057773300000
-0.0018913000000
-0.0101442000000
-0.0114897000000
-0.0074435700000
-0.0035492600000
0.0007177760000
0.0004634150000
-0.0038058500000
-0.0072816000000
-0.0092223800000
-0.0087154500000
-0.0075899400000
-0.0058247600000
-0.0038385900000
-0.0039414500000
-0.0053877600000
-0.0055215100000
-0.0054636900000
-0.0043411000000
-0.0029108000000
0.0027642300000
0.0106974000000
0.0180908000000
0.0265973000000
0.0286102000000
0.0268255000000
0.0265727000000
0.0256883000000
0.0213359000000
0.0166081000000
0.0083264700000
-0.0015034400000
-0.0108815000000
-0.0171142000000
-0.0196754000000
-0.0205219000000
-0.0205859000000
-0.0201763000000
-0.0217444000000
-0.0212796000000
-0.0224734000000
-0.0233942000000
-0.0215542000000
-0.0166817000000
-0.0030794200000
0.0158546000000
0.0265608000000
0.0268925000000
0.0220197000000
0.0169201000000
0.0105803000000
0.0060106400000
-0.0019195400000
-0.0083157000000
-0.0124268000000
-0.0126365000000
-0.0107923000000
-0.0086184200000
-0.0038904400000
0.0010989600000
0.0013636400000
0.0043040300000
0.0110263000000
0.0157282000000
0.0188038000000
0.0201240000000
0.0164857000000
0.0081558300000
0.0021413100000
-0.0034683100000
-0.0098200900000
-0.0125183000000
-0.0137921000000
-0.0107343000000
-0.0066701100000
-0.0015316800000
0.0042876400000
0.0071978700000
0.0091822100000
0.0101764000000
0.0062715900000
0.0010078200000
-0.0036791700000
-0.0066998500000
-0.0082898300000
-0.0082740300000
-0.0094940100000
-0.0132582000000
-0.0143038000000
-0.0134363000000
-0.0117629000000
-0.0086045500000
-0.0098497300000
-0.0092583900000
-0.0069765400000
-0.0005129670000
0.0079545200000
0.0171930000000
0.0225465000000
0.0238510000000
0.0217308000000
0.0171113000000
0.0140350000000
0.0114107000000
0.0082846000000
0.0053541100000
0.0003345480000
-0.0071233700000
-0.0119159000000
-0.0123343000000
-0.0118996000000
-0.0032428800000
-0.0015464300000
-0.0033372000000
-0.0025260400000
-0.0023109600000
-0.0022889200000
-0.0026319000000
-0.0038032600000
-0.0056349700000
-0.0076832200000
-0.0110529000000
-0.0081411200000
-0.0023870400000
-0.0062275100000
-0.0119013000000
-0.0167955000000
-0.0208803000000
-0.0191852000000
-0.0155284000000
-0.0108796000000
-0.0054712100000
-0.0016141800000
0.0007937160000
0.0014775600000
0.0014294300000
0.0014913800000
0.0026247100000
0.0049898200000
0.0088526000000
0.0140938000000
0.0220250000000
0.0291016000000
0.0321022000000
0.0326522000000
0.0299323000000
0.0229816000000
0.0126950000000
0.0058636700000
-0.0012714900000
-0.0089080500000
-0.0135272000000
-0.0164782000000
-0.0197304000000
-0.0195885000000
-0.0190916000000
-0.0164541000000
-0.0155017000000
-0.0189081000000
-0.0237816000000
-0.0240053000000
-0.0176876000000
-0.0137587000000
-0.0041165800000
0.0042327800000
0.0059308900000
0.0077936600000
0.0046118000000
-0.0005633810000
-0.0062931400000
-0.0148064000000
-0.0196677000000
-0.0194279000000
-0.0152974000000
-0.0088837100000
-0.0028496600000
0.0007967120000
-0.0018814900000
-0.0092377400000
-0.0171806000000
-0.0235052000000
-0.0256163000000
-0.0267754000000
-0.0231205000000
-0.0194921000000
-0.0166536000000
-0.0106583000000
0.0006392550000
0.0185316000000
0.0374792000000
0.0638113000000
0.0882429000000
0.0921523000000
0.0939303000000
0.0960508000000
0.0961246000000
0.0966404000000
0.0981114000000
0.0993520000000
0.1035420000000
0.1054040000000
0.1059100000000
0.1054020000000
0.1015680000000
0.0956148000000
0.0825463000000
0.0329956000000
-0.0064634100000
-0.0121448000000
-0.0163685000000
-0.0139864000000
-0.0073867500000
0.0206828000000
0.0970255000000
0.1455000000000
0.1412820000000
0.1393310000000
0.1368760000000
0.1267940000000
0.1020500000000
0.0504122000000
0.0003752470000
-0.0480325000000
-0.0822937000000
-0.0925695000000
-0.1010120000000
-0.1127290000000
-0.1317110000000
-0.1673100000000
-0.2052540000000
-0.2186550000000
-0.2141970000000
-0.2142170000000
-0.2111600000000
-0.2034170000000
-0.1932320000000
-0.1727260000000
-0.1105550000000
0.0090709200000
0.1337270000000
0.1857580000000
0.2227410000000
0.2584550000000
0.2181030000000
0.1091040000000
0.0149233000000
-0.0719807000000
-0.1355230000000
-0.1542640000000
-0.1574930000000
-0.1496420000000
-0.1335350000000
-0.1301030000000
-0.1265430000000
-0.1033350000000
-0.0138868000000
0.0787505000000
0.1434630000000
0.1747450000000
0.1533570000000
0.1047690000000
0.0102117000000
-0.0992928000000
-0.2005110000000
-0.2163640000000
-0.1792390000000
-0.2012990000000
-0.2226950000000
-0.2012910000000
-0.1850350000000
-0.1865320000000
-0.1969140000000
-0.2127610000000
-0.2209390000000
-0.2217310000000
-0.2154130000000
-0.2037910000000
-0.1808430000000
-0.1135130000000
-0.0476803000000
0.0137246000000
0.0753660000000
0.1377860000000
0.1618900000000
0.1556590000000
0.1527440000000
0.1394670000000
0.1173170000000
0.0941370000000
0.0806676000000
0.0781596000000
0.0809923000000
0.0938487000000
0.1127800000000
0.1303390000000
0.1434550000000
0.1545310000000
0.1585070000000
0.1565350000000
0.1517320000000
0.1445080000000
0.1355940000000
0.1259900000000
0.1203190000000
0.0984583000000
0.0436695000000
-0.0108395000000
-0.0673023000000
-0.0771386000000
-0.0522774000000
-0.0481095000000
-0.0490880000000
-0.0333730000000
-0.0119164000000
0.0139653000000
0.0594800000000
0.0804467000000
0.0480577000000
0.0013024000000
-0.0392197000000
-0.0788186000000
-0.1058840000000
-0.1158000000000
-0.1204580000000
-0.1228610000000
-0.1214280000000
-0.1180280000000
-0.1122430000000
-0.1018040000000
-0.0781513000000
-0.0589545000000
-0.0435370000000
-0.0276993000000
-0.0172806000000
-0.0114986000000
-0.0072469900000
-0.0013468900000
0.0062467300000
0.0184085000000
0.0351905000000
0.0656476000000
0.1015760000000
0.1308960000000
0.1500980000000
0.1651510000000
0.1805420000000
0.1897120000000
0.1943750000000
0.1942820000000
0.1911300000000
0.1836200000000
0.1727620000000
0.1608290000000
0.1368730000000
0.0849684000000
0.0342904000000
0.0165625000000
0.0055393100000
-0.0360935000000
-0.0638073000000
-0.1043870000000
-0.1719290000000
-0.2120950000000
-0.2120580000000
-0.2038100000000
-0.1960200000000
-0.1608410000000
-0.0935202000000
-0.0319897000000
0.0221815000000
0.0805587000000
0.1191200000000
0.1383840000000
0.1524770000000
0.1556510000000
0.1688290000000
0.2149280000000
0.2293040000000
0.2070420000000
0.1729930000000
0.1334790000000
0.1115890000000
0.1127190000000
0.1141600000000
0.1028240000000
0.0907550000000
0.0853907000000
0.0770022000000
0.0701768000000
0.0676618000000
0.0650519000000
0.0634464000000
0.0633056000000
0.0636319000000
0.0633508000000
0.0632335000000
0.0601187000000
0.0584293000000
0.0297566000000
-0.0218193000000
-0.0374657000000
-0.0370045000000
-0.0555977000000
-0.0775574000000
-0.0890587000000
-0.1108410000000
-0.1375730000000
-0.1509550000000
-0.1617570000000
-0.1426500000000
-0.1392020000000
-0.1609100000000
-0.1748830000000
-0.1961480000000
-0.2219840000000
-0.2395270000000
-0.2408750000000
-0.2345180000000
-0.2284960000000
-0.2174820000000
-0.1971590000000
-0.1606510000000
-0.1318610000000
-0.1160770000000
-0.1079010000000
-0.1088160000000
-0.1101420000000
-0.1070440000000
-0.0955643000000
-0.0899166000000
-0.0840328000000
-0.0756649000000
-0.0659871000000
-0.0564408000000
-0.0484507000000
-0.0358494000000
-0.0217778000000
-0.0096786500000
0.0025878100000
0.0169351000000
0.0401094000000
0.0717129000000
0.0925975000000
0.0971740000000
0.0954374000000
0.0901064000000
0.0919375000000
0.1044680000000
0.1144060000000
0.1198880000000
0.1235380000000
0.1257700000000
0.1306290000000
0.1371810000000
0.1499140000000
0.1624970000000
0.1692890000000
0.1729090000000
0.1745410000000
0.1722610000000
0.1676850000000
0.1609370000000
0.1514630000000
0.1389980000000
0.1073970000000
0.0536196000000
0.0081452900000
-0.0402595000000
-0.0668103000000
-0.0520617000000
-0.0501448000000
-0.0634360000000
-0.0634442000000
-0.0532560000000
-0.0393097000000
-0.0258431000000
-0.0015235700000
0.0118199000000
0.0108450000000
0.0038733700000
-0.0125298000000
-0.0385606000000
-0.0533632000000
-0.0567070000000
-0.0605093000000
-0.0737561000000
-0.0821377000000
-0.0986914000000
-0.1135350000000
-0.1113470000000
-0.0999531000000
-0.0798041000000
-0.0614209000000
-0.0213001000000
0.0307727000000
0.0473384000000
0.0522090000000
0.0535563000000
0.0468684000000
0.0216915000000
0.0003982770000
-0.0276031000000
-0.0619633000000
-0.0787598000000
-0.0895468000000
-0.1088680000000
-0.1173770000000
-0.1137470000000
-0.1020640000000
-0.1008100000000
-0.1053910000000
-0.1021500000000
-0.0694499000000
-0.0338907000000
-0.0237223000000
-0.0185113000000
-0.0089765100000
-0.0074089100000
-0.0106232000000
-0.0229269000000
-0.0360046000000
-0.0769372000000
-0.1010620000000
-0.1067760000000
-0.1190660000000
-0.1235860000000
-0.1219700000000
-0.1171080000000
-0.1129450000000
-0.0971647000000
-0.0803911000000
-0.0646564000000
-0.0550551000000
-0.0250481000000
0.0017353900000
0.0204991000000
0.0452054000000
0.0765376000000
0.1076050000000
0.1402560000000
0.1738020000000
0.2225540000000
0.2737880000000
0.3238810000000
0.3494300000000
0.3428590000000
0.3522570000000
0.3496720000000
0.3359660000000
0.3391640000000
0.3197630000000
0.2766430000000
0.2358920000000
0.2099550000000
0.1671050000000
0.1158500000000
0.0895493000000
0.0745090000000
0.0219314000000
0.0003064100000
-0.0025671100000
-0.0101304000000
-0.0054666000000
0.0011762700000
0.0076702800000
0.0085387800000
0.0069099700000
-0.0016338500000
-0.0147238000000
-0.0473412000000
-0.0864616000000
-0.1294730000000
-0.1757300000000
-0.1969600000000
-0.2154690000000
-0.2500610000000
-0.2617110000000
-0.2512670000000
-0.2407470000000
-0.2315380000000
-0.2233840000000
-0.2176670000000
-0.2123660000000
-0.2117670000000
-0.2134790000000
-0.2149350000000
-0.2123810000000
-0.2077300000000
-0.1964560000000
-0.1842870000000
-0.1718340000000
-0.1605740000000
-0.1280860000000
-0.0634398000000
-0.0228031000000
-0.0047098300000
0.0171559000000
0.0371167000000
0.0542148000000
0.0738838000000
0.1008390000000
0.1254810000000
0.1408660000000
0.1456930000000
0.1433820000000
0.1414260000000
0.1052640000000
0.0415044000000
-0.0004786570000
0.0062591600000
0.0146641000000
0.0462062000000
0.1055860000000
0.1260340000000
0.1282040000000
0.1354500000000
0.1453650000000
0.1438390000000
0.1400030000000
0.1359440000000
0.1309600000000
0.1205810000000
0.1140790000000
0.1136690000000
0.1207650000000
0.1284810000000
0.1395420000000
0.1439720000000
0.1408810000000
0.1363430000000
0.1012890000000
0.0431001000000
-0.0056497800000
-0.0563788000000
-0.1056080000000
-0.1483010000000
-0.1627710000000
-0.1800400000000
-0.1897440000000
-0.2079810000000
-0.2221910000000
-0.2332430000000
-0.2311210000000
-0.2210310000000
-0.1324800000000
0.0015826300000
0.1229010000000
0.1416260000000
0.1277820000000
0.1415920000000
0.1458860000000
0.1443040000000
0.1455560000000
0.1461750000000
0.1417870000000
0.1323680000000
0.1256700000000
0.0889568000000
0.0659174000000
0.0611665000000
0.0506622000000
0.0397382000000
0.0101353000000
-0.0176786000000
-0.0213788000000
-0.0197170000000
-0.0148791000000
-0.0061484700000
0.0050065500000
0.0092911300000
0.0075475200000
0.0014435700000
-0.0102489000000
-0.0268058000000
-0.0461154000000
-0.0654428000000
-0.0835244000000
-0.1006540000000
-0.1080510000000
-0.1232300000000
-0.1471400000000
-0.1478390000000
-0.1432740000000
-0.1421740000000
-0.1380620000000
-0.1370370000000
-0.1352550000000
-0.1326430000000
-0.1282340000000
-0.1314320000000
-0.1361580000000
-0.1443510000000
-0.1418960000000
-0.1441070000000
-0.1430330000000
-0.1376620000000
-0.1278170000000
-0.1223600000000
-0.0946360000000
-0.0585514000000
0.0604960000000
0.1373520000000
0.1619280000000
0.2044760000000
0.2630820000000
0.3205270000000
0.3373120000000
0.3393250000000
0.3796660000000
0.4108900000000
0.4157830000000
0.4090910000000
0.3593550000000
0.2919180000000
0.2816040000000
0.2790200000000
0.2597730000000
0.2484390000000
0.2365980000000
0.2262310000000
0.2148420000000
0.2182660000000
0.1960890000000
0.1514050000000
0.1083120000000
0.0787306000000
0.0490604000000
0.0079807300000
-0.0342099000000
-0.0653976000000
-0.0879962000000
-0.1104600000000
-0.1345540000000
-0.1469500000000
-0.1747570000000
-0.2084400000000
-0.2193710000000
-0.2180270000000
-0.2167240000000
-0.2079950000000
-0.1964540000000
-0.1881830000000
-0.1843710000000
-0.1795050000000
-0.1770530000000
-0.1763210000000
-0.1780320000000
-0.1785880000000
-0.1794600000000
-0.1791000000000
-0.1818200000000
-0.1840640000000
-0.1885960000000
-0.1967940000000
-0.2218940000000
-0.2504560000000
-0.2739740000000
-0.2837040000000
-0.2851470000000
-0.2889650000000
-0.2920600000000
-0.2897330000000
-0.2831030000000
-0.2784310000000
-0.2752330000000
-0.2737240000000
-0.2744030000000
-0.2788740000000
-0.2805050000000
-0.2725870000000
-0.2642340000000
-0.2542090000000
-0.2362070000000
-0.2081390000000
-0.1828710000000
-0.1587560000000
-0.1399560000000
-0.1243320000000
-0.1083420000000
-0.0898591000000
-0.0680506000000
-0.0502825000000
-0.0311200000000
-0.0118956000000
0.0028363900000
0.0129657000000
0.0178570000000
0.0281055000000
0.0431041000000
0.0573433000000
0.0715708000000
0.0903310000000
0.1009820000000
0.1122480000000
0.1263060000000
0.1399030000000
0.1512440000000
0.1596830000000
0.1656810000000
0.1707180000000
0.1749290000000
0.1779710000000
0.1780980000000
0.1737420000000
0.1663530000000
0.1572810000000
0.1437270000000
0.1322630000000
0.1226620000000
0.1162410000000
0.1099880000000
0.1105580000000
0.1147390000000
0.1235330000000
0.1336120000000
0.1463400000000
0.1586490000000
0.1715920000000
0.1884950000000
0.2381480000000
0.2539490000000
0.2537690000000
0.2577270000000
0.2571410000000
0.2602780000000
0.3071970000000
0.3589060000000
0.3176410000000
0.2004450000000
0.1680330000000
0.2607740000000
0.2702650000000
0.2008180000000
0.1809780000000
0.1710960000000
0.1605800000000
0.1565160000000
0.1565000000000
0.1566950000000
0.1674070000000
0.1495800000000
0.1212160000000
0.1138430000000
0.1059900000000
0.0975325000000
0.0914608000000
0.0841625000000
0.0732792000000
0.0587532000000
0.0427833000000
0.0149312000000
-0.0113340000000
-0.0350787000000
-0.0569430000000
-0.0725515000000
-0.0849754000000
-0.1110380000000
-0.1372480000000
-0.1709670000000
-0.2048130000000
-0.2192680000000
-0.2264040000000
-0.2316860000000
-0.2361090000000
-0.2390870000000
-0.2414800000000
-0.2384420000000
-0.2341020000000
-0.2326270000000
-0.2282070000000
-0.2218010000000
-0.2165760000000
-0.2110700000000
-0.2054200000000
-0.1968700000000
-0.1895700000000
-0.1786950000000
-0.1631030000000
-0.1499280000000
-0.1328290000000
-0.1142420000000
-0.0999142000000
-0.0834240000000
-0.0668858000000
-0.0642562000000
-0.0700631000000
-0.0715046000000
-0.0613124000000
-0.0483857000000
-0.0380972000000
-0.0266083000000
-0.0160652000000
-0.0044859100000
0.0145850000000
0.0302825000000
0.0449358000000
0.0602619000000
0.0736425000000
0.0861990000000
0.0979596000000
0.1115570000000
0.1335130000000
0.1453490000000
0.1439770000000
0.1463860000000
0.1523500000000
0.2052770000000
0.2077340000000
0.1900840000000
0.2097740000000
0.2042200000000
0.1860440000000
0.1822620000000
0.1848450000000
0.1764740000000
0.1654600000000
0.1495590000000
0.1290340000000
0.0998167000000
0.0762827000000
0.0610873000000
0.0504136000000
0.0415588000000
0.0339601000000
0.0242681000000
0.0102669000000
-0.0094754200000
-0.0440077000000
-0.0857330000000
-0.1006300000000
-0.1198040000000
-0.1310460000000
-0.1311350000000
-0.1282400000000
-0.1249960000000
-0.1194130000000
-0.1141500000000
-0.1068130000000
-0.1004740000000
-0.0976070000000
-0.0957914000000
-0.0945576000000
-0.0943372000000
-0.0955134000000
-0.0942753000000
-0.0945782000000
-0.0935509000000
-0.0902752000000
-0.0883368000000
-0.0885536000000
-0.0909135000000
-0.0832285000000
-0.0702766000000
-0.0468488000000
-0.0290692000000
-0.0201826000000
0.0046442400000
0.0334581000000
0.0474648000000
0.0627459000000
0.0833361000000
0.1019880000000
0.1176160000000
0.1372450000000
0.1601880000000
0.2024240000000
0.2290990000000
0.2350820000000
0.2385050000000
0.2346400000000
0.2231610000000
0.1940420000000
0.1202900000000
0.0862945000000
0.0449623000000
-0.0065573400000
-0.0192999000000
-0.0119032000000
-0.0045027700000
-0.0089939700000
-0.0284275000000
-0.0385113000000
-0.0435962000000
-0.0507504000000
-0.0545188000000
-0.0561905000000
-0.0577278000000
-0.0648495000000
-0.0758116000000
-0.0947262000000
-0.1136420000000
-0.1304760000000
-0.1374520000000
-0.1351970000000
-0.1302050000000
-0.1236340000000
-0.1152550000000
-0.1072140000000
-0.0978630000000
-0.0869990000000
-0.0744690000000
-0.0661918000000
-0.0626143000000
-0.0598165000000
-0.0562960000000
-0.0516612000000
-0.0441602000000
-0.0330472000000
-0.0199696000000
-0.0010102900000
0.0297270000000
0.0465878000000
0.0502336000000
0.0527895000000
0.0559849000000
0.0555975000000
0.0578749000000
0.0597808000000
0.0607371000000
0.0613757000000
0.0617756000000
0.0574093000000
0.0534506000000
0.0492915000000
0.0468430000000
0.0474074000000
0.0507393000000
0.0569016000000
0.0665233000000
0.0769204000000
0.0843106000000
0.0884146000000
0.0898982000000
0.0855228000000
0.0779868000000
0.0719757000000
0.0636519000000
0.0577045000000
0.0561885000000
0.0554254000000
0.0565683000000
0.0595716000000
0.0613379000000
0.0577993000000
0.0513711000000
0.0374897000000
0.0124272000000
-0.0227748000000
-0.0446810000000
-0.0556168000000
-0.0652738000000
-0.0732147000000
-0.0781305000000
-0.0855272000000
-0.0908818000000
-0.0950026000000
-0.0989861000000
-0.0999865000000
-0.0979977000000
-0.0960706000000
-0.0939521000000
-0.0931812000000
-0.0921872000000
-0.0935532000000
-0.0966067000000
-0.0985485000000
-0.0995268000000
-0.1033880000000
-0.1088620000000
-0.1145990000000
-0.1186340000000
-0.1236390000000
-0.1273470000000
-0.1266380000000
-0.1233310000000
-0.1231900000000
-0.1213870000000
-0.1171960000000
-0.1161440000000
-0.1179400000000
-0.1195880000000
-0.1205880000000
-0.1221540000000
-0.1218110000000
-0.1185730000000
-0.1119650000000
-0.1064510000000
-0.0989023000000
-0.0862501000000
-0.0748516000000
-0.0660305000000
-0.0557269000000
-0.0450284000000
-0.0350980000000
-0.0259404000000
-0.0129370000000
0.0021236300000
0.0179582000000
0.0308675000000
0.0441433000000
0.0584486000000
0.0683619000000
0.0814576000000
0.0961174000000
0.1079950000000
0.1180630000000
0.1272690000000
0.1340360000000
0.1402320000000
0.1492020000000
0.1620990000000
0.1749680000000
0.1846690000000
0.1892790000000
0.1890030000000
0.1873320000000
0.1832500000000
0.1758380000000
0.1679460000000
0.1609200000000
0.1527060000000
0.1459540000000
0.1397840000000
0.1347420000000
0.1294360000000
0.1220810000000
0.1104710000000
0.0934655000000
0.0812454000000
0.0748067000000
0.0709319000000
0.0686760000000
0.0644500000000
0.0584632000000
0.0525250000000
0.0456381000000
0.0392761000000
0.0344043000000
0.0280851000000
0.0215189000000
0.0137681000000
0.0044838000000
-0.0057806700000
-0.0154575000000
-0.0231624000000
-0.0321649000000
-0.0423902000000
-0.0523775000000
-0.0598225000000
-0.0653648000000
-0.0718183000000
-0.0766221000000
-0.0793389000000
-0.0820401000000
-0.0857723000000
-0.0867218000000
-0.0871300000000
-0.0884794000000
-0.0905529000000
-0.0928662000000
-0.0981423000000
-0.1023530000000
-0.1074230000000
-0.1126070000000
-0.1174410000000
-0.1183220000000
-0.1171970000000
-0.1196580000000
-0.1175220000000
-0.1142560000000
-0.1110940000000
-0.1063840000000
-0.0975162000000
-0.0833952000000
-0.0490647000000
-0.0322242000000
-0.0270775000000
-0.0193419000000
-0.0170198000000
-0.0133334000000
-0.0111280000000
-0.0077403500000
-0.0020228500000
0.0042901000000
0.0135281000000
0.0234568000000
0.0335135000000
0.0443502000000
0.0547381000000
0.0633815000000
0.0675456000000
0.0687335000000
0.0702073000000
0.0682814000000
0.0622165000000
0.0592453000000
0.0520871000000
0.0428071000000
0.0342119000000
0.0268957000000
0.0226500000000
0.0198128000000
0.0205478000000
0.0223076000000
0.0216160000000
0.0209368000000
0.0177869000000
0.0140313000000
0.0130213000000
0.0112663000000
0.0104841000000
0.0103635000000
0.0099653200000
0.0100579000000
0.0123841000000
0.0179492000000
0.0234063000000
0.0275919000000
0.0321229000000
0.0353629000000
0.0363524000000
0.0387569000000
0.0417082000000
0.0454227000000
0.0489007000000
0.0505579000000
0.0512018000000
0.0534164000000
0.0545938000000
0.0555792000000
0.0575984000000
0.0578816000000
0.0586308000000
0.0583752000000
0.0565503000000
0.0547186000000
0.0518323000000
0.0439784000000
0.0361130000000
0.0272618000000
0.0169940000000
0.0060105600000
-0.0026839300000
-0.0093424200000
-0.0135617000000
-0.0146155000000
-0.0150417000000
-0.0175329000000
-0.0192700000000
-0.0201711000000
-0.0228676000000
-0.0274200000000
-0.0338253000000
-0.0385767000000
-0.0429827000000
-0.0473332000000
-0.0496320000000
-0.0492052000000
-0.0480876000000
-0.0464816000000
-0.0429633000000
-0.0398892000000
-0.0368574000000
-0.0360286000000
-0.0351710000000
-0.0368951000000
-0.0399600000000
-0.0433327000000
-0.0481079000000
-0.0539542000000
-0.0575839000000
-0.0643795000000
-0.0701586000000
-0.0769780000000
-0.0824906000000
-0.0873262000000
-0.0943503000000
-0.0975207000000
-0.0998293000000
-0.1008250000000
-0.0982802000000
-0.0941444000000
-0.0872715000000
-0.0773575000000
-0.0647731000000
-0.0504716000000
-0.0377867000000
-0.0297311000000
-0.0243160000000
-0.0194969000000
-0.0146330000000
-0.0111691000000
-0.0083999600000
-0.0067390400000
-0.0064856400000
-0.0051432100000
-0.0022837200000
-0.0004212030000
-0.0003081200000
0.0016490600000
0.0032483100000
0.0048401000000
0.0051093000000
0.0054002500000
0.0074470600000
0.0099435200000
0.0100586000000
0.0100520000000
0.0102608000000
0.0101041000000
0.0071393500000
0.0048641000000
0.0027069900000
0.0026460900000
0.0032357400000
0.0033950100000
0.0065238800000
0.0107979000000
0.0145673000000
0.0207083000000
0.0263539000000
0.0265544000000
0.0260869000000
0.0241776000000
0.0201334000000
0.0161019000000
0.0149314000000
0.0145178000000
0.0126330000000
0.0136753000000
0.0150044000000
0.0148647000000
0.0166787000000
0.0200802000000
0.0228312000000
0.0224539000000
0.0254059000000
0.0285221000000
0.0301232000000
0.0330942000000
0.0387614000000
0.0453665000000
0.0518844000000
0.0599390000000
0.0651562000000
0.0677800000000
0.0713899000000
0.0710643000000
0.0686042000000
0.0654107000000
0.0604410000000
0.0551785000000
0.0496088000000
0.0436071000000
0.0390266000000
0.0378290000000
0.0393012000000
0.0407177000000
0.0441753000000
0.0495657000000
0.0537197000000
0.0571110000000
0.0604402000000
0.0638141000000
0.0654194000000
0.0641012000000
0.0597092000000
0.0528957000000
0.0427337000000
0.0315597000000
0.0172318000000
0.0010674900000
-0.0126809000000
-0.0262069000000
-0.0410101000000
-0.0539855000000
-0.0604806000000
-0.0666520000000
-0.0716305000000
-0.0736887000000
-0.0741973000000
-0.0722262000000
-0.0687619000000
-0.0634699000000
-0.0533673000000
-0.0389059000000
-0.0258115000000
-0.0156018000000
-0.0075412600000
-0.0023444200000
-0.0004874410000
-0.0002850530000
-0.0002455760000
-0.0003473850000
-0.0025037800000
-0.0045064000000
-0.0043453300000
-0.0041398900000
-0.0028620400000
-0.0019909600000
-0.0020282000000
-0.0034942300000
-0.0062041900000
-0.0086142800000
-0.0135470000000
-0.0158489000000
-0.0156362000000
-0.0150472000000
-0.0140965000000
-0.0096393000000
-0.0056799000000
0.0009263000000
0.0077819000000
0.0137716000000
0.0181205000000
0.0231628000000
0.0269997000000
0.0296180000000
0.0294926000000
0.0265554000000
0.0208810000000
0.0169171000000
0.0123453000000
0.0071452400000
0.0042284800000
0.0017117500000
0.0004288080000
0.0019275900000
0.0032661200000
0.0069525500000
0.0121223000000
0.0164697000000
0.0208897000000
0.0234394000000
0.0247374000000
0.0235335000000
0.0202978000000
0.0171024000000
0.0125622000000
0.0050185200000
-0.0008222220000
-0.0064816000000
-0.0140349000000
-0.0198771000000
-0.0225457000000
-0.0245267000000
-0.0276533000000
-0.0319049000000
-0.0361465000000
-0.0386816000000
-0.0434253000000
-0.0513685000000
-0.0577397000000
-0.0621050000000
-0.0655796000000
-0.0668635000000
-0.0645614000000
-0.0613227000000
-0.0574274000000
-0.0492998000000
-0.0416652000000
-0.0333874000000
-0.0236907000000
-0.0169834000000
-0.0064073300000
0.0007539750000
0.0055524600000
0.0096573900000
0.0099436800000
0.0100031000000
0.0095793700000
0.0067345400000
0.0024421700000
0.0004775900000
0.0017065100000
0.0044683000000
0.0096775500000
0.0151430000000
0.0185836000000
0.0238776000000
0.0271411000000
0.0312925000000
0.0326606000000
0.0357410000000
0.0402240000000
0.0451634000000
0.0489023000000
0.0498439000000
0.0479535000000
0.0445430000000
0.0386012000000
0.0333564000000
0.0291972000000
0.0243677000000
0.0208695000000
0.0199194000000
0.0194553000000
0.0185404000000
0.0179481000000
0.0143516000000
0.0097225500000
0.0027886100000
-0.0052145000000
-0.0110660000000
-0.0173252000000
-0.0229468000000
-0.0275715000000
-0.0302116000000
-0.0296613000000
-0.0288485000000
-0.0297808000000
-0.0276036000000
-0.0246945000000
-0.0223538000000
-0.0191900000000
-0.0172315000000
-0.0143032000000
-0.0110839000000
-0.0057931900000
-0.0015924100000
0.0032903900000
0.0080108900000
0.0118821000000
0.0157860000000
0.0166992000000
0.0174124000000
0.0197310000000
0.0243486000000
0.0284898000000
0.0298217000000
0.0309491000000
0.0309382000000
0.0276220000000
0.0268365000000
0.0243607000000
0.0215829000000
0.0198636000000
0.0180668000000
0.0160075000000
0.0147836000000
0.0134360000000
0.0100692000000
0.0070778200000
0.0047029800000
0.0014071900000
-0.0021852900000
-0.0045833900000
-0.0072150700000
-0.0097096700000
-0.0133543000000
-0.0186018000000
-0.0245518000000
-0.0311602000000
-0.0392590000000
-0.0446060000000
-0.0478411000000
-0.0498213000000
-0.0477753000000
-0.0427774000000
-0.0378997000000
-0.0308712000000
-0.0225758000000
-0.0142648000000
-0.0052724400000
0.0010522800000
0.0074158800000
0.0111000000000
0.0164250000000
0.0220149000000
0.0261799000000
0.0305077000000
0.0348434000000
0.0371503000000
0.0369495000000
0.0378909000000
0.0392238000000
0.0380253000000
0.0380501000000
0.0367200000000
0.0346073000000
0.0333059000000
0.0307317000000
0.0297164000000
0.0289026000000
0.0294800000000
0.0296320000000
0.0301084000000
0.0293319000000
0.0281480000000
0.0272860000000
0.0265553000000
0.0244025000000
0.0205797000000
0.0181946000000
0.0165365000000
0.0108366000000
0.0037481700000
-0.0029141600000
-0.0104462000000
-0.0202893000000
-0.0270872000000
-0.0314270000000
-0.0381714000000
-0.0416892000000
-0.0446082000000
-0.0455349000000
-0.0444009000000
-0.0435418000000
-0.0412480000000
-0.0362577000000
-0.0331071000000
-0.0284914000000
-0.0247018000000
-0.0217123000000
-0.0196695000000
-0.0206922000000
-0.0242393000000
-0.0275667000000
-0.0327176000000
-0.0395870000000
-0.0460642000000
-0.0498037000000
-0.0531236000000
-0.0526712000000
-0.0511409000000
-0.0500176000000
-0.0486015000000
-0.0440466000000
-0.0390378000000
-0.0344213000000
-0.0296572000000
-0.0236279000000
-0.0179544000000
-0.0165044000000
-0.0162076000000
-0.0153100000000
-0.0146520000000
-0.0141962000000
-0.0132126000000
-0.0093443200000
-0.0044691800000
0.0017627700000
0.0071800300000
0.0118305000000
0.0170486000000
0.0207285000000
0.0208621000000
0.0201998000000
0.0188074000000
0.0140498000000
0.0089162700000
0.0041760800000
0.0028915400000
0.0003446580000
-0.0006141900000
0.0011702600000
0.0046785100000
0.0082909900000
0.0118901000000
0.0141961000000
0.0163313000000
0.0168692000000
0.0164844000000
0.0154849000000
0.0136797000000
0.0134272000000
0.0131397000000
0.0114093000000
0.0099782900000
0.0085019000000
0.0081267900000
0.0054727600000
0.0002797660000
-0.0009396190000
-0.0020348000000
-0.0012482500000
0.0012514700000
0.0053079400000
0.0104236000000
0.0140894000000
0.0150338000000
0.0160196000000
0.0159412000000
0.0154969000000
0.0152157000000
0.0148601000000
0.0145863000000
0.0142541000000
0.0139582000000
0.0135556000000
0.0130788000000
0.0141861000000
0.0168312000000
0.0165041000000
0.0172962000000
0.0193098000000
0.0201962000000
0.0225113000000
0.0235738000000
0.0226180000000
0.0209306000000
0.0186913000000
0.0150951000000
0.0100242000000
0.0055333900000
0.0028781600000
-0.0010037900000
-0.0029095400000
-0.0040078100000
-0.0037573800000
-0.0009621440000
0.0000416928000
0.0012393900000
0.0017592600000
0.0018027700000
-0.0002658930000
-0.0028398200000
-0.0025847500000
-0.0021450400000
-0.0001372330000
0.0053470900000
0.0115264000000
0.0172094000000
0.0228034000000
0.0267238000000
0.0292590000000
0.0316807000000
0.0323168000000
0.0323812000000
0.0315112000000
0.0285292000000
0.0245647000000
0.0191461000000
0.0135200000000
0.0066783700000
-0.0011836400000
-0.0069386700000
-0.0116262000000
-0.0166638000000
-0.0225341000000
-0.0296178000000
-0.0348787000000
-0.0383143000000
-0.0412106000000
-0.0432215000000
-0.0436369000000
-0.0421860000000
-0.0399866000000
-0.0368544000000
-0.0301634000000
-0.0230908000000
-0.0178208000000
-0.0125477000000
-0.0056986400000
-0.0014902600000
0.0015521500000
0.0016203800000
0.0029267500000
0.0042032800000
0.0055505200000
0.0057453200000
0.0060747100000
0.0074035200000
0.0072448800000
0.0068689500000
0.0068225500000
0.0064223000000
0.0063195500000
0.0060319300000
0.0072753900000
0.0084504100000
0.0109298000000
0.0120156000000
0.0144347000000
0.0193617000000
0.0236683000000
0.0280080000000
0.0335744000000
0.0379765000000
0.0425447000000
0.0478120000000
0.0512885000000
0.0547829000000
0.0578315000000
0.0587492000000
0.0596239000000
0.0570834000000
0.0512853000000
0.0453195000000
0.0353221000000
0.0259654000000
0.0186395000000
0.0128555000000
0.0069368500000
0.0013171000000
-0.0035404100000
-0.0072769400000
-0.0114714000000
-0.0141566000000
-0.0181898000000
-0.0232102000000
-0.0281096000000
-0.0316750000000
-0.0349806000000
-0.0380949000000
-0.0410616000000
-0.0424082000000
-0.0443236000000
-0.0451807000000
-0.0452061000000
-0.0443103000000
-0.0417166000000
-0.0404176000000
-0.0398060000000
-0.0388493000000
-0.0391783000000
-0.0396073000000
-0.0406310000000
-0.0439973000000
-0.0464577000000
-0.0500456000000
-0.0538885000000
-0.0558198000000
-0.0555200000000
-0.0568938000000
-0.0531891000000
-0.0463943000000
-0.0378263000000
-0.0254622000000
-0.0147972000000
-0.0066093900000
-0.0003503170000
0.0025842700000
0.0036526500000
0.0021389800000
-0.0007649800000
-0.0041476700000
-0.0044779700000
-0.0059471400000
-0.0085358400000
-0.0049739000000
-0.0029565300000
-0.0006851260000
0.0026179100000
0.0049791900000
0.0098056500000
0.0130648000000
0.0150703000000
0.0165443000000
0.0181002000000
0.0202836000000
0.0197748000000
0.0194195000000
0.0206222000000
0.0205741000000
0.0196714000000
0.0193906000000
0.0174529000000
0.0160823000000
0.0158824000000
0.0154250000000
0.0148571000000
0.0144850000000
0.0138523000000
0.0119272000000
0.0104159000000
0.0089969200000
0.0084114000000
0.0068623500000
0.0043199000000
0.0070595500000
0.0078479800000
0.0078783300000
0.0101417000000
0.0108439000000
0.0109416000000
0.0126469000000
0.0102844000000
0.0069708200000
0.0047678600000
0.0029823000000
0.0006591610000
-0.0012148500000
-0.0039860300000
-0.0056089000000
-0.0076445900000
-0.0085728500000
-0.0080282400000
-0.0082215500000
-0.0079619600000
-0.0103313000000
-0.0122706000000
-0.0122862000000
-0.0150095000000
-0.0158478000000
-0.0148301000000
-0.0146567000000
-0.0114346000000
-0.0096691300000
-0.0100666000000
-0.0089314400000
-0.0060174600000
-0.0046799000000
-0.0048409800000
-0.0025766400000
-0.0007098530000
0.0013937500000
0.0037003200000
0.0065314400000
0.0077186100000
0.0082111100000
0.0111398000000
0.0113196000000
0.0093117200000
0.0081324300000
0.0077153800000
0.0065497400000
0.0073821700000
0.0075357700000
0.0069161500000
0.0065792000000
0.0043870100000
0.0017864200000
-0.0018941400000
-0.0044944000000
-0.0072277300000
-0.0088295200000
-0.0111400000000
-0.0143191000000
-0.0151331000000
-0.0172850000000
-0.0197827000000
-0.0228369000000
-0.0242272000000
-0.0272122000000
-0.0293867000000
-0.0294117000000
-0.0303763000000
-0.0320402000000
-0.0311882000000
-0.0303436000000
-0.0283078000000
-0.0279744000000
-0.0280607000000
-0.0274393000000
-0.0289405000000
-0.0298405000000
-0.0287515000000
-0.0306769000000
-0.0314560000000
-0.0299018000000
-0.0291340000000
-0.0281772000000
-0.0286481000000
-0.0301026000000
-0.0298116000000
-0.0289421000000
-0.0297718000000
-0.0285828000000
-0.0286930000000
-0.0259420000000
-0.0230579000000
-0.0197604000000
-0.0155449000000
-0.0127864000000
-0.0058385600000
0.0009585060000
0.0074371200000
0.0134753000000
0.0203242000000
0.0281331000000
0.0321279000000
0.0353922000000
0.0386779000000
0.0413719000000
0.0425701000000
0.0444199000000
0.0439471000000
0.0427978000000
0.0422247000000
0.0412966000000
0.0403644000000
0.0394536000000
0.0387571000000
0.0378674000000
0.0371425000000
0.0361081000000
0.0354723000000
0.0345565000000
0.0362350000000
0.0375484000000
0.0367309000000
0.0387332000000
0.0404499000000
0.0418687000000
0.0423643000000
0.0434169000000
0.0450664000000
0.0465983000000
0.0489243000000
0.0481251000000
0.0465294000000
0.0453831000000
0.0442968000000
0.0429124000000
0.0424002000000
0.0417961000000
0.0392891000000
0.0379934000000
0.0354388000000
0.0319968000000
0.0295193000000
0.0258474000000
0.0223863000000
0.0193746000000
0.0155288000000
0.0098433800000
0.0060911300000
0.0012501800000
-0.0032444600000
-0.0070853500000
-0.0121046000000
-0.0152270000000
-0.0177540000000
-0.0222840000000
-0.0272383000000
-0.0302761000000
-0.0335631000000
-0.0359064000000
-0.0364195000000
-0.0385703000000
-0.0382415000000
-0.0370501000000
-0.0363947000000
-0.0334174000000
-0.0285515000000
-0.0242838000000
-0.0193408000000
-0.0128224000000
-0.0080542100000
-0.0056722500000
-0.0034763600000
-0.0037079400000
-0.0053178000000
-0.0063088800000
-0.0087626200000
-0.0114167000000
-0.0148323000000
-0.0151157000000
-0.0145322000000
-0.0133140000000
-0.0104879000000
-0.0095642200000
-0.0092098400000
-0.0072962700000
-0.0069981600000
-0.0057761400000
-0.0043595600000
-0.0026800300000
-0.0006902280000
0.0009249010000
0.0045522500000
0.0072154100000
0.0078467000000
0.0107479000000
0.0140323000000
0.0150640000000
0.0147364000000
0.0142325000000
0.0140132000000
0.0134394000000
0.0132444000000
0.0113327000000
0.0079894700000
0.0074008200000
0.0075277900000
0.0071773300000
0.0090548900000
0.0112708000000
0.0122603000000
0.0121079000000
0.0127566000000
0.0129648000000
0.0128740000000
0.0104937000000
0.0075090200000
0.0047349100000
0.0008930210000
-0.0032489100000
-0.0070496200000
-0.0100315000000
-0.0122379000000
-0.0156962000000
-0.0177801000000
-0.0182518000000
-0.0201336000000
-0.0216424000000
-0.0220279000000
-0.0227507000000
-0.0222603000000
-0.0215052000000
-0.0193683000000
-0.0188976000000
-0.0164821000000
-0.0135744000000
-0.0136677000000
-0.0126688000000
-0.0091236700000
-0.0081441000000
-0.0086846400000
-0.0057572900000
-0.0035304200000
-0.0040838800000
-0.0028082000000
0.0003607360000
0.0026271600000
0.0045929400000
0.0048199900000
0.0075997000000
0.0082821900000
0.0048830300000
0.0035698400000
0.0010899300000
-0.0013043100000
-0.0045453800000
-0.0078594500000
-0.0088895300000
-0.0109459000000
-0.0131414000000
-0.0142841000000
-0.0144216000000
-0.0153729000000
-0.0178751000000
-0.0188657000000
-0.0192576000000
-0.0204275000000
-0.0206963000000
-0.0198825000000
-0.0201480000000
-0.0209844000000
-0.0205608000000
-0.0229803000000
-0.0238504000000
-0.0231066000000
-0.0250707000000
-0.0257930000000
-0.0248942000000
-0.0237638000000
-0.0207058000000
-0.0156577000000
-0.0128678000000
-0.0089981200000
-0.0049524300000
-0.0024607400000
-0.0019974300000
-0.0010009900000
0.0007234200000
0.0010392800000
0.0038361700000
0.0076926500000
0.0089027700000
0.0099169000000
0.0120047000000
0.0160390000000
0.0176581000000
0.0200398000000
0.0218317000000
0.0250289000000
0.0272729000000
0.0303386000000
0.0345100000000
0.0367489000000
0.0374104000000
0.0378069000000
0.0381967000000
0.0373761000000
0.0361398000000
0.0354876000000
0.0337632000000
0.0307487000000
0.0271741000000
0.0254498000000
0.0217561000000
0.0189130000000
0.0142446000000
0.0073747300000
0.0009432170000
-0.0039665700000
-0.0092909500000
-0.0156753000000
-0.0208506000000
-0.0228802000000
-0.0239133000000
-0.0259912000000
-0.0281390000000
-0.0288994000000
-0.0303148000000
-0.0321311000000
-0.0327158000000
-0.0340281000000
-0.0340862000000
-0.0346193000000
-0.0338366000000
-0.0327203000000
-0.0303219000000
-0.0283298000000
-0.0255533000000
-0.0221452000000
-0.0176376000000
-0.0120156000000
-0.0070550700000
-0.0039849400000
-0.0005980760000
0.0036749300000
0.0074142100000
0.0091894300000
0.0094632200000
0.0126623000000
0.0131367000000
0.0125384000000
0.0125283000000
0.0123920000000
0.0126402000000
0.0138166000000
0.0148158000000
0.0157257000000
0.0170191000000
0.0187511000000
0.0198845000000
0.0223939000000
0.0232605000000
0.0249869000000
0.0255659000000
0.0267070000000
0.0282283000000
0.0275006000000
0.0267076000000
0.0247362000000
0.0229012000000
0.0211156000000
0.0192405000000
0.0175769000000
0.0168150000000
0.0166724000000
0.0154514000000
0.0139592000000
0.0111600000000
0.0085517800000
0.0053951700000
0.0032287000000
-0.0002970660000
-0.0034445500000
-0.0049359000000
-0.0059043700000
-0.0084950200000
-0.0092360000000
-0.0105252000000
-0.0105517000000
-0.0113869000000
-0.0110616000000
-0.0097541800000
-0.0095840100000
-0.0095624600000
-0.0091533200000
-0.0090357200000
-0.0073555200000
-0.0060460600000
-0.0044391100000
-0.0041607800000
-0.0031791300000
-0.0017498500000
-0.0001162940000
0.0020193400000
0.0036317000000
0.0060763700000
0.0085862600000
0.0104562000000
0.0131888000000
0.0141108000000
0.0145055000000
0.0172373000000
0.0172608000000
0.0163215000000
0.0159054000000
0.0138060000000
0.0123003000000
0.0107573000000
0.0102689000000
0.0099231300000
0.0093802400000
0.0091972400000
0.0081393200000
0.0064251500000
0.0048758000000
0.0036220000000
0.0036065600000
0.0033159700000
0.0037817700000
0.0059131200000
0.0071755900000
0.0067441900000
0.0096129500000
0.0104661000000
0.0097076400000
0.0082955000000
0.0069043400000
0.0066611000000
0.0064897100000
0.0059137200000
0.0065554000000
0.0075658700000
0.0072969100000
0.0067313000000
0.0063801600000
0.0035207700000
0.0018835300000
-0.0007042150000
-0.0044950300000
-0.0085693300000
-0.0118389000000
-0.0166254000000
-0.0194357000000
-0.0213127000000
-0.0230743000000
-0.0227273000000
-0.0245307000000
-0.0253434000000
-0.0231821000000
-0.0225605000000
-0.0209634000000
-0.0195812000000
-0.0194275000000
-0.0180835000000
-0.0162745000000
-0.0160883000000
-0.0159335000000
-0.0150529000000
-0.0130377000000
-0.0125446000000
-0.0113800000000
-0.0097735200000
-0.0097577000000
-0.0094503800000
-0.0098675100000
-0.0111085000000
-0.0109922000000
-0.0105094000000
-0.0104170000000
-0.0096491000000
-0.0071589500000
-0.0054689800000
-0.0056054500000
-0.0053453100000
-0.0051236400000
-0.0049155000000
-0.0049830700000
-0.0046848400000
-0.0044887600000
-0.0014107800000
0.0005502790000
0.0018731400000
0.0048165400000
0.0060362300000
0.0071132500000
0.0078461200000
0.0070608200000
0.0054025500000
0.0042783100000
0.0029198200000
0.0027801100000
0.0010028500000
0.0003040530000
0.0004641440000
0.0014743800000
0.0026158600000
0.0023776900000
0.0025444500000
0.0048437200000
0.0064376300000
0.0072422700000
0.0094644400000
0.0100417000000
0.0099338000000
0.0113345000000
0.0112998000000
0.0107227000000
0.0104679000000
0.0102217000000
0.0099525300000
0.0089967900000
0.0072180200000
0.0057744500000
0.0030101100000
0.0019379100000
-0.0000776662000
-0.0020688400000
-0.0033332400000
-0.0043655200000
-0.0042841000000
-0.0041374500000
-0.0042859100000
-0.0041032800000
-0.0052128900000
-0.0062929300000
-0.0074917100000
-0.0084661600000
-0.0097847700000
-0.0098794000000
-0.0094357500000
-0.0093559200000
-0.0091945600000
-0.0085584900000
-0.0068159400000
-0.0064421300000
-0.0064405800000
-0.0046851900000
-0.0035209200000
-0.0015964700000
0.0003480670000
0.0013636600000
0.0037503800000
0.0046373200000
0.0057947400000
0.0068954000000
0.0080250300000
0.0067890200000
0.0037645500000
0.0032520600000
0.0022605600000
-0.0008746620000
-0.0023941900000
-0.0031863800000
-0.0034044000000
-0.0033224600000
-0.0028009500000
-0.0010493700000
-0.0011288300000
-0.0011969400000
-0.0009350070000
0.0008696410000
0.0010342700000
0.0017703900000
0.0029137500000
0.0029152600000
0.0028358700000
0.0047620900000
0.0038829000000
0.0021043800000
-0.0005614820000
-0.0026748500000
-0.0053623100000
-0.0068317300000
-0.0089458700000
-0.0103181000000
-0.0098324700000
-0.0095906700000
-0.0095942800000
-0.0084394300000
-0.0079184400000
-0.0090153200000
-0.0088970500000
-0.0100202000000
-0.0104021000000
-0.0098159800000
-0.0109397000000
-0.0116855000000
-0.0111569000000
-0.0108285000000
-0.0107288000000
-0.0092021200000
-0.0063352500000
-0.0037007500000
-0.0007921230000
0.0026978200000
0.0039464200000
0.0062034400000
0.0072920400000
0.0063885100000
0.0049307700000
0.0037265500000
0.0025153000000
0.0023779000000
0.0023609500000
0.0017098200000
0.0001286130000
-0.0000342768000
0.0003030510000
0.0015622000000
0.0023169900000
0.0025533400000
0.0050626000000
0.0064101500000
0.0059989600000
0.0058594400000
0.0058795400000
0.0058148800000
0.0055627300000
0.0066130100000
0.0076246500000
0.0087094300000
0.0102208000000
0.0128268000000
0.0138337000000
0.0155328000000
0.0151083000000
0.0150521000000
0.0163918000000
0.0169333000000
0.0166307000000
0.0158372000000
0.0158374000000
0.0146068000000
0.0121850000000
0.0088317400000
0.0076589800000
0.0044489700000
0.0014774900000
-0.0001839960000
-0.0031250300000
-0.0060273600000
-0.0056287900000
-0.0068784800000
-0.0058369600000
-0.0053549500000
-0.0044025600000
-0.0018092600000
0.0006585090000
0.0010024400000
0.0007847270000
0.0008007910000
0.0008806760000
0.0006760140000
0.0007184190000
-0.0000144444000
-0.0022030800000
-0.0049653000000
-0.0057928600000
-0.0072078700000
-0.0081558700000
-0.0101516000000
-0.0116133000000
-0.0125396000000
-0.0133258000000
-0.0145279000000
-0.0149495000000
-0.0144117000000
-0.0140838000000
-0.0138075000000
-0.0146448000000
-0.0168842000000
-0.0171033000000
-0.0159240000000
-0.0140239000000
-0.0135141000000
-0.0133725000000
-0.0113979000000
-0.0086183900000
-0.0079446600000
-0.0074161500000
-0.0046584100000
-0.0030390800000
-0.0018584500000
-0.0007857870000
-0.0008590360000
-0.0007359780000
-0.0007629180000
0.0004477050000
0.0016958900000
0.0015950400000
0.0017998500000
0.0039897400000
0.0063784000000
0.0087042400000
0.0096990000000
0.0095380000000
0.0103403000000
0.0101179000000
0.0096582200000
0.0089323200000
0.0062718800000
0.0047229600000
0.0047718600000
0.0030098100000
0.0020896000000
0.0015606200000
0.0017747200000
0.0042925400000
0.0040870000000
0.0037406400000
0.0037954900000
0.0036895900000
0.0051262200000
0.0077550700000
0.0073313200000
0.0085685000000
0.0095580500000
0.0106888000000
0.0113262000000
0.0134626000000
0.0143220000000
0.0149097000000
0.0136368000000
0.0125590000000
0.0125014000000
0.0120321000000
0.0102342000000
0.0071394000000
0.0049450700000
0.0038514900000
0.0014773000000
-0.0014050600000
-0.0024667100000
-0.0027973100000
-0.0060681200000
-0.0068196900000
-0.0080949100000
-0.0110157000000
-0.0106931000000
-0.0120728000000
-0.0141546000000
-0.0141463000000
-0.0134203000000
-0.0133623000000
-0.0115483000000
-0.0104300000000
-0.0099967000000
-0.0068361500000
-0.0034510400000
-0.0025038200000
-0.0000891619000
0.0007512900000
0.0008930160000
0.0030933800000
0.0047759000000
0.0031605600000
0.0020855600000
0.0018871300000
0.0004662350000
-0.0003414750000
0.0001780040000
-0.0025596400000
-0.0045088100000
-0.0055323200000
-0.0064603400000
-0.0077480700000
-0.0075019000000
-0.0085170900000
-0.0088167500000
-0.0070236600000
-0.0056612000000
-0.0044224200000
-0.0028216000000
-0.0002016210000
0.0017868000000
0.0024163300000
0.0044961900000
0.0068434500000
0.0076613600000
0.0091272700000
0.0119227000000
0.0114079000000
0.0117698000000
0.0116873000000
0.0108733000000
0.0092381300000
0.0077100500000
0.0065584200000
0.0039782500000
0.0018434600000
0.0014115700000
-0.0013475000000
-0.0028384400000
-0.0045486800000
-0.0056261000000
-0.0051646700000
-0.0047836700000
-0.0034264600000
-0.0023978100000
-0.0011940500000
-0.0012322600000
-0.0014654700000
-0.0026703100000
-0.0034689700000
-0.0043347100000
-0.0041358600000
-0.0028765300000
-0.0017684400000
-0.0007600360000
0.0011403800000
0.0030097900000
0.0041430400000
0.0059409600000
0.0073242900000
0.0077346400000
0.0078318300000
0.0055548800000
0.0044303600000
0.0030723300000
0.0006732890000
-0.0005634340000
-0.0014217200000
-0.0032251200000
-0.0039275900000
-0.0031010800000
-0.0020676500000
-0.0009769670000
-0.0002555090000
0.0018422300000
0.0031678900000
0.0038008600000
0.0045084800000
0.0052161100000
0.0050101000000
0.0045790900000
0.0042560300000
0.0028825100000
0.0027102000000
0.0010208400000
-0.0007879300000
-0.0006868820000
-0.0016717200000
-0.0020175600000
-0.0024423400000
-0.0033075500000
-0.0030615500000
-0.0029883200000
-0.0027991700000
-0.0038995100000
-0.0046954100000
-0.0036783800000
-0.0034189000000
-0.0023269500000
-0.0024441100000
-0.0026789900000
-0.0030856700000
-0.0042140200000
-0.0038066300000
-0.0036114300000
-0.0033670800000
-0.0032752800000
-0.0023386300000
-0.0015079400000
0.0003814240000
0.0022936400000
0.0029371200000
0.0038724600000
0.0057418900000
0.0068011600000
0.0076011900000
0.0088264000000
0.0100600000000
0.0101242000000
0.0100480000000
0.0096000300000
0.0089436400000
0.0084251000000
0.0078233300000
0.0073197700000
0.0067506600000
0.0062573300000
0.0057016600000
0.0052777500000
0.0046973000000
0.0049790300000
0.0056390300000
0.0044552800000
0.0028808900000
0.0021630600000
0.0012956500000
0.0000316917000
-0.0016606700000
-0.0027675800000
-0.0037265800000
-0.0047422900000
-0.0055826800000
-0.0063741000000
-0.0065948600000
-0.0063170400000
-0.0061501200000
-0.0059547500000
-0.0057403000000
-0.0051697000000
-0.0042169800000
-0.0033720900000
-0.0029860800000
-0.0020340500000
-0.0014423500000
-0.0005430780000
-0.0002453250000
-0.0001352320000
-0.0001094610000
-0.0007563830000
-0.0011166300000
-0.0020432000000
-0.0033077900000
-0.0043322400000
-0.0045250000000
-0.0052693500000
-0.0059846700000
-0.0060818000000
-0.0062016400000
-0.0063021500000
-0.0063396000000
-0.0063165400000
-0.0060816800000
-0.0055779300000
-0.0053699800000
-0.0052874900000
-0.0047891200000
-0.0045222500000
-0.0044671400000
-0.0037424800000
-0.0030889000000
-0.0024765000000
-0.0018438700000
-0.0013893000000
-0.0008019230000
-0.0002428680000
0.0002410270000
0.0006474820000
0.0010840900000
0.0014977300000
0.0015472200000
0.0018197700000
0.0021561400000
0.0022583500000
0.0022754400000
0.0024523700000
0.0025694600000
0.0024368400000
0.0024309100000
0.0023705200000
0.0022727300000
0.0022368500000
0.0020560900000
0.0018875300000
0.0017975900000
0.0017114400000
0.0015707400000
0.0014721700000
0.0013955600000
0.0012795800000
0.0012179000000
0.0011299000000
0.0010261600000
0.0009393920000
0.0008703220000
0.0008282880000
0.0007884830000
0.0007464900000
0.0007260310000
0.0007076950000
0.0006650050000
0.0006450630000
0.0006133970000
0.0005628400000
0.0005214730000
0.0004794940000
0.0004407910000
0.0004005080000
0.0003707030000
0.0003462420000
0.0003112450000
0.0002827630000
0.0002642570000
0.0002323010000
0.0002033630000
0.0001744320000
0.0001422210000
0.0001109590000
0.0000860981000
0.0000579981000
0.0000335879000
0.0000106062000
-0.0000095689500
-0.0000287785000
-0.0000456673000
-0.0000619828000
-0.0000740248000
-0.0000865160000
-0.0000963162000
-0.0001039240000
-0.0001114600000
-0.0001179380000
-0.0001220830000
-0.0001256710000
-0.0001284510000
-0.0001304020000
-0.0001311610000
-0.0001312440000
-0.0001303170000
-0.0001286790000
-0.0001262170000
-0.0001232170000
-0.0001194360000
-0.0001150880000
-0.0001101210000
-0.0001046490000
-0.0000986185000
-0.0000921240000
-0.0000851634000
-0.0000777910000
-0.0000700239000
-0.0000618935000
0.0000000000000
