-0.0000271115000
-0.0000321714000
-0.0000298917000
-0.0000398059000
-0.0000391057000
-0.0000453388000
-0.0000381528000
-0.0000467910000
-0.0000579588000
-0.0000874697000
-0.0001138850000
-0.0001552510000
-0.0001685900000
-0.0001615500000
-0.0001310730000
-0.0001032460000
-0.0000587726000
-0.0000100919000
0.0000594578000
0.0001210360000
0.0001605720000
0.0001639570000
0.0001705490000
0.0001760930000
0.0001895010000
0.0001731290000
0.0000757534000
-0.0000768515000
-0.0001666610000
-0.0002011680000
-0.0002281370000
-0.0002785190000
-0.0003322150000
-0.0003855590000
-0.0004387700000
-0.0004964070000
-0.0005625950000
-0.0005935430000
-0.0000293142000
0.0016721200000
0.0026490100000
0.0019237200000
0.0006335320000
-0.0003701190000
-0.0003729420000
0.0011611100000
0.0036302400000
0.0050853400000
0.0018273100000
-0.0042847300000
-0.0063233300000
-0.0036367300000
-0.0002511760000
0.0003750490000
-0.0008955480000
-0.0012147000000
-0.0002965500000
0.0005544130000
-0.0017479700000
-0.0038733500000
0.0003901690000
0.0061084700000
0.0029798600000
-0.0076415900000
-0.0116013000000
-0.0052652400000
0.0031673600000
0.0088702000000
0.0046392700000
-0.0009129030000
0.0011227900000
0.0066485400000
0.0112037000000
0.0136671000000
0.0084288600000
0.0007622750000
0.0001327060000
0.0001815130000
-0.0042268500000
-0.0082085100000
-0.0052787300000
0.0020156200000
0.0043617900000
-0.0021726700000
-0.0114675000000
-0.0113121000000
0.0021449400000
0.0120160000000
0.0002569540000
-0.0214400000000
-0.0171669000000
0.0129125000000
0.0240327000000
-0.0011679900000
-0.0291628000000
-0.0224167000000
0.0083016300000
0.0108940000000
-0.0091047300000
-0.0085156500000
0.0164037000000
0.0280846000000
0.0055593000000
-0.0322722000000
-0.0437888000000
-0.0072457500000
0.0431882000000
0.0419136000000
-0.0083497900000
-0.0449440000000
-0.0175318000000
0.0251724000000
0.0076473200000
-0.0327512000000
-0.0354680000000
-0.0072697800000
0.0180823000000
0.0140585000000
-0.0218527000000
-0.0492968000000
-0.0329265000000
0.0103343000000
0.0346438000000
0.0186955000000
-0.0069959600000
-0.0046892000000
0.0037197000000
0.0027324100000
0.0048981800000
0.0135861000000
0.0227932000000
0.0162872000000
-0.0043210000000
-0.0252054000000
-0.0233563000000
0.0018392400000
0.0303195000000
0.0362155000000
0.0164726000000
-0.0087098600000
-0.0151812000000
0.0015175400000
0.0157998000000
0.0078026800000
-0.0075131500000
-0.0045423400000
0.0131244000000
0.0140770000000
-0.0075147500000
-0.0203597000000
-0.0126344000000
0.0015664200000
0.0095484600000
0.0036173400000
-0.0116265000000
-0.0109310000000
0.0107055000000
0.0257427000000
0.0134646000000
-0.0087945600000
-0.0133934000000
-0.0019344500000
0.0097961900000
0.0138015000000
0.0084447500000
-0.0004704900000
-0.0001414110000
0.0100167000000
0.0200760000000
0.0121876000000
0.0005267310000
0.0021437400000
-0.0108206000000
-0.0283006000000
-0.0206182000000
0.0059313400000
0.0227578000000
0.0114413000000
-0.0166197000000
-0.0295239000000
-0.0124861000000
0.0172764000000
0.0326097000000
0.0220730000000
0.0033092400000
-0.0008162540000
0.0053543400000
0.0073003000000
0.0039967900000
0.0005244850000
0.0000106918000
0.0006460680000
0.0010199100000
0.0024575900000
0.0064634600000
0.0098249600000
0.0073897800000
-0.0001094130000
0.0003759990000
0.0000736541000
-0.0002924500000
0.0066284800000
0.0150358000000
0.0142306000000
0.0040084700000
-0.0068309800000
-0.0130453000000
-0.0115159000000
-0.0057137500000
-0.0047835500000
-0.0107626000000
-0.0107124000000
-0.0008985140000
0.0037571600000
0.0051777000000
0.0121369000000
0.0221035000000
0.0217865000000
0.0087689500000
0.0024495100000
0.0093671000000
0.0188809000000
0.0157312000000
-0.0037536600000
-0.0268851000000
-0.0303766000000
-0.0052511200000
-0.0025200300000
-0.0113114000000
0.0034843700000
0.0164586000000
0.0047833700000
-0.0022891200000
0.0141109000000
0.0216446000000
0.0072118800000
-0.0141146000000
-0.0234631000000
-0.0167299000000
-0.0037504000000
-0.0024126900000
-0.0135726000000
-0.0154781000000
-0.0046115300000
0.0038120100000
0.0088165900000
0.0156996000000
0.0138813000000
0.0022198300000
0.0066084700000
0.0129233000000
0.0012185300000
-0.0204538000000
-0.0290812000000
-0.0193363000000
-0.0043637600000
0.0060058300000
0.0010733000000
-0.0177788000000
-0.0242093000000
-0.0119757000000
0.0043366500000
0.0151301000000
0.0207439000000
0.0145199000000
0.0069802000000
0.0115040000000
0.0130933000000
0.0020674200000
-0.0103088000000
-0.0129907000000
-0.0080301500000
-0.0038122700000
-0.0042584400000
-0.0101472000000
-0.0206642000000
-0.0143337000000
0.0316532000000
0.0552106000000
0.0247639000000
-0.0215087000000
-0.0486922000000
-0.0425613000000
-0.0192457000000
0.0012638200000
0.0123538000000
0.0125809000000
-0.0051511400000
-0.0352905000000
-0.0392526000000
-0.0042793700000
0.0423831000000
0.0599651000000
0.0279221000000
-0.0296442000000
-0.0792477000000
-0.0624098000000
0.0211293000000
0.0622292000000
0.0292435000000
-0.0203972000000
-0.0403568000000
-0.0461891000000
-0.0639898000000
-0.0440285000000
0.0290633000000
0.0601567000000
0.0144246000000
-0.0519570000000
-0.0485531000000
0.0077690700000
0.0377365000000
0.0159301000000
-0.0279128000000
-0.0461310000000
-0.0237665000000
0.0080588400000
0.0062039100000
-0.0239998000000
-0.0541604000000
-0.0652329000000
-0.0533358000000
-0.0326837000000
-0.0329925000000
-0.0784794000000
-0.1067390000000
-0.0762025000000
-0.0245317000000
-0.0025968700000
-0.0157449000000
-0.0218621000000
-0.0074838100000
0.0094765900000
0.0017667000000
-0.0250471000000
-0.0226055000000
0.0259341000000
0.0844994000000
0.0759593000000
-0.0055357200000
-0.0342687000000
0.0248903000000
0.0930699000000
0.0939005000000
0.0432186000000
0.0086118800000
0.0232627000000
0.0640723000000
0.0988096000000
0.1175390000000
0.0869602000000
0.0127107000000
-0.0379807000000
-0.0213026000000
0.0266013000000
0.0360666000000
0.0149909000000
0.0058244900000
0.0135498000000
0.0224262000000
0.0249216000000
0.0257538000000
0.0282939000000
0.0324483000000
0.0405825000000
0.0556206000000
0.0731235000000
0.0900792000000
0.1052780000000
0.1162490000000
0.0666361000000
-0.0454648000000
-0.1316590000000
-0.1176300000000
-0.0363706000000
0.0392109000000
0.0582178000000
0.0287267000000
-0.0033108900000
0.0030789800000
0.0503647000000
0.0935343000000
0.1053850000000
0.0971671000000
0.0920906000000
0.0926919000000
0.0950717000000
0.0939361000000
0.0858848000000
0.0681280000000
0.0489808000000
0.0447834000000
0.0657336000000
0.0803402000000
0.0666301000000
0.0363598000000
0.0098223000000
-0.0124242000000
-0.0331197000000
-0.0442934000000
-0.0395367000000
-0.0313479000000
-0.0354958000000
-0.1111290000000
-0.1833100000000
-0.1656810000000
-0.1003330000000
-0.0883768000000
-0.1410920000000
-0.1534210000000
-0.0976347000000
-0.0501660000000
-0.0539540000000
-0.0683214000000
-0.0510661000000
-0.0144790000000
-0.0013863400000
-0.0195235000000
-0.0252064000000
-0.0423846000000
-0.0960941000000
-0.1551030000000
-0.1804430000000
-0.1696790000000
-0.1559450000000
-0.1599590000000
-0.1409860000000
-0.0737783000000
0.0124372000000
0.0890039000000
0.1351120000000
0.1496380000000
0.1473220000000
0.1428300000000
0.1811260000000
0.2055220000000
0.1676860000000
0.1082240000000
0.0657426000000
0.0619711000000
0.0597952000000
0.0064920700000
-0.0856688000000
-0.1433970000000
-0.1224870000000
-0.0576255000000
0.0011627100000
0.0468399000000
0.0890096000000
0.1038100000000
0.0571656000000
-0.0092714200000
-0.0276238000000
-0.0023679900000
-0.0062404900000
-0.0845189000000
-0.2002270000000
-0.2531510000000
-0.1842540000000
-0.0591886000000
-0.0166089000000
-0.0665575000000
-0.1144280000000
-0.0848841000000
-0.0023278300000
0.0254981000000
-0.0303439000000
-0.1082380000000
-0.1228100000000
-0.0577161000000
0.0109315000000
0.0008030040000
-0.0625709000000
-0.0593005000000
0.0268357000000
0.1140720000000
0.1113010000000
0.0424001000000
0.0493752000000
0.1520900000000
0.2449470000000
0.2370500000000
0.1586610000000
0.0834936000000
0.0288879000000
-0.0217438000000
-0.0780772000000
-0.1276360000000
-0.1266310000000
-0.0763481000000
-0.0206063000000
0.0239329000000
0.0628046000000
0.1001090000000
0.0744686000000
-0.0196984000000
-0.0637466000000
-0.0229547000000
0.0083058200000
-0.0114574000000
-0.0437559000000
-0.0529293000000
-0.0464578000000
-0.0424451000000
-0.0450111000000
-0.0477192000000
-0.0423209000000
-0.0085988800000
0.0483598000000
0.1041930000000
0.1151280000000
0.0816915000000
0.0424435000000
0.0129711000000
-0.0120369000000
-0.0394112000000
-0.0633765000000
-0.0754788000000
-0.0783813000000
-0.0806376000000
-0.0827890000000
-0.0831666000000
-0.0822983000000
-0.0860317000000
-0.0990052000000
-0.1174530000000
-0.1355170000000
-0.1500200000000
-0.1459410000000
-0.1158770000000
-0.0749228000000
-0.0370387000000
-0.0034469400000
0.0288843000000
0.0526964000000
0.0659382000000
0.0752815000000
0.0751593000000
0.0599366000000
0.0372026000000
0.0160157000000
0.0026404200000
0.0017763500000
0.0088938200000
0.0136658000000
0.0156219000000
0.0247168000000
0.0359027000000
0.0256235000000
-0.0051185100000
-0.0349900000000
-0.0152938000000
0.0443856000000
0.0643200000000
0.0309952000000
-0.0114081000000
-0.0341616000000
-0.0262057000000
-0.0115137000000
-0.0189102000000
-0.0409291000000
-0.0529335000000
-0.0426510000000
-0.0383106000000
-0.0606489000000
-0.0768517000000
-0.0397483000000
0.0246033000000
0.0453377000000
0.0207405000000
0.0194635000000
0.0633005000000
0.0952941000000
0.0993174000000
0.0913841000000
0.0641482000000
0.0349222000000
0.0409544000000
0.0686733000000
0.0774151000000
0.0647542000000
0.0502626000000
0.0491572000000
0.0635617000000
0.0839007000000
0.0933891000000
0.0793943000000
0.0499210000000
0.0214264000000
-0.0007690730000
-0.0185104000000
-0.0362562000000
-0.0537967000000
-0.0706777000000
-0.0861302000000
-0.0999046000000
-0.0910010000000
-0.0550945000000
-0.0416228000000
-0.0947959000000
-0.1189760000000
-0.0621716000000
-0.0121209000000
-0.0176148000000
-0.0462868000000
-0.0538839000000
-0.0205365000000
0.0338903000000
0.0540678000000
0.0264981000000
-0.0145273000000
-0.0251545000000
0.0146287000000
0.0767711000000
0.0936590000000
0.0699968000000
0.0965648000000
0.1877170000000
0.2867430000000
0.3422960000000
0.3477120000000
0.3507280000000
0.3755360000000
0.4063120000000
0.4304040000000
0.4463260000000
0.4111810000000
0.2909480000000
0.1733070000000
0.1205140000000
0.0989836000000
0.0667382000000
0.0204543000000
-0.0233364000000
-0.0593285000000
-0.0805475000000
-0.0845721000000
-0.0871281000000
-0.0986277000000
-0.1131850000000
-0.1162590000000
-0.1064440000000
-0.0952317000000
-0.0938848000000
-0.1231880000000
-0.1640240000000
-0.1713890000000
-0.1467450000000
-0.1189620000000
-0.0997674000000
-0.0838017000000
-0.0704050000000
-0.0579544000000
-0.0325375000000
0.0054898700000
0.0312074000000
0.0377406000000
0.0367669000000
0.0273520000000
0.0098500100000
0.0021961300000
0.0126952000000
0.0302624000000
0.0445710000000
0.0480427000000
0.0499425000000
0.0595197000000
0.0714880000000
0.0814537000000
0.0895596000000
0.0966172000000
0.0901345000000
0.0624434000000
0.0256452000000
-0.0046466800000
-0.0220642000000
-0.0319509000000
-0.0419992000000
-0.0495616000000
-0.0457673000000
-0.0327098000000
-0.0321410000000
-0.0526759000000
-0.0882334000000
-0.1276780000000
-0.1646770000000
-0.1992570000000
-0.2330760000000
-0.2660570000000
-0.2963540000000
-0.3046720000000
-0.2880280000000
-0.2693250000000
-0.2884310000000
-0.3261710000000
-0.3060970000000
-0.2266920000000
-0.1433470000000
-0.1048790000000
-0.1066080000000
-0.0874855000000
-0.0288833000000
0.0378747000000
0.0590102000000
0.0350708000000
0.0132483000000
0.0361233000000
0.0935729000000
0.1499410000000
0.1961490000000
0.2379020000000
0.2737000000000
0.2997660000000
0.3198310000000
0.3389350000000
0.3568900000000
0.3507780000000
0.2853020000000
0.1788370000000
0.0936310000000
0.0633587000000
0.0548557000000
0.0242200000000
-0.0202542000000
-0.0403046000000
-0.0319257000000
-0.0199748000000
-0.0148076000000
-0.0136972000000
-0.0268806000000
-0.0607278000000
-0.0904795000000
-0.1055140000000
-0.1384780000000
-0.2015010000000
-0.2693440000000
-0.3134920000000
-0.3034690000000
-0.2611060000000
-0.2452670000000
-0.2635530000000
-0.2568980000000
-0.1899900000000
-0.1150880000000
-0.0829804000000
-0.0748643000000
-0.0498726000000
-0.0037551800000
0.0341044000000
0.0517370000000
0.0601729000000
0.0698853000000
0.0686225000000
0.0525456000000
0.0238429000000
-0.0123536000000
-0.0490929000000
-0.0821838000000
-0.0918696000000
-0.0694288000000
-0.0626486000000
-0.0979350000000
-0.1152100000000
-0.0752449000000
-0.0100232000000
0.0459027000000
0.0751364000000
0.0777380000000
0.0744946000000
0.0883021000000
0.1153290000000
0.1404270000000
0.1432880000000
0.1157890000000
0.0893701000000
0.0832713000000
0.0645831000000
0.0203869000000
-0.0304128000000
-0.0736480000000
-0.1076520000000
-0.1223580000000
-0.1158840000000
-0.1004390000000
-0.0854418000000
-0.0564117000000
0.0008584140000
0.0716870000000
0.1068070000000
0.0860937000000
0.0425010000000
0.0149509000000
0.0016149600000
-0.0183088000000
-0.0458863000000
-0.0655391000000
-0.0731175000000
-0.0779133000000
-0.0820827000000
-0.0743401000000
-0.0533698000000
-0.0308258000000
-0.0159456000000
-0.0228079000000
-0.0332618000000
-0.0197784000000
0.0068754400000
0.0107514000000
-0.0117950000000
-0.0365480000000
-0.0420204000000
-0.0228066000000
-0.0009053810000
0.0057934000000
0.0058159600000
0.0074302300000
0.0030050000000
-0.0078489900000
-0.0147801000000
-0.0045798200000
-0.0011865900000
-0.0188421000000
-0.0427159000000
-0.0492746000000
-0.0363948000000
-0.0195303000000
-0.0018538200000
0.0292323000000
0.0564215000000
0.0522244000000
0.0277220000000
0.0286985000000
0.0709533000000
0.1263740000000
0.1695160000000
0.1687900000000
0.1314450000000
0.0964181000000
0.0692326000000
0.0383975000000
0.0041880400000
-0.0005178420000
0.0300428000000
0.0679269000000
0.0966467000000
0.0952074000000
0.0621122000000
0.0348330000000
0.0233011000000
0.0094186600000
-0.0116257000000
-0.0254045000000
-0.0227947000000
-0.0191244000000
-0.0298805000000
-0.0318464000000
0.0099585500000
0.0819004000000
0.1443910000000
0.1689390000000
0.1667670000000
0.1638800000000
0.1552470000000
0.1205220000000
0.0655941000000
0.0112332000000
-0.0359354000000
-0.0759607000000
-0.1121800000000
-0.1467560000000
-0.1778440000000
-0.1771530000000
-0.1419230000000
-0.0999739000000
-0.0658594000000
-0.0445468000000
-0.0390397000000
-0.0354441000000
-0.0039267000000
0.0494763000000
0.0823853000000
0.0734870000000
0.0445537000000
0.0283703000000
0.0406802000000
0.0691048000000
0.0950434000000
0.1163050000000
0.1369690000000
0.1565350000000
0.1419510000000
0.1128080000000
0.1028120000000
0.0941496000000
0.0682706000000
0.0311604000000
-0.0029104100000
-0.0284114000000
-0.0427747000000
-0.0508082000000
-0.0577311000000
-0.0609784000000
-0.0616270000000
-0.0697629000000
-0.0852190000000
-0.0946172000000
-0.0865276000000
-0.0683985000000
-0.0616681000000
-0.0702457000000
-0.0653092000000
-0.0372079000000
-0.0038100900000
0.0189442000000
0.0218284000000
0.0278406000000
0.0513609000000
0.0802039000000
0.1042030000000
0.1152520000000
0.0948047000000
0.0486430000000
0.0065452800000
-0.0165022000000
-0.0268938000000
-0.0207825000000
0.0056402800000
0.0372895000000
0.0477823000000
0.0224968000000
0.0106719000000
0.0375235000000
0.0763404000000
0.0876397000000
0.0511723000000
-0.0029627400000
-0.0258171000000
-0.0243827000000
-0.0353787000000
-0.0643422000000
-0.0939393000000
-0.1065320000000
-0.0791219000000
-0.0218780000000
0.0358001000000
0.0743737000000
0.0896047000000
0.0947274000000
0.1001930000000
0.0936763000000
0.0568337000000
0.0017060200000
-0.0242168000000
-0.0112850000000
0.0094000400000
0.0148191000000
0.0066454000000
0.0062418800000
0.0176213000000
0.0256735000000
0.0189163000000
-0.0037633800000
-0.0344474000000
-0.0632226000000
-0.0871872000000
-0.0858301000000
-0.0595563000000
-0.0311742000000
-0.0401268000000
-0.0866635000000
-0.1206850000000
-0.1062730000000
-0.0622568000000
-0.0304804000000
-0.0274122000000
-0.0332155000000
-0.0387472000000
-0.0498708000000
-0.0642519000000
-0.0732176000000
-0.0643359000000
-0.0432473000000
-0.0221589000000
-0.0126237000000
-0.0428843000000
-0.0949697000000
-0.0947738000000
-0.0397761000000
0.0081522700000
0.0094387500000
-0.0135091000000
0.0010781000000
0.0679807000000
0.1027310000000
0.0710096000000
0.0210445000000
0.0079538400000
0.0409469000000
0.0714826000000
0.0706313000000
0.0525246000000
0.0365911000000
0.0260160000000
0.0176652000000
0.0197379000000
0.0333892000000
0.0492600000000
0.0626551000000
0.0743941000000
0.0840195000000
0.0587807000000
0.0006671060000
-0.0238711000000
-0.0148991000000
-0.0373102000000
-0.0765123000000
-0.0850430000000
-0.0903066000000
-0.1046350000000
-0.1034120000000
-0.0838016000000
-0.0654117000000
-0.0700106000000
-0.0920157000000
-0.1061980000000
-0.0942443000000
-0.0652241000000
-0.0361962000000
0.0058640300000
0.0550264000000
0.0739517000000
0.0619811000000
0.0591331000000
0.0833976000000
0.1182550000000
0.1472630000000
0.1491390000000
0.1004640000000
0.0295290000000
0.0179045000000
0.0695948000000
0.0934872000000
0.0555984000000
0.0029264100000
-0.0149747000000
0.0057980200000
0.0373473000000
0.0601640000000
0.0500866000000
0.0055716100000
-0.0298253000000
-0.0303365000000
-0.0133306000000
-0.0046126500000
0.0033783200000
0.0020950200000
-0.0225840000000
-0.0590287000000
-0.0692617000000
-0.0464006000000
-0.0176875000000
0.0032884400000
0.0301368000000
0.0701663000000
0.1124210000000
0.1418230000000
0.1208310000000
0.0582037000000
0.0382870000000
0.0631282000000
0.0627526000000
0.0254807000000
0.0010151300000
0.0102530000000
0.0292264000000
0.0396987000000
0.0248395000000
-0.0136427000000
-0.0575844000000
-0.0969369000000
-0.1330540000000
-0.1673200000000
-0.1708200000000
-0.1237210000000
-0.0535437000000
-0.0116516000000
-0.0311705000000
-0.0620387000000
-0.0479368000000
-0.0033207000000
0.0314081000000
0.0166685000000
-0.0228667000000
-0.0226881000000
0.0186956000000
0.0611943000000
0.0575755000000
0.0119771000000
-0.0033345200000
0.0299995000000
0.0694705000000
0.0442869000000
-0.0300738000000
-0.0581754000000
-0.0283368000000
0.0004595310000
-0.0169719000000
-0.0625844000000
-0.0922536000000
-0.0766375000000
-0.0350518000000
-0.0208111000000
-0.0544521000000
-0.0792610000000
-0.0495733000000
0.0051868400000
0.0177335000000
-0.0161205000000
-0.0545589000000
-0.0775355000000
-0.0872652000000
-0.0938735000000
-0.1012540000000
-0.0978291000000
-0.0688565000000
-0.0236384000000
0.0058102200000
-0.0032544300000
-0.0277702000000
-0.0146292000000
0.0360283000000
0.0868336000000
0.0809827000000
0.0191631000000
-0.0319429000000
-0.0153890000000
0.0164292000000
0.0006503920000
-0.0422182000000
-0.0636632000000
-0.0249406000000
0.0478631000000
0.0741903000000
0.0366177000000
-0.0130780000000
-0.0355058000000
-0.0220909000000
0.0022012400000
0.0084998300000
-0.0322691000000
-0.1024750000000
-0.1470470000000
-0.1073930000000
-0.0107882000000
0.0508441000000
0.0260470000000
-0.0426324000000
-0.0927916000000
-0.0590038000000
0.0415989000000
0.1397760000000
0.1419520000000
0.0544439000000
-0.0284908000000
-0.0433712000000
-0.0107276000000
-0.0143324000000
-0.0216687000000
0.0124561000000
0.0354788000000
0.0176074000000
0.0131649000000
0.0590347000000
0.1265320000000
0.1420270000000
0.0845690000000
0.0366703000000
0.0605475000000
0.1247550000000
0.1733230000000
0.1518690000000
0.0746215000000
-0.0019419500000
-0.0375987000000
-0.0255450000000
-0.0321238000000
-0.0907296000000
-0.1666360000000
-0.1815370000000
-0.1323020000000
-0.0760355000000
-0.0439692000000
-0.0368738000000
-0.0313533000000
-0.0065320600000
0.0312892000000
0.0662385000000
0.0789546000000
0.0795353000000
0.0906961000000
0.1095220000000
0.0974573000000
0.0563633000000
0.0431503000000
0.0683551000000
0.1001430000000
0.1145750000000
0.0950662000000
0.0649320000000
0.0578775000000
0.0681067000000
0.0704538000000
0.0445125000000
0.0006761160000
-0.0416261000000
-0.0765482000000
-0.0923261000000
-0.0878399000000
-0.0780542000000
-0.0712925000000
-0.0782084000000
-0.1166910000000
-0.1547300000000
-0.1293250000000
-0.0530095000000
0.0152071000000
0.0008775820000
-0.0822436000000
-0.1342210000000
-0.1092680000000
-0.0494960000000
-0.0156131000000
-0.0232168000000
-0.0302145000000
-0.0039596400000
-0.0022793200000
-0.0485922000000
-0.0752345000000
-0.0554419000000
-0.0231462000000
-0.0119427000000
-0.0343823000000
-0.0723287000000
-0.0940304000000
-0.0705654000000
-0.0169461000000
0.0127726000000
-0.0136156000000
-0.0674553000000
-0.0697438000000
-0.0033907300000
0.0338966000000
0.0054046900000
-0.0182605000000
-0.0102700000000
-0.0048128100000
-0.0029131500000
0.0116705000000
0.0361959000000
0.0596668000000
0.0772791000000
0.0920390000000
0.1073150000000
0.1215970000000
0.1193290000000
0.0960602000000
0.0802993000000
0.0847264000000
0.0967064000000
0.1034050000000
0.0900637000000
0.0562914000000
0.0467789000000
0.0844666000000
0.1356840000000
0.1225830000000
0.0452017000000
-0.0223175000000
-0.0204158000000
0.0293078000000
0.0623547000000
0.0232818000000
-0.0332197000000
-0.0222734000000
0.0361451000000
0.0647391000000
0.0382139000000
-0.0032438400000
-0.0331609000000
-0.0400167000000
-0.0336443000000
-0.0268735000000
-0.0232469000000
-0.0193519000000
-0.0171794000000
-0.0243473000000
-0.0280204000000
-0.0042837100000
0.0386405000000
0.0817798000000
0.1168740000000
0.1375840000000
0.1361540000000
0.1233270000000
0.1124980000000
0.1165710000000
0.1311110000000
0.1428210000000
0.1038710000000
0.0268910000000
-0.0071830700000
0.0124362000000
0.0391163000000
0.0209022000000
-0.0244100000000
-0.0326845000000
-0.0007826150000
0.0346818000000
0.0425917000000
0.0193829000000
-0.0146293000000
-0.0424946000000
-0.0632653000000
-0.0877025000000
-0.1270700000000
-0.1757660000000
-0.2217870000000
-0.2533500000000
-0.2505760000000
-0.2208840000000
-0.1913340000000
-0.1703600000000
-0.1464800000000
-0.1052520000000
-0.0674325000000
-0.0620975000000
-0.0810775000000
-0.0997685000000
-0.1093410000000
-0.1143120000000
-0.1208420000000
-0.1283140000000
-0.1330890000000
-0.0975339000000
-0.0055942700000
0.0690864000000
0.0719276000000
0.0382174000000
0.0339362000000
0.0813605000000
0.1259890000000
0.1228950000000
0.0914500000000
0.0800478000000
0.1019830000000
0.1342820000000
0.1497850000000
0.1269690000000
0.0781913000000
0.0468356000000
0.0474831000000
0.0588750000000
0.0269324000000
-0.0223226000000
-0.0301007000000
-0.0245653000000
-0.0496854000000
-0.0702727000000
-0.0569474000000
-0.0296697000000
-0.0084617800000
0.0002140710000
-0.0005233970000
-0.0070993000000
-0.0215114000000
-0.0423253000000
-0.0634890000000
-0.0826679000000
-0.1006120000000
-0.1179070000000
-0.1340030000000
-0.1370130000000
-0.1198090000000
-0.0938005000000
-0.0697464000000
-0.0489692000000
-0.0275381000000
-0.0044021800000
0.0263963000000
0.0698647000000
0.1190010000000
0.1554800000000
0.1714400000000
0.1826810000000
0.1982850000000
0.2037800000000
0.1944220000000
0.1814190000000
0.1713880000000
0.1634760000000
0.1557520000000
0.1493130000000
0.1442900000000
0.1394450000000
0.1284620000000
0.1101630000000
0.0902088000000
0.0728004000000
0.0695293000000
0.0803647000000
0.0891221000000
0.0717048000000
0.0326753000000
0.0038837000000
-0.0049125700000
-0.0173717000000
-0.0617666000000
-0.1273260000000
-0.1702250000000
-0.1726700000000
-0.1627360000000
-0.1664820000000
-0.1764730000000
-0.1686530000000
-0.1450270000000
-0.1377950000000
-0.1556270000000
-0.1777880000000
-0.1942510000000
-0.2077000000000
-0.2198280000000
-0.2000570000000
-0.1442460000000
-0.0802471000000
-0.0133574000000
0.0382707000000
0.0586346000000
0.0780839000000
0.1151730000000
0.1589740000000
0.1957550000000
0.2042180000000
0.1629340000000
0.1115130000000
0.0933280000000
0.0971477000000
0.0851248000000
0.0507686000000
0.0205043000000
0.0148356000000
0.0156910000000
0.0028568300000
-0.0171111000000
-0.0237471000000
-0.0145679000000
-0.0120159000000
-0.0272149000000
-0.0503813000000
-0.0704347000000
-0.0869648000000
-0.1025740000000
-0.1185390000000
-0.1368480000000
-0.1556320000000
-0.1629270000000
-0.1498050000000
-0.1258240000000
-0.1090090000000
-0.1048790000000
-0.0928179000000
-0.0639957000000
-0.0327687000000
-0.0227782000000
-0.0236175000000
-0.0077868900000
0.0229024000000
0.0537587000000
0.0780307000000
0.0877495000000
0.0814513000000
0.0762970000000
0.0794452000000
0.0781618000000
0.0613904000000
0.0360216000000
0.0121364000000
-0.0071008400000
-0.0084734600000
0.0136308000000
0.0443585000000
0.0695222000000
0.0657365000000
0.0379396000000
0.0355696000000
0.0742962000000
0.1248030000000
0.1649190000000
0.1680900000000
0.1307500000000
0.0815387000000
0.0618985000000
0.0871519000000
0.1005890000000
0.0792312000000
0.0736723000000
0.0829356000000
0.0808408000000
0.0787847000000
0.0882215000000
0.1006110000000
0.0810563000000
0.0294981000000
-0.0004221880000
0.0140246000000
0.0450375000000
0.0565337000000
0.0400673000000
0.0277087000000
0.0360271000000
0.0512276000000
0.0606257000000
0.0496695000000
0.0167738000000
-0.0232004000000
-0.0586381000000
-0.0723313000000
-0.0784958000000
-0.1092270000000
-0.1594890000000
-0.1903600000000
-0.1611500000000
-0.0923889000000
-0.0490291000000
-0.0514585000000
-0.0654812000000
-0.0534152000000
-0.0257312000000
-0.0256769000000
-0.0479398000000
-0.0623423000000
-0.0653617000000
-0.0625777000000
-0.0468210000000
-0.0194243000000
0.0031283700000
0.0080558800000
0.0017312900000
-0.0043119100000
-0.0107003000000
-0.0215078000000
-0.0350564000000
-0.0475322000000
-0.0490721000000
-0.0249593000000
0.0156691000000
0.0453499000000
0.0593596000000
0.0697184000000
0.0750493000000
0.0520842000000
0.0099787500000
-0.0108543000000
-0.0154592000000
-0.0276270000000
-0.0479971000000
-0.0664208000000
-0.0660365000000
-0.0493706000000
-0.0313605000000
-0.0160335000000
0.0030018500000
0.0272850000000
0.0519015000000
0.0731178000000
0.0752873000000
0.0541720000000
0.0381860000000
0.0393427000000
0.0317991000000
0.0011308300000
-0.0267825000000
-0.0224995000000
0.0049275000000
0.0315522000000
0.0508364000000
0.0607004000000
0.0629669000000
0.0557258000000
0.0378833000000
0.0163641000000
-0.0006588440000
-0.0154478000000
-0.0382892000000
-0.0681311000000
-0.0927599000000
-0.0957620000000
-0.0817218000000
-0.0680886000000
-0.0600966000000
-0.0524463000000
-0.0391675000000
-0.0243340000000
-0.0227981000000
-0.0349916000000
-0.0487947000000
-0.0592920000000
-0.0680512000000
-0.0770051000000
-0.0854221000000
-0.0900631000000
-0.0881416000000
-0.0872100000000
-0.0991069000000
-0.1205310000000
-0.1288490000000
-0.1188530000000
-0.1042530000000
-0.0939367000000
-0.0923595000000
-0.0980544000000
-0.1051220000000
-0.1114840000000
-0.1158650000000
-0.1010390000000
-0.0601917000000
-0.0215818000000
-0.0019747300000
0.0083506000000
0.0209017000000
0.0349186000000
0.0424446000000
0.0402767000000
0.0239931000000
-0.0035935500000
-0.0315097000000
-0.0556006000000
-0.0572534000000
-0.0356589000000
-0.0085322800000
0.0182997000000
0.0590913000000
0.1141560000000
0.1660260000000
0.1885420000000
0.1939080000000
0.2065230000000
0.2243190000000
0.2200350000000
0.1644170000000
0.0836100000000
0.0316475000000
0.0128970000000
-0.0012055800000
-0.0227345000000
-0.0451598000000
-0.0513560000000
-0.0318955000000
0.0003481130000
0.0305812000000
0.0564364000000
0.0799488000000
0.0795139000000
0.0502806000000
0.0139254000000
-0.0169675000000
-0.0437290000000
-0.0704638000000
-0.0884695000000
-0.0798306000000
-0.0501201000000
-0.0194520000000
0.0042083000000
0.0171875000000
0.0234220000000
0.0357664000000
0.0577241000000
0.0780594000000
0.0730125000000
0.0449366000000
0.0267835000000
0.0273929000000
0.0249199000000
0.0093324900000
-0.0084807300000
-0.0047250500000
0.0249198000000
0.0606543000000
0.0914046000000
0.1183580000000
0.1446180000000
0.1527600000000
0.1425330000000
0.1379100000000
0.1442570000000
0.1384400000000
0.1142140000000
0.0861329000000
0.0673584000000
0.0627696000000
0.0645720000000
0.0490946000000
0.0103441000000
-0.0341468000000
-0.0624311000000
-0.0655251000000
-0.0631215000000
-0.0754157000000
-0.0983331000000
-0.1186740000000
-0.1335480000000
-0.1473840000000
-0.1624100000000
-0.1765510000000
-0.1808260000000
-0.1621810000000
-0.1283560000000
-0.0956550000000
-0.0761303000000
-0.0677859000000
-0.0562482000000
-0.0319438000000
-0.0000453046000
0.0295373000000
0.0455822000000
0.0434773000000
0.0330249000000
0.0210564000000
0.0016737700000
-0.0183316000000
-0.0153688000000
0.0078902300000
0.0200813000000
0.0113950000000
0.0024495500000
0.0081254700000
0.0226601000000
0.0350171000000
0.0412998000000
0.0406153000000
0.0366269000000
0.0358169000000
0.0412523000000
0.0489813000000
0.0514195000000
0.0393824000000
0.0171498000000
-0.0050582100000
-0.0240979000000
-0.0420888000000
-0.0599939000000
-0.0736357000000
-0.0788573000000
-0.0666295000000
-0.0320967000000
0.0122358000000
0.0512995000000
0.0680005000000
0.0659099000000
0.0599399000000
0.0463316000000
0.0227974000000
-0.0033654900000
-0.0272340000000
-0.0476483000000
-0.0499457000000
-0.0289193000000
-0.0003218320000
0.0251662000000
0.0470148000000
0.0671320000000
0.0600235000000
0.0229089000000
-0.0192244000000
-0.0502566000000
-0.0649234000000
-0.0709922000000
-0.0768306000000
-0.0778812000000
-0.0641260000000
-0.0395631000000
-0.0152409000000
0.0033029700000
0.0112135000000
0.0112988000000
0.0105375000000
0.0111471000000
0.0112691000000
-0.0007208060000
-0.0265728000000
-0.0545397000000
-0.0703588000000
-0.0627377000000
-0.0409390000000
-0.0184880000000
0.0039935200000
0.0293233000000
0.0554193000000
0.0788884000000
0.0803333000000
0.0598509000000
0.0443724000000
0.0478311000000
0.0572649000000
0.0573980000000
0.0530492000000
0.0577346000000
0.0715560000000
0.0855224000000
0.0918835000000
0.0903413000000
0.0895926000000
0.0943279000000
0.1015040000000
0.1071390000000
0.1114330000000
0.1145570000000
0.1146550000000
0.1101660000000
0.0983345000000
0.0809212000000
0.0634002000000
0.0461232000000
0.0262709000000
0.0048165700000
-0.0070555300000
-0.0055464200000
0.0006035940000
0.0050529700000
0.0074042800000
0.0085284700000
0.0086954100000
0.0086678900000
0.0083891800000
0.0054576900000
-0.0088394800000
-0.0330383000000
-0.0579190000000
-0.0795999000000
-0.0978215000000
-0.1113590000000
-0.1213630000000
-0.1303790000000
-0.1391530000000
-0.1424750000000
-0.1383930000000
-0.1315270000000
-0.1233040000000
-0.1114090000000
-0.0966330000000
-0.0818299000000
-0.0679005000000
-0.0493017000000
-0.0245707000000
0.0013444900000
0.0250899000000
0.0431357000000
0.0437636000000
0.0289696000000
0.0123977000000
-0.0008301270000
-0.0124331000000
-0.0247725000000
-0.0368882000000
-0.0435562000000
-0.0377136000000
-0.0235252000000
-0.0099136800000
0.0000092824200
0.0084809900000
0.0176334000000
0.0272017000000
0.0320000000000
0.0310143000000
0.0285024000000
0.0268719000000
0.0256408000000
0.0207397000000
0.0075118300000
-0.0112214000000
-0.0295313000000
-0.0451194000000
-0.0481501000000
-0.0355701000000
-0.0179720000000
-0.0081095200000
-0.0114909000000
-0.0154146000000
-0.0101833000000
-0.0002808750000
0.0081649900000
0.0144892000000
0.0191822000000
0.0205549000000
0.0189980000000
0.0167120000000
0.0110761000000
-0.0000791359000
-0.0137846000000
-0.0267455000000
-0.0384224000000
-0.0496465000000
-0.0607149000000
-0.0711862000000
-0.0778891000000
-0.0764332000000
-0.0707609000000
-0.0688106000000
-0.0710794000000
-0.0736868000000
-0.0750166000000
-0.0754446000000
-0.0681236000000
-0.0488335000000
-0.0243293000000
-0.0013197300000
0.0192870000000
0.0391092000000
0.0556960000000
0.0635797000000
0.0595141000000
0.0453767000000
0.0275791000000
0.0114577000000
0.0045631600000
0.0140638000000
0.0333078000000
0.0512644000000
0.0590950000000
0.0590860000000
0.0600140000000
0.0669255000000
0.0774597000000
0.0868324000000
0.0873619000000
0.0761382000000
0.0603377000000
0.0457378000000
0.0304601000000
0.0118639000000
-0.0077241100000
-0.0238409000000
-0.0334979000000
-0.0394907000000
-0.0437867000000
-0.0456784000000
-0.0452751000000
-0.0440110000000
-0.0354919000000
-0.0189069000000
-0.0012167300000
0.0093619400000
0.0124520000000
0.0151278000000
0.0217261000000
0.0307405000000
0.0389414000000
0.0452082000000
0.0464175000000
0.0492476000000
0.0580688000000
0.0645548000000
0.0610645000000
0.0509939000000
0.0431935000000
0.0427243000000
0.0465530000000
0.0422362000000
0.0282254000000
0.0127195000000
-0.0001134260000
-0.0108719000000
-0.0162994000000
-0.0162111000000
-0.0148598000000
-0.0145404000000
-0.0171240000000
-0.0235550000000
-0.0319052000000
-0.0399288000000
-0.0471432000000
-0.0537957000000
-0.0560397000000
-0.0514364000000
-0.0436313000000
-0.0363819000000
-0.0302201000000
-0.0242027000000
-0.0180028000000
-0.0122323000000
-0.0109544000000
-0.0172178000000
-0.0273936000000
-0.0367057000000
-0.0395309000000
-0.0358733000000
-0.0307852000000
-0.0267359000000
-0.0230493000000
-0.0188367000000
-0.0144497000000
-0.0103491000000
-0.0065645000000
-0.0038826500000
-0.0089472600000
-0.0212866000000
-0.0249155000000
-0.0147574000000
-0.0011306500000
0.0084251600000
0.0131772000000
0.0173100000000
0.0224357000000
0.0275304000000
0.0316715000000
0.0320588000000
0.0279490000000
0.0221322000000
0.0159815000000
0.0075195500000
-0.0033092600000
-0.0133868000000
-0.0153123000000
-0.0090018900000
0.0009000990000
0.0116582000000
0.0217342000000
0.0306543000000
0.0355194000000
0.0367686000000
0.0371668000000
0.0381698000000
0.0392598000000
0.0400553000000
0.0413352000000
0.0438000000000
0.0466988000000
0.0493339000000
0.0515723000000
0.0533287000000
0.0504360000000
0.0396112000000
0.0245697000000
0.0103172000000
-0.0021419400000
-0.0139147000000
-0.0253582000000
-0.0337556000000
-0.0386199000000
-0.0423939000000
-0.0463823000000
-0.0502118000000
-0.0509308000000
-0.0466397000000
-0.0397758000000
-0.0334200000000
-0.0287478000000
-0.0310162000000
-0.0398833000000
-0.0494804000000
-0.0571867000000
-0.0620804000000
-0.0590344000000
-0.0486718000000
-0.0375578000000
-0.0282415000000
-0.0201195000000
-0.0125941000000
-0.0065447400000
-0.0016585200000
0.0026927700000
0.0070144400000
0.0110671000000
0.0148465000000
0.0182665000000
0.0214503000000
0.0234711000000
0.0244547000000
0.0250437000000
0.0256953000000
0.0262567000000
0.0267975000000
0.0273961000000
0.0281813000000
0.0288325000000
0.0293601000000
0.0293159000000
0.0281441000000
0.0260304000000
0.0239911000000
0.0221401000000
0.0204366000000
0.0181132000000
0.0152603000000
0.0122907000000
0.0096888400000
0.0071573700000
0.0035428800000
-0.0033386500000
-0.0121738000000
-0.0206191000000
-0.0276684000000
-0.0341085000000
-0.0399936000000
-0.0446841000000
-0.0377931000000
-0.0263954000000
-0.0216530000000
-0.0210328000000
-0.0199965000000
-0.0173756000000
-0.0149341000000
-0.0136004000000
-0.0133486000000
-0.0132828000000
-0.0130838000000
-0.0123957000000
-0.0090223700000
-0.0030708400000
0.0028872500000
0.0079192000000
0.0122155000000
0.0163003000000
0.0200674000000
0.0234208000000
0.0262924000000
0.0287187000000
0.0297326000000
0.0286623000000
0.0264472000000
0.0243430000000
0.0225857000000
0.0209678000000
0.0196367000000
0.0187312000000
0.0179187000000
0.0170356000000
0.0160405000000
0.0144560000000
0.0118043000000
0.0087206200000
0.0059492900000
0.0037165100000
0.0021466300000
0.0011058100000
0.0002307170000
-0.0005636880000
-0.0011348200000
-0.0012228400000
-0.0010000300000
-0.0006654170000
-0.0003085530000
0.0000328764000
0.0003372290000
0.0007719590000
0.0014100600000
0.0020687600000
0.0025730500000
0.0029262900000
0.0031720900000
0.0033168700000
0.0032748800000
0.0022104000000
0.0002623670000
-0.0015678800000
-0.0029278400000
-0.0039525800000
-0.0048298300000
-0.0055349600000
-0.0060201200000
-0.0059170100000
-0.0049174800000
-0.0034915000000
-0.0022832600000
-0.0013971500000
-0.0007083280000
-0.0001301120000
0.0003027200000
0.0005690440000
0.0006404480000
0.0005665520000
0.0002175990000
-0.0003993840000
-0.0010319500000
-0.0012863000000
-0.0011963700000
-0.0012322700000
-0.0015097000000
-0.0018188200000
-0.0020483500000
-0.0022271300000
-0.0023890300000
-0.0025163800000
-0.0026150900000
-0.0027044800000
-0.0027960500000
-0.0028844300000
-0.0029642500000
-0.0030309400000
-0.0030860800000
-0.0031278200000
-0.0031568100000
-0.0031703700000
-0.0031695700000
-0.0031498300000
-0.0031135900000
-0.0030653400000
-0.0030179900000
-0.0029661100000
-0.0028944500000
-0.0027982900000
-0.0026830400000
-0.0025534400000
-0.0024121700000
-0.0022603600000
-0.0020998200000
-0.0019331600000
-0.0017632600000
-0.0015911000000
-0.0014174200000
-0.0012427600000
-0.0010681400000
-0.0008938890000
-0.0007202770000
-0.0005477980000
-0.0003771960000
-0.0002089680000
-0.0000434744000
0.0001191000000
0.0002786080000
0.0004349220000
