-0.0134330000000
-0.0070817000000
-0.0230134000000
-0.0301473000000
-0.0189634000000
-0.0122506000000
0.0302233000000
0.0215902000000
-0.0155415000000
-0.0097671700000
-0.0082985700000
0.0030266900000
-0.0051308400000
0.0002056510000
-0.0062854900000
0.0011251400000
0.0261317000000
-0.0085045800000
-0.0211395000000
0.0389888000000
0.0486936000000
-0.0711837000000
-0.0764141000000
-0.0259465000000
0.0013404700000
0.0403345000000
-0.0157450000000
-0.0102808000000
0.0108216000000
0.0036426700000
-0.0056803400000
-0.0197062000000
-0.0235507000000
0.0261788000000
0.0272906000000
0.0061400200000
0.0070709200000
0.0027677100000
0.0197272000000
-0.0115003000000
-0.0307725000000
-0.0234855000000
-0.0018993200000
0.0054618200000
0.0257149000000
0.0110815000000
0.0121956000000
-0.0067247700000
-0.0266645000000
0.0208958000000
0.0352379000000
0.0279838000000
-0.0256690000000
-0.0033409300000
0.0262882000000
0.0052388100000
-0.0118744000000
-0.0132112000000
0.0301613000000
0.0007519510000
-0.0390406000000
-0.0252459000000
0.0161076000000
0.0160370000000
0.0034275800000
0.0045005800000
0.0018314700000
0.0341981000000
-0.0436483000000
-0.0211569000000
0.0452836000000
0.0009027250000
0.0030760400000
-0.0331843000000
0.0458705000000
0.0682217000000
0.0391085000000
0.0552417000000
-0.0558202000000
-0.1585720000000
-0.0894980000000
0.1271670000000
0.1666580000000
-0.0522308000000
-0.0886023000000
0.1548380000000
0.1666820000000
0.0599661000000
0.0726700000000
-0.0025343300000
-0.0640706000000
-0.0550671000000
-0.0791782000000
0.0294479000000
0.0832953000000
0.0641054000000
0.0208653000000
-0.0626873000000
-0.0415259000000
-0.0189509000000
0.0020961600000
0.0102636000000
0.1072440000000
-0.0678892000000
-0.0671677000000
0.0569939000000
0.0067578200000
0.1019210000000
-0.1218630000000
-0.1592290000000
0.0012958100000
0.0798672000000
0.1492860000000
-0.0452994000000
-0.1744980000000
-0.1745960000000
-0.0195243000000
0.1522680000000
0.0234870000000
-0.0783059000000
-0.0622587000000
-0.0354207000000
0.1117300000000
0.1335360000000
-0.0687571000000
-0.1216720000000
-0.0623871000000
-0.0336068000000
0.1266800000000
0.0803559000000
-0.0814247000000
0.0370831000000
0.0746011000000
-0.0769494000000
-0.0527197000000
0.0669935000000
0.0056010300000
0.1523750000000
0.1013460000000
-0.0828507000000
0.0060921700000
-0.0260246000000
0.0404720000000
0.0180853000000
-0.0736106000000
-0.0629978000000
0.0614600000000
0.0996373000000
-0.0820104000000
-0.0931669000000
-0.0154938000000
0.0291428000000
0.0361968000000
0.0392084000000
-0.0057827800000
-0.0641207000000
0.0790582000000
0.0327831000000
-0.0265615000000
-0.0247859000000
-0.0192663000000
0.1014740000000
0.0170489000000
-0.0916964000000
-0.0839060000000
0.0211797000000
0.0518402000000
-0.0737128000000
-0.0676871000000
-0.0501924000000
-0.0695796000000
0.0595444000000
0.1353300000000
0.0773381000000
-0.0322982000000
-0.1861190000000
-0.1132610000000
0.0640345000000
0.0555513000000
0.0083313800000
-0.1336410000000
-0.0619275000000
0.1157720000000
0.0599757000000
-0.0306277000000
-0.0499225000000
-0.0155926000000
-0.0156640000000
0.0091936000000
0.0094651300000
-0.0605422000000
0.1334340000000
0.1185630000000
-0.0984570000000
-0.0636795000000
-0.0032622700000
-0.0602425000000
0.0293551000000
0.0591651000000
-0.0814468000000
-0.0259900000000
0.0948296000000
0.0499141000000
-0.0317104000000
0.0259566000000
0.0065930300000
-0.0341053000000
0.0021078800000
0.0055374700000
0.0181080000000
-0.0219775000000
0.0006119280000
-0.0280851000000
-0.0556013000000
0.0838634000000
0.0438294000000
-0.0805698000000
0.0088527900000
0.0578189000000
0.0069467300000
-0.0532470000000
-0.0700529000000
0.0012565400000
0.0903898000000
0.0383616000000
-0.0515099000000
0.0085749900000
-0.0392111000000
-0.0728497000000
0.0033651400000
-0.0080572300000
0.0175667000000
0.0634325000000
-0.0021826500000
-0.0872824000000
-0.0705940000000
0.0160447000000
0.0381561000000
0.0043393100000
-0.0256446000000
0.0351782000000
0.0111181000000
-0.0257730000000
0.0305949000000
0.0247395000000
0.0121775000000
-0.0179888000000
-0.0906435000000
0.0208495000000
0.0533824000000
0.0213513000000
0.0441575000000
0.0120144000000
0.0039798900000
-0.0198459000000
-0.0406246000000
-0.0391631000000
0.0494743000000
-0.0339985000000
-0.0613564000000
0.0437213000000
-0.0077420300000
-0.0425385000000
0.0425584000000
0.0495773000000
-0.0352541000000
-0.0606703000000
-0.0648816000000
-0.0582678000000
-0.0465890000000
-0.0470997000000
-0.0534897000000
-0.0741562000000
-0.0226572000000
0.0518342000000
0.0174839000000
-0.0188921000000
-0.1019460000000
-0.1365330000000
-0.1250930000000
0.0187529000000
0.0928885000000
0.0548487000000
0.0401728000000
-0.0660642000000
-0.1032350000000
-0.0165032000000
0.0013280800000
-0.0657262000000
-0.0955583000000
0.1215710000000
0.2683950000000
-0.0292838000000
-0.0411062000000
0.2143180000000
0.1540890000000
-0.1018660000000
-0.1170670000000
-0.0046639600000
-0.0314165000000
0.0637517000000
0.0936821000000
-0.0464795000000
-0.1493020000000
-0.1075320000000
0.1610930000000
0.3515410000000
0.3312540000000
0.2428060000000
0.0743610000000
-0.1397520000000
-0.0500473000000
0.1090440000000
0.1766300000000
0.1254130000000
-0.1836660000000
-0.2383140000000
0.0338969000000
0.0448913000000
0.0126842000000
-0.0618409000000
-0.0338186000000
0.2656570000000
0.0076720300000
-0.0852554000000
-0.0072290100000
-0.0103926000000
0.0756296000000
-0.2063540000000
-0.3081660000000
-0.0445904000000
0.0536759000000
0.0194219000000
0.2224930000000
0.1704020000000
-0.3209560000000
-0.3157550000000
-0.0449689000000
0.0330917000000
0.3411800000000
0.2408200000000
-0.1319780000000
-0.0672586000000
-0.0344843000000
-0.0732474000000
-0.0724074000000
0.1642750000000
0.1860590000000
-0.2006130000000
-0.3420220000000
-0.3173010000000
-0.0611459000000
0.2751040000000
0.2333420000000
-0.0300808000000
-0.1146450000000
-0.1122550000000
-0.2178190000000
-0.0532325000000
0.1453110000000
0.2101270000000
0.1044170000000
0.0183337000000
0.2207490000000
0.0451419000000
-0.0709045000000
0.1498790000000
0.1562650000000
-0.0792062000000
0.0612221000000
0.0192734000000
-0.2328810000000
-0.0255413000000
0.1490110000000
0.1740550000000
-0.0229318000000
-0.3111480000000
-0.2722760000000
-0.1871020000000
-0.0096618100000
0.2403140000000
-0.0293646000000
-0.1033460000000
-0.1015260000000
-0.1546150000000
0.1354620000000
0.1907420000000
-0.1503320000000
-0.0023996200000
0.1862110000000
-0.1025540000000
-0.0368559000000
-0.0529022000000
0.0815635000000
0.1586440000000
0.1999140000000
0.4047310000000
0.0926820000000
-0.2048020000000
-0.3148260000000
-0.1775210000000
0.1548060000000
0.1927750000000
-0.0343033000000
-0.1977610000000
-0.2010400000000
-0.0842717000000
0.1648110000000
0.1826300000000
0.0351816000000
0.1171780000000
0.0756348000000
-0.1721680000000
-0.2403700000000
-0.0718970000000
0.2105190000000
0.1743730000000
-0.1821100000000
-0.2178840000000
-0.0268539000000
0.1000000000000
0.0110954000000
-0.1425370000000
0.0234414000000
0.0882878000000
-0.0034354500000
-0.0358028000000
-0.0338470000000
0.0466756000000
0.0296071000000
-0.1544540000000
-0.2834700000000
-0.2053260000000
-0.0139931000000
0.1247050000000
0.1363720000000
-0.0757747000000
-0.1044530000000
0.2206600000000
0.2099020000000
0.0770515000000
0.0384831000000
-0.1973860000000
-0.2436960000000
-0.2446770000000
-0.2380040000000
-0.0686783000000
0.0541839000000
0.2835790000000
0.3406100000000
0.0699441000000
-0.0263241000000
0.3402690000000
0.5378310000000
0.3776650000000
0.3050080000000
0.2373270000000
0.0176206000000
-0.2292170000000
-0.2315380000000
-0.0287847000000
-0.1729690000000
-0.3047410000000
-0.0788259000000
0.1368670000000
0.0655334000000
-0.0277160000000
0.1796680000000
0.2437760000000
-0.0087902100000
-0.2231240000000
-0.2815860000000
-0.2842220000000
-0.1956530000000
0.0717500000000
0.2992100000000
0.2830480000000
0.1266960000000
-0.1249190000000
-0.2281870000000
-0.0904964000000
0.1157670000000
0.2028610000000
0.0071161500000
-0.0999074000000
0.0217821000000
0.1446060000000
0.1902440000000
0.0456415000000
-0.0672915000000
0.1089170000000
0.1016560000000
-0.1812670000000
-0.2170400000000
-0.0162206000000
0.2070310000000
0.2296770000000
-0.0321060000000
-0.1894920000000
-0.1063380000000
0.0769719000000
0.2019810000000
-0.0171076000000
-0.1780080000000
-0.0712404000000
0.0775174000000
0.2373150000000
0.2793700000000
0.1780090000000
-0.0307353000000
-0.0882638000000
0.1884320000000
0.2591760000000
-0.0146248000000
-0.2063470000000
-0.2926230000000
-0.2237730000000
0.0317242000000
0.2250850000000
0.2942090000000
0.1811690000000
-0.0418264000000
-0.0174231000000
0.2008650000000
-0.0015244200000
-0.2317560000000
0.0871650000000
0.2908910000000
0.0226084000000
-0.0760858000000
0.1568070000000
0.0820845000000
-0.2632380000000
-0.2295910000000
-0.0191217000000
0.0553925000000
-0.1359590000000
-0.3078290000000
-0.0722912000000
0.0980131000000
-0.0514939000000
-0.2615000000000
-0.3971480000000
-0.2033830000000
-0.0320258000000
-0.1989100000000
-0.1460550000000
-0.0650597000000
-0.2487360000000
-0.3170520000000
-0.1514470000000
-0.1454180000000
-0.1938210000000
-0.0049620300000
0.2043630000000
0.3869770000000
0.1775290000000
-0.4018170000000
-0.4799250000000
-0.2178450000000
0.0097432700000
0.2353250000000
0.3424870000000
0.2861400000000
0.1447880000000
-0.0062141800000
-0.1700330000000
-0.2284650000000
-0.1890170000000
-0.1938090000000
0.0187438000000
0.2761920000000
0.2230250000000
-0.0338698000000
-0.2481010000000
-0.3161440000000
-0.2194570000000
-0.1710030000000
-0.2435080000000
-0.1943220000000
-0.0552804000000
0.0706847000000
0.2047630000000
0.3117720000000
0.0662435000000
-0.1847790000000
-0.0579581000000
0.1302960000000
0.2396430000000
0.1602630000000
0.0601791000000
-0.0186143000000
-0.1003470000000
-0.1768090000000
-0.1420750000000
0.1058920000000
0.2480190000000
0.1780150000000
-0.0462802000000
-0.1383780000000
-0.0851438000000
-0.0877253000000
0.0979853000000
0.1272980000000
-0.1012510000000
-0.0515019000000
0.0625988000000
0.1144110000000
0.1946990000000
0.2117000000000
0.1924020000000
0.1644830000000
-0.0298214000000
-0.1529490000000
-0.0088108700000
0.1548450000000
0.0372596000000
-0.1972520000000
-0.1132860000000
0.0007808940000
0.0075988900000
0.0809848000000
0.0908858000000
0.0657636000000
0.0379503000000
-0.1560030000000
-0.1976360000000
-0.1972340000000
-0.2334380000000
-0.0172465000000
0.0482973000000
0.0553079000000
0.0980326000000
-0.0865395000000
-0.1905500000000
-0.0212724000000
0.1908600000000
0.2806500000000
0.1424890000000
-0.0815070000000
-0.0135589000000
0.0406114000000
-0.1058490000000
-0.1689400000000
-0.0924009000000
-0.0278666000000
0.1625490000000
0.2036860000000
-0.0955760000000
-0.1934850000000
-0.1014340000000
-0.0407189000000
0.1417120000000
0.2887960000000
0.1719020000000
0.2437230000000
0.2378770000000
0.0119031000000
0.0484419000000
0.0923726000000
-0.0062426600000
-0.0213105000000
0.1101440000000
0.2375880000000
0.2346670000000
0.0166539000000
-0.1318090000000
-0.0262143000000
0.0932269000000
0.1279060000000
0.0318876000000
-0.0487089000000
-0.0175448000000
0.0353680000000
0.0344819000000
0.0467443000000
-0.0082783600000
-0.1176370000000
-0.1950730000000
-0.2088680000000
-0.1140890000000
-0.0037007900000
0.0615212000000
-0.0022587500000
0.0397522000000
0.0749902000000
-0.0059202300000
-0.0712037000000
-0.1247850000000
-0.1005090000000
-0.1081540000000
-0.0643923000000
0.0146922000000
0.0582879000000
0.1421720000000
0.1435380000000
-0.0372340000000
-0.1066030000000
-0.0575187000000
-0.1279680000000
-0.0314821000000
0.1070390000000
-0.0183424000000
-0.1068270000000
-0.0447879000000
0.0153822000000
0.0851464000000
0.1307230000000
0.0737275000000
-0.0276189000000
-0.0797649000000
0.0007149260000
0.1300390000000
0.1286890000000
0.0817454000000
0.1177650000000
0.0508179000000
-0.0770313000000
-0.1131070000000
-0.0264315000000
0.0871828000000
0.0979740000000
0.0616659000000
0.0724549000000
0.0788679000000
0.0710007000000
0.0054229900000
-0.0387208000000
-0.0076675000000
-0.0020826000000
0.0161385000000
0.0230810000000
0.0384850000000
0.0733224000000
-0.0239925000000
-0.1331430000000
-0.1106140000000
0.0330380000000
0.0672345000000
-0.0194420000000
0.0213232000000
0.0190968000000
-0.0143347000000
-0.0171735000000
-0.0158662000000
0.0428455000000
-0.0421060000000
-0.1125740000000
-0.0387954000000
0.0147266000000
0.0050042500000
0.0042480100000
0.0102387000000
-0.1077580000000
-0.1455620000000
-0.0035984900000
0.0979921000000
-0.0121273000000
-0.0609576000000
-0.0125759000000
-0.0639047000000
-0.0888593000000
-0.0948068000000
0.0039573600000
0.0965484000000
-0.0198431000000
-0.0987070000000
-0.0412741000000
0.0587067000000
0.0772660000000
-0.0625666000000
-0.1435950000000
-0.1319040000000
-0.1383470000000
-0.0492419000000
0.0132939000000
-0.0130225000000
0.0496008000000
0.0639542000000
-0.0371033000000
-0.0366680000000
0.0250574000000
0.0247923000000
-0.0243957000000
-0.0081500700000
0.0069122500000
-0.0445256000000
0.0107838000000
0.0738371000000
0.1069850000000
0.0982607000000
0.0348276000000
0.0282984000000
-0.0195961000000
-0.0462961000000
0.0164592000000
0.0814547000000
0.0777765000000
0.0191593000000
0.0040623000000
0.0162835000000
-0.0056813600000
-0.0180051000000
0.0155654000000
0.0698723000000
0.0720069000000
0.0150821000000
0.0247383000000
0.0376231000000
0.0311889000000
0.0079114800000
-0.0318042000000
0.0474222000000
0.0666040000000
-0.0602514000000
-0.0599521000000
0.0375545000000
-0.0247368000000
-0.0527537000000
-0.0503938000000
-0.0371574000000
0.0911216000000
0.0860178000000
-0.0246968000000
-0.0551262000000
-0.0448434000000
-0.0310469000000
-0.0097475900000
-0.0253783000000
0.0560111000000
0.0563123000000
-0.0368017000000
-0.0668272000000
-0.1241980000000
-0.0566015000000
0.0672142000000
0.0923765000000
0.0355721000000
0.0004548780000
-0.0679039000000
-0.0592113000000
0.0158989000000
-0.0064197100000
0.0104299000000
0.0233550000000
-0.0261502000000
-0.0487676000000
-0.0553635000000
-0.0290737000000
0.0029757700000
-0.0065080700000
0.0310587000000
0.0419325000000
0.0052516900000
-0.0292553000000
0.0223523000000
0.0478280000000
-0.0284689000000
-0.0066993800000
0.0224486000000
-0.0579085000000
-0.0392232000000
-0.0170470000000
0.0119563000000
0.0651246000000
-0.0035367600000
-0.0390531000000
-0.0350883000000
0.0064953100000
-0.0119657000000
-0.0296311000000
0.0513067000000
0.0137032000000
-0.0034178100000
0.0008002260000
-0.0557519000000
0.0156579000000
0.0760937000000
0.0986664000000
0.0800230000000
-0.0020302300000
-0.0266882000000
-0.0056228000000
-0.0388821000000
0.0005914510000
0.1190420000000
0.0646364000000
0.0100153000000
-0.0268286000000
-0.0498380000000
-0.0662007000000
-0.1005920000000
0.0100642000000
0.0399147000000
0.0088287000000
-0.0090903300000
-0.1144510000000
-0.1049120000000
-0.0021183900000
0.0529304000000
0.0647351000000
0.0083356900000
-0.0624396000000
-0.0765553000000
0.0012404800000
0.0099430600000
0.0089801400000
0.0130423000000
-0.0308567000000
0.0145050000000
-0.0013916300000
-0.0242207000000
-0.0090658500000
-0.0198858000000
-0.0532626000000
-0.0059163500000
0.0057584200000
-0.0157582000000
0.0287274000000
-0.0304762000000
-0.0456693000000
-0.0024965700000
-0.0260701000000
-0.0237410000000
-0.0237689000000
0.0170636000000
0.0374965000000
0.0144885000000
-0.0071431300000
-0.0140033000000
0.0095009000000
-0.0009396010000
0.0124305000000
-0.0113211000000
-0.0058506600000
-0.0109949000000
-0.0539210000000
-0.0079747700000
0.0145587000000
0.0193241000000
0.0232310000000
-0.0155520000000
0.0017106500000
0.0454633000000
0.0226244000000
-0.0166792000000
-0.0077356800000
-0.0114777000000
0.0184891000000
0.0707104000000
0.0514234000000
-0.0005702180000
0.0598518000000
0.0385318000000
-0.0123682000000
0.0491562000000
0.0076793500000
0.0662167000000
0.0631171000000
-0.0223034000000
0.0320169000000
-0.0062385800000
-0.0036409700000
0.0567294000000
-0.0011492200000
-0.0282536000000
-0.0502387000000
-0.0825543000000
-0.0158406000000
-0.0368439000000
-0.0216790000000
0.0312220000000
-0.0892142000000
-0.1154620000000
-0.0449679000000
-0.0085244000000
0.0292091000000
0.0035985500000
-0.0103831000000
0.0041554800000
-0.0749833000000
-0.0424390000000
0.0268250000000
-0.0222189000000
-0.0406752000000
-0.0092711500000
0.0148727000000
0.0070530300000
0.0037425500000
-0.0559333000000
0.0041856100000
0.0099301500000
0.0118903000000
0.0663633000000
-0.0094347000000
0.0119305000000
-0.0011075600000
0.0000444943000
0.0333986000000
0.0301271000000
0.0319206000000
-0.0430998000000
-0.0077220600000
0.0230677000000
0.0192878000000
0.0489146000000
-0.0002393220000
-0.0404723000000
-0.0295869000000
0.0419883000000
0.0738169000000
0.0066312900000
-0.0479913000000
-0.0440238000000
0.0294917000000
0.0307791000000
-0.0130887000000
-0.0007002170000
-0.0036981100000
-0.0184035000000
-0.0287052000000
-0.0153937000000
-0.0097420500000
-0.0206342000000
0.0034504700000
0.0183993000000
-0.0079538600000
0.0648453000000
0.0871879000000
0.0097134600000
-0.0135475000000
0.0214175000000
0.0299656000000
0.0245372000000
0.0366754000000
0.0343094000000
0.0150006000000
-0.0269101000000
0.0131007000000
0.0215170000000
-0.0071280000000
0.0176654000000
0.0186337000000
0.0454499000000
0.0444311000000
0.0204978000000
-0.0281045000000
-0.0458226000000
0.0193811000000
0.0384615000000
-0.0232899000000
-0.0386057000000
-0.0185360000000
-0.0215930000000
-0.0291871000000
-0.0460698000000
-0.0182010000000
0.0175170000000
0.0223578000000
0.0033064700000
-0.0509909000000
-0.0469392000000
0.0164125000000
0.0015454700000
-0.0311977000000
-0.0219308000000
0.0176536000000
-0.0010036300000
-0.0081424100000
0.0176211000000
-0.0069643500000
-0.0031284100000
0.0057216500000
0.0246793000000
0.0103603000000
-0.0050216300000
-0.0039364000000
-0.0137332000000
0.0546321000000
0.0740584000000
0.0120781000000
-0.0313722000000
-0.0359495000000
0.0151365000000
0.0045310800000
0.0068982700000
0.0263616000000
-0.0325876000000
0.0247172000000
0.0177358000000
-0.0454317000000
-0.0262224000000
-0.0020758600000
0.0207840000000
-0.0158704000000
-0.0142872000000
-0.0030607900000
0.0266071000000
0.0341034000000
-0.0079790100000
0.0305062000000
0.0052359500000
-0.0420821000000
-0.0063386700000
-0.0290517000000
0.0036570100000
0.0345841000000
0.0155806000000
0.0194711000000
-0.0070512300000
-0.0077351400000
0.0208898000000
-0.0072375100000
-0.0453998000000
0.0080823300000
0.0029627100000
-0.0374942000000
-0.0318637000000
-0.0283989000000
-0.0048779000000
-0.0043854500000
-0.0312462000000
-0.0336675000000
0.0220319000000
0.0310566000000
-0.0124354000000
-0.0357643000000
-0.0204158000000
0.0109650000000
0.0087739100000
-0.0308175000000
-0.0074765400000
0.0224508000000
0.0452501000000
0.0184579000000
0.0044311900000
0.0297091000000
0.0441234000000
0.0442944000000
0.0306065000000
0.0151053000000
0.0073782600000
0.0348976000000
0.0009283160000
-0.0051967600000
0.0282804000000
0.0408028000000
0.0386962000000
0.0242956000000
0.0212466000000
-0.0084256200000
-0.0336817000000
0.0255515000000
0.0559251000000
0.0177615000000
0.0177384000000
0.0130325000000
0.0073959300000
0.0262029000000
0.0296516000000
-0.0391592000000
-0.0401724000000
0.0362215000000
0.0366904000000
-0.0291063000000
-0.0301039000000
0.0052559300000
-0.0057114100000
-0.0191840000000
-0.0260492000000
0.0247708000000
0.0383771000000
-0.0353610000000
-0.0306449000000
0.0060400700000
0.0386099000000
0.0235352000000
-0.0801030000000
-0.0498427000000
0.0305822000000
0.0091494300000
-0.0392090000000
-0.0141777000000
-0.0036946300000
-0.0309695000000
-0.0301076000000
0.0039723400000
0.0172335000000
0.0231843000000
0.0429421000000
0.0116878000000
-0.0171460000000
0.0011845200000
0.0419979000000
-0.0116702000000
-0.0567957000000
-0.0055834300000
0.0312121000000
0.0425427000000
-0.0081405800000
-0.0275067000000
-0.0017183300000
-0.0063386200000
0.0234603000000
0.0217188000000
-0.0513011000000
-0.0388506000000
0.0407176000000
0.0322961000000
-0.0108932000000
-0.0001448090000
0.0072861100000
0.0152967000000
0.0348434000000
0.0039693200000
-0.0355328000000
-0.0331446000000
-0.0211610000000
-0.0108730000000
0.0249393000000
0.0026160600000
-0.0268332000000
-0.0281263000000
-0.0694882000000
-0.0720481000000
-0.0047429800000
0.0025234600000
0.0337136000000
0.0385157000000
-0.0431009000000
-0.0935771000000
-0.0497354000000
0.0924888000000
0.0606103000000
-0.0523966000000
0.0001837810000
0.0260417000000
-0.0134400000000
-0.0999320000000
-0.0565902000000
0.0720271000000
0.0731080000000
0.0355135000000
-0.0171223000000
-0.0310406000000
0.0144171000000
0.0481155000000
0.0681320000000
0.0416025000000
-0.0279387000000
-0.0017639500000
-0.0059010300000
-0.0427147000000
0.0150098000000
0.0308281000000
0.0104833000000
-0.0105998000000
-0.0002919570000
-0.0327206000000
-0.0494756000000
0.0015270900000
0.0035373700000
-0.0070305600000
-0.0128874000000
-0.0103571000000
-0.0192744000000
-0.0092601600000
0.0224182000000
0.0071266000000
-0.0077384900000
0.0195576000000
0.0620242000000
-0.0258785000000
-0.0752854000000
-0.0561036000000
-0.0276765000000
0.0212555000000
0.0240338000000
0.0306303000000
-0.0161643000000
-0.0703038000000
-0.0638126000000
-0.0295095000000
-0.0151667000000
-0.0137925000000
0.0473850000000
0.0979471000000
0.0052584600000
-0.0694176000000
-0.0494431000000
0.0073798800000
0.0350242000000
0.0493703000000
0.0342888000000
-0.0316019000000
-0.0112115000000
0.0374708000000
-0.0106405000000
-0.0398120000000
-0.0047593200000
0.0479222000000
0.0288299000000
-0.0111924000000
0.0430392000000
0.0801696000000
0.0372264000000
-0.0239188000000
-0.0673163000000
-0.0348624000000
0.0606881000000
0.0767805000000
0.0665897000000
0.0450575000000
-0.0585278000000
-0.1619720000000
-0.0862099000000
0.0400981000000
0.0247634000000
0.0232058000000
-0.0081329300000
-0.0060273600000
-0.0197079000000
-0.0929995000000
-0.0820428000000
-0.0577111000000
-0.0082126400000
0.0280648000000
0.0164736000000
-0.0308728000000
-0.0834249000000
-0.0604456000000
0.0303590000000
0.0419113000000
-0.0095274300000
0.0015648400000
0.0775943000000
0.0766110000000
-0.0167944000000
-0.0168463000000
0.0585457000000
0.0665733000000
-0.0245452000000
-0.0364403000000
0.0667194000000
0.0691575000000
-0.0188336000000
-0.0036269100000
0.0396235000000
-0.0120396000000
-0.0564619000000
-0.0493848000000
0.0219849000000
0.0490288000000
-0.0146126000000
-0.0082168900000
-0.0068630100000
-0.0195301000000
0.0189693000000
0.0187352000000
0.0023935900000
-0.0240887000000
0.0089638100000
0.0138595000000
-0.0230650000000
-0.0289106000000
-0.0160995000000
0.0175428000000
-0.0434828000000
-0.0165247000000
0.0505936000000
0.0229658000000
-0.0052137300000
-0.0666838000000
-0.0471121000000
0.0448890000000
0.0373151000000
-0.0006493380000
0.0114565000000
0.0111434000000
0.0026493200000
0.0218755000000
-0.0015900900000
-0.0158455000000
0.0352471000000
-0.0169026000000
-0.0015144400000
0.0117682000000
-0.0375694000000
-0.0302199000000
-0.0256671000000
-0.0357997000000
0.0334804000000
0.0921243000000
0.0841307000000
0.0805227000000
0.0234283000000
-0.0061940200000
-0.0286535000000
-0.0365536000000
-0.0083825700000
0.0007122290000
-0.0080529400000
-0.0190346000000
-0.0410708000000
-0.0352005000000
0.0173722000000
0.0290959000000
0.0093400100000
-0.0233021000000
-0.0025166400000
-0.0462714000000
-0.0694762000000
-0.0463166000000
-0.0182519000000
0.0409914000000
0.0412113000000
0.0357025000000
-0.0147676000000
-0.0446453000000
0.0011505800000
0.0302722000000
0.0261083000000
-0.0008863750000
0.0054307400000
0.0296845000000
-0.0172279000000
-0.0524171000000
-0.0016613500000
0.0051269100000
0.0115914000000
0.0140797000000
-0.0173007000000
0.0090471900000
-0.0083030200000
0.0051806100000
0.0567989000000
0.0118884000000
-0.0025081900000
0.0236946000000
0.0103834000000
0.0298118000000
0.0243637000000
0.0096964100000
0.0124169000000
-0.0128779000000
-0.0571207000000
-0.0161688000000
0.0495878000000
-0.0199495000000
-0.0495632000000
-0.0232938000000
-0.0408534000000
-0.0219874000000
0.0058310800000
0.0021349000000
-0.0110952000000
-0.0537540000000
-0.0380498000000
0.0284982000000
0.0618323000000
0.0090289500000
0.0061350100000
0.0352961000000
-0.0285247000000
-0.0486381000000
-0.0298221000000
0.0128114000000
0.0926827000000
0.0623974000000
-0.0212187000000
-0.0031081600000
0.0520191000000
0.0428590000000
-0.0353831000000
-0.0425065000000
0.0097823500000
0.0184463000000
0.0064467400000
-0.0303846000000
-0.0366684000000
-0.0389481000000
-0.0548118000000
-0.0513299000000
0.0034227700000
0.0154927000000
0.0360363000000
0.0457719000000
-0.0406985000000
-0.0493850000000
0.0078113600000
0.0695251000000
0.0602688000000
-0.0682715000000
-0.0829456000000
0.0436608000000
0.1069000000000
0.0784154000000
0.0291995000000
0.0421355000000
0.0314977000000
-0.0560682000000
-0.0026158800000
0.0844291000000
-0.0101278000000
0.0126881000000
0.0196264000000
-0.0409898000000
0.0047955800000
0.0276121000000
0.0148273000000
-0.0072484800000
-0.0057967200000
-0.0314752000000
-0.0162460000000
-0.0344875000000
-0.0377682000000
-0.0156018000000
-0.0478872000000
-0.0539801000000
-0.0521653000000
-0.0441126000000
-0.0012951400000
0.0272809000000
-0.0127866000000
0.0232499000000
0.0261787000000
-0.0377964000000
-0.0037135400000
0.0678049000000
0.0645259000000
0.0168022000000
-0.0136597000000
0.0128117000000
0.0260314000000
-0.0111620000000
0.0555304000000
0.0549941000000
0.0136478000000
0.0367240000000
0.0260482000000
-0.0058373700000
-0.0311758000000
-0.0143710000000
-0.0075731200000
0.0370631000000
0.0090916600000
-0.0322260000000
0.0204955000000
-0.0183658000000
-0.0368629000000
-0.0162579000000
-0.0220531000000
0.0060778200000
0.0275656000000
0.0075103300000
-0.0217565000000
0.0098357700000
0.0322707000000
0.0208232000000
-0.0170533000000
-0.0273844000000
-0.0093848900000
-0.0066360200000
0.0106199000000
0.0313902000000
0.0146427000000
-0.0298863000000
-0.0419240000000
-0.0776992000000
-0.0956995000000
-0.0484807000000
0.0026059200000
0.0121148000000
-0.0218328000000
0.0061014100000
0.0576400000000
0.0029780800000
-0.0024000800000
0.0741528000000
0.0475299000000
0.0003072870000
0.0015533400000
0.0175240000000
0.0451312000000
0.0265661000000
0.0032315700000
0.0190567000000
0.0096217800000
-0.0200230000000
-0.0212167000000
-0.0185156000000
0.0288161000000
0.0177970000000
-0.0232501000000
-0.0416540000000
-0.0128091000000
0.0379218000000
-0.0063599900000
0.0189179000000
-0.0072924600000
-0.0950748000000
-0.1223750000000
-0.0509426000000
0.0477846000000
-0.0219369000000
-0.0386164000000
-0.0217432000000
-0.0246582000000
0.0018110500000
-0.0141097000000
0.0267998000000
0.0519060000000
0.0164367000000
-0.0289270000000
-0.0044989200000
0.1080790000000
0.1157840000000
0.0352838000000
0.0335791000000
0.0435116000000
0.0397339000000
0.0188994000000
-0.0039781100000
0.0163021000000
-0.0252276000000
-0.0139171000000
0.0512855000000
0.0226059000000
-0.0221491000000
-0.0454918000000
-0.0213452000000
-0.0251753000000
-0.0276758000000
-0.0294331000000
-0.0283636000000
-0.0051287500000
-0.0491119000000
-0.0523102000000
-0.0728748000000
-0.0672176000000
0.0228277000000
0.0440808000000
-0.0219288000000
-0.0346744000000
-0.0088634200000
-0.0300031000000
-0.0359029000000
0.0307996000000
0.0469355000000
-0.0008492120000
-0.0205274000000
-0.0768950000000
-0.0696767000000
-0.0360764000000
-0.0189390000000
0.0160926000000
0.0080082700000
-0.0084196900000
0.0071682500000
0.0468558000000
0.0450265000000
0.0366076000000
0.0204215000000
0.0336385000000
0.0460992000000
0.0604884000000
0.0611725000000
-0.0355876000000
-0.0494904000000
0.0056716500000
0.0229332000000
0.0585838000000
0.0206446000000
-0.0822024000000
-0.0974764000000
-0.0763684000000
-0.0593888000000
0.0067206600000
0.0100119000000
-0.0055661900000
0.0249924000000
0.0011159200000
-0.0453844000000
-0.0033162500000
0.0638087000000
0.0313286000000
0.0027264700000
-0.0047672600000
0.0177056000000
0.0112373000000
-0.0373073000000
-0.0338491000000
0.0144887000000
0.0367284000000
0.0431840000000
0.0594747000000
0.1189870000000
0.1426670000000
0.0695407000000
-0.0073389800000
-0.0474562000000
-0.0588595000000
-0.0693452000000
-0.0844456000000
-0.0743802000000
-0.0081981600000
0.0168318000000
0.0117405000000
-0.0227863000000
-0.0684634000000
0.0188210000000
0.0727845000000
0.0098635500000
0.0449714000000
0.0376748000000
0.0037142800000
0.0325986000000
0.0548804000000
0.0743605000000
0.0409916000000
0.0214299000000
-0.0112677000000
-0.0572023000000
-0.0411076000000
-0.0122732000000
-0.0417153000000
-0.0419403000000
-0.0237034000000
-0.0184603000000
0.0085734200000
0.0292162000000
0.0680843000000
0.0381454000000
-0.0393492000000
0.0062477200000
0.0249949000000
-0.0102260000000
-0.0236917000000
0.0059765100000
0.0055953700000
0.0193815000000
0.0372951000000
-0.0649741000000
-0.0661528000000
0.0040601100000
0.0035322800000
0.0153026000000
0.0125870000000
-0.0437578000000
-0.0741447000000
-0.0660152000000
-0.0307323000000
0.0040895900000
0.0338822000000
0.0288455000000
-0.0220550000000
-0.0050019400000
0.0026564500000
-0.0367866000000
0.0238132000000
0.0250172000000
-0.0064340600000
0.0391668000000
-0.0027616100000
-0.0234362000000
0.0256164000000
0.0235917000000
-0.0198507000000
-0.0240509000000
-0.0211418000000
-0.0081337100000
0.0037750000000
-0.0270694000000
0.0054712200000
-0.0021036300000
-0.0393254000000
-0.0022665900000
0.0333756000000
0.0355947000000
-0.0037409700000
0.0011136100000
0.0683670000000
0.0869035000000
0.0291685000000
-0.0263431000000
0.0051862000000
0.0196647000000
0.0145754000000
0.0411998000000
0.0289451000000
-0.0093182600000
-0.0254108000000
0.0425869000000
0.0424186000000
-0.0177156000000
0.0099658800000
0.0157533000000
0.0204984000000
-0.0437795000000
-0.0512785000000
-0.0127363000000
-0.0047245500000
0.0259916000000
-0.0013563800000
0.0005569510000
-0.0181662000000
-0.0002909900000
0.0050214600000
-0.0278899000000
0.0103687000000
-0.0177065000000
-0.0250607000000
0.0490466000000
0.0169470000000
-0.0524443000000
-0.0537377000000
0.0078245100000
0.0137309000000
-0.0305336000000
-0.0063484200000
0.0299733000000
0.0282834000000
-0.0305640000000
-0.0271371000000
0.0349407000000
0.0098375900000
-0.0168138000000
0.0132621000000
0.0448051000000
-0.0263859000000
-0.0798207000000
-0.0135630000000
0.0049597200000
-0.0213143000000
-0.0461119000000
-0.0427973000000
-0.0389273000000
-0.0423655000000
-0.0426253000000
-0.0082402300000
0.0502540000000
0.0215433000000
0.0213037000000
-0.0021608200000
-0.0058990400000
0.0311351000000
-0.0015622700000
0.0155972000000
0.0157081000000
0.0003272570000
0.0104122000000
0.0115746000000
0.0487874000000
0.0310315000000
-0.0281863000000
-0.0302103000000
-0.0307935000000
-0.0190409000000
0.0313702000000
0.0182915000000
-0.0301638000000
-0.0120331000000
-0.0009519720000
-0.0036944200000
0.0044422000000
-0.0345910000000
-0.0614661000000
-0.0052500300000
0.0166297000000
-0.0037452600000
0.0218638000000
0.0167770000000
-0.0295061000000
0.0032642600000
0.0668473000000
0.0225144000000
-0.0137709000000
-0.0522876000000
-0.0627487000000
-0.0469157000000
-0.0093401900000
0.0387620000000
0.0308360000000
0.0391630000000
0.0248716000000
0.0090840900000
-0.0028033900000
0.0343075000000
0.0499054000000
0.0107541000000
-0.0132522000000
-0.0003116990000
0.0107229000000
0.0729074000000
0.0857922000000
0.0424626000000
0.0057937300000
-0.0224655000000
0.0058765300000
0.0596214000000
0.0714003000000
0.0243920000000
-0.0052594200000
0.0121535000000
0.0202032000000
-0.0252997000000
-0.0008531350000
0.0020762000000
-0.0175409000000
0.0025909800000
0.0064601500000
0.0033827900000
-0.0177810000000
0.0090113000000
-0.0295866000000
-0.0749711000000
-0.0088548200000
-0.0149823000000
-0.0442980000000
-0.0394515000000
-0.0384909000000
-0.0301814000000
-0.0197841000000
0.0075034600000
0.0173408000000
0.0098421900000
-0.0251663000000
-0.0029180200000
0.0411936000000
0.0258252000000
-0.0320481000000
-0.0543009000000
-0.0014448500000
0.0095714700000
0.0081076300000
0.0279257000000
0.0063242800000
-0.0134899000000
-0.0307493000000
-0.0302918000000
0.0034146800000
-0.0332663000000
-0.0557741000000
0.0204857000000
0.0392765000000
-0.0181225000000
-0.0335231000000
0.0121853000000
0.0190259000000
-0.0353401000000
-0.0497642000000
0.0060587900000
0.0046434200000
-0.0288956000000
-0.0143014000000
0.0036311300000
0.0006541380000
-0.0003609100000
0.0904327000000
0.0853325000000
-0.0149928000000
-0.0616951000000
-0.0378519000000
0.0515321000000
-0.0007187540000
-0.0291103000000
0.0299455000000
-0.0023628500000
-0.0306326000000
-0.0173898000000
-0.0287311000000
-0.0128909000000
0.0499897000000
0.0145708000000
-0.0470434000000
-0.0228778000000
-0.0138828000000
0.0323771000000
0.0305930000000
-0.0448789000000
0.0093162800000
0.0329118000000
-0.0201361000000
-0.0151510000000
-0.0197488000000
0.0160390000000
0.0291477000000
-0.0505069000000
-0.0425642000000
0.0268814000000
0.0403653000000
0.0273817000000
0.0008314300000
0.0181337000000
0.0423075000000
0.0084532000000
0.0089407800000
0.0221060000000
0.0013150000000
0.0281041000000
0.0195819000000
-0.0027393200000
0.0282602000000
0.0326255000000
0.0078509700000
-0.0231975000000
0.0058798900000
0.0541863000000
0.0334979000000
-0.0342988000000
-0.0195595000000
0.0313334000000
0.0074187200000
-0.0132294000000
0.0263824000000
0.0302912000000
-0.0040124400000
0.0022051500000
0.0506849000000
0.0413983000000
0.0058662000000
-0.0077257700000
-0.0114816000000
-0.0011197800000
0.0010881600000
-0.0313203000000
-0.0250058000000
0.0403967000000
-0.0034458400000
-0.0470213000000
-0.0076889900000
0.0201639000000
0.0180903000000
-0.0265308000000
-0.0623511000000
-0.0160214000000
0.0330352000000
0.0350286000000
0.0241004000000
-0.0311617000000
-0.0138033000000
0.0131522000000
0.0077509900000
0.0296732000000
0.0282729000000
0.0332510000000
-0.0034534500000
-0.0081604700000
0.0151853000000
-0.0044135700000
0.0013713400000
-0.0305899000000
-0.0448132000000
-0.0097393000000
-0.0156528000000
-0.0315070000000
-0.0445906000000
0.0058081300000
0.0220149000000
-0.0180607000000
-0.0309935000000
-0.0591428000000
-0.0447204000000
0.0311330000000
0.0428173000000
-0.0273858000000
-0.0437625000000
0.0310010000000
0.0320766000000
-0.0135516000000
-0.0122979000000
-0.0362086000000
-0.0353996000000
-0.0247873000000
-0.0108683000000
0.0323550000000
0.0323967000000
-0.0039790000000
0.0063677000000
0.0217979000000
0.0008151390000
-0.0278274000000
0.0033911700000
0.0445008000000
0.0131293000000
-0.0274427000000
-0.0176448000000
0.0296434000000
0.0156221000000
0.0017933700000
0.0179006000000
0.0149510000000
0.0228748000000
0.0083529400000
0.0001216570000
0.0205459000000
0.0031001000000
0.0047045200000
0.0179751000000
-0.0090411100000
-0.0040312200000
0.0195383000000
0.0281811000000
-0.0164722000000
-0.0389231000000
0.0067466900000
-0.0011403800000
-0.0339560000000
-0.0186843000000
-0.0124883000000
-0.0225160000000
-0.0409982000000
-0.0172033000000
0.0046410600000
-0.0201656000000
-0.0053116900000
0.0089023700000
-0.0036466300000
0.0015285300000
-0.0160802000000
0.0043070800000
0.0190104000000
-0.0015094800000
0.0108740000000
-0.0001190750000
0.0099526100000
0.0247641000000
0.0161651000000
0.0379612000000
0.0357375000000
-0.0189965000000
-0.0336025000000
0.0024800200000
-0.0220736000000
-0.0378147000000
-0.0033324200000
-0.0271769000000
-0.0479453000000
-0.0083914100000
0.0142587000000
0.0109367000000
-0.0284540000000
-0.0642372000000
-0.0339285000000
0.0273443000000
0.0570056000000
0.0141139000000
-0.0010295900000
0.0284476000000
0.0080642200000
-0.0065270800000
0.0071955000000
0.0236543000000
0.0214814000000
-0.0050972500000
0.0097040300000
0.0226995000000
-0.0251591000000
-0.0245896000000
0.0126282000000
-0.0111579000000
-0.0180558000000
0.0041878300000
0.0030352400000
-0.0339785000000
-0.0402288000000
0.0214439000000
0.0466509000000
-0.0223190000000
-0.0440618000000
0.0085761700000
-0.0044445700000
0.0035461900000
0.0130792000000
0.0092278400000
0.0193048000000
-0.0005650070000
-0.0005630040000
0.0060031400000
0.0129749000000
0.0105636000000
0.0106365000000
0.0017014600000
0.0066336000000
0.0079130500000
0.0105471000000
-0.0132069000000
-0.0112557000000
0.0284534000000
0.0177372000000
0.0095726400000
-0.0157027000000
0.0010818600000
0.0165374000000
-0.0089925200000
-0.0312661000000
-0.0301402000000
0.0145126000000
0.0262178000000
0.0016986500000
-0.0062800800000
-0.0021459400000
-0.0276363000000
-0.0378577000000
-0.0035568100000
0.0150181000000
0.0096355800000
-0.0184302000000
-0.0391258000000
-0.0111983000000
0.0433502000000
0.0448042000000
-0.0230677000000
-0.0409660000000
-0.0094120800000
0.0087407700000
0.0157663000000
0.0189603000000
0.0540245000000
0.0218160000000
-0.0260392000000
0.0070602500000
0.0331644000000
0.0096944500000
-0.0347731000000
-0.0114972000000
0.0345755000000
0.0076789200000
-0.0168991000000
-0.0438338000000
-0.0293320000000
0.0046203200000
-0.0345038000000
-0.0178296000000
0.0215592000000
0.0240803000000
0.0002283810000
-0.0209268000000
-0.0028203300000
0.0205711000000
-0.0035588100000
-0.0233866000000
-0.0158635000000
-0.0337798000000
0.0049613800000
0.0468184000000
0.0267351000000
-0.0074898600000
-0.0198859000000
-0.0045194700000
-0.0043575900000
-0.0002953470000
0.0007021710000
0.0104904000000
0.0078212000000
-0.0104453000000
0.0131984000000
-0.0056030100000
-0.0097441700000
0.0087147300000
-0.0241189000000
-0.0001613440000
0.0167548000000
0.0024076300000
0.0244338000000
0.0204141000000
-0.0103641000000
-0.0165277000000
0.0136021000000
0.0283559000000
0.0063104100000
-0.0064506600000
-0.0021187300000
0.0212030000000
0.0315947000000
-0.0090457800000
-0.0194424000000
-0.0042237100000
-0.0082917700000
-0.0038040400000
-0.0012129900000
0.0091278700000
0.0101229000000
0.0229098000000
0.0110732000000
-0.0004873570000
0.0119682000000
-0.0158780000000
-0.0227257000000
-0.0369877000000
-0.0195180000000
0.0031272200000
-0.0100700000000
0.0098502900000
-0.0166861000000
-0.0332452000000
-0.0270993000000
-0.0271265000000
0.0124346000000
0.0228961000000
-0.0090270500000
-0.0092863700000
0.0068749000000
0.0067846400000
0.0091709200000
-0.0103254000000
0.0057305400000
0.0202030000000
-0.0002566180000
0.0204011000000
0.0167355000000
-0.0132972000000
0.0130796000000
0.0016767200000
-0.0036748200000
0.0218131000000
0.0002803360000
0.0209194000000
0.0212749000000
-0.0251903000000
-0.0107720000000
0.0057720400000
0.0031583300000
0.0191806000000
0.0435398000000
0.0448918000000
-0.0042155200000
-0.0284984000000
-0.0092476100000
0.0037676200000
-0.0086592400000
-0.0202879000000
-0.0084718000000
0.0063623500000
-0.0045936300000
-0.0087923900000
-0.0022507500000
-0.0113283000000
-0.0136876000000
-0.0264025000000
-0.0346369000000
-0.0291757000000
-0.0132844000000
-0.0159253000000
0.0024920800000
0.0225829000000
0.0004349480000
0.0112794000000
0.0280785000000
0.0004570680000
-0.0166675000000
-0.0029365900000
0.0152937000000
0.0212058000000
0.0045336400000
0.0136990000000
0.0245469000000
0.0130937000000
0.0096761500000
-0.0214020000000
-0.0346676000000
-0.0061498100000
0.0150253000000
0.0146457000000
0.0002987200000
-0.0059907300000
-0.0059527500000
0.0087496900000
0.0178280000000
0.0212135000000
0.0238703000000
0.0101126000000
-0.0208177000000
-0.0116988000000
-0.0043677000000
-0.0225143000000
0.0086237400000
0.0345749000000
0.0110855000000
-0.0088288200000
-0.0150279000000
0.0012042100000
0.0052260700000
0.0032905400000
0.0310318000000
0.0217417000000
-0.0001080180000
0.0008625060000
0.0044699800000
-0.0033590400000
-0.0069696100000
-0.0201407000000
-0.0088820700000
0.0086373100000
0.0024634000000
0.0093046200000
0.0002242920000
-0.0102473000000
-0.0398453000000
-0.0542526000000
-0.0046936800000
0.0255004000000
-0.0079808600000
-0.0417188000000
-0.0090709700000
0.0335959000000
0.0278355000000
-0.0057363200000
-0.0117980000000
-0.0002745060000
-0.0139842000000
-0.0250393000000
0.0088924700000
0.0300004000000
0.0060444000000
-0.0021584900000
0.0183578000000
0.0219916000000
-0.0051614600000
-0.0083546700000
0.0074565800000
0.0055010200000
-0.0098932800000
0.0117667000000
0.0268043000000
0.0130196000000
0.0083958800000
0.0052236300000
0.0122023000000
-0.0067342200000
-0.0150409000000
-0.0062982300000
-0.0004159410000
0.0017706500000
0.0201583000000
0.0105708000000
-0.0109451000000
0.0110701000000
0.0141657000000
0.0110731000000
-0.0011355300000
0.0057620000000
0.0074507400000
0.0094170700000
0.0171919000000
0.0076717900000
0.0083621100000
0.0055971100000
0.0078421000000
-0.0057177300000
-0.0129830000000
0.0022635700000
-0.0157393000000
-0.0294949000000
0.0047378700000
0.0327310000000
0.0318954000000
0.0057691700000
-0.0160743000000
-0.0107610000000
-0.0164915000000
-0.0148362000000
0.0056624300000
0.0206151000000
0.0121266000000
-0.0099439100000
-0.0276203000000
-0.0124642000000
0.0154589000000
0.0073812100000
-0.0131139000000
-0.0030850600000
-0.0040440800000
-0.0061665800000
-0.0138284000000
-0.0198890000000
0.0157731000000
0.0093169100000
-0.0064746200000
-0.0172278000000
-0.0021499500000
0.0145876000000
-0.0203525000000
-0.0301156000000
-0.0169382000000
-0.0061723200000
-0.0090719000000
-0.0121158000000
0.0023427800000
-0.0026160000000
-0.0167001000000
-0.0218742000000
-0.0078518700000
0.0058950000000
0.0125182000000
0.0004357100000
0.0102649000000
0.0150591000000
-0.0122357000000
-0.0156259000000
-0.0109161000000
0.0041353100000
-0.0042733900000
-0.0166308000000
-0.0055073300000
0.0084459200000
0.0142254000000
0.0018571200000
0.0043947500000
-0.0031083600000
-0.0105496000000
0.0013281500000
-0.0059856700000
0.0070454400000
0.0205499000000
0.0016758500000
-0.0108689000000
0.0054281500000
0.0158083000000
-0.0029608200000
-0.0028865000000
-0.0003521740000
-0.0016183100000
-0.0016961900000
-0.0070708900000
0.0032359000000
0.0002150030000
-0.0083496400000
0.0027272900000
0.0016173600000
-0.0081742100000
0.0089551000000
0.0084516400000
0.0013791700000
0.0044731600000
-0.0032257500000
0.0072452000000
0.0073572600000
-0.0002374660000
0.0050199300000
0.0046496100000
-0.0147329000000
-0.0259704000000
-0.0024627700000
0.0195840000000
0.0064927600000
-0.0070603600000
0.0077840600000
0.0029872700000
-0.0116611000000
-0.0012774800000
0.0022135900000
0.0015068500000
0.0039374600000
0.0091111200000
0.0129724000000
0.0020050900000
-0.0029905500000
-0.0024964700000
-0.0024163900000
0.0068900600000
0.0069983700000
-0.0001822470000
-0.0060464900000
-0.0042197300000
0.0044809500000
0.0087127100000
0.0055340700000
0.0032274500000
0.0065754800000
0.0063869900000
-0.0018087800000
-0.0035423900000
0.0028315700000
0.0056845700000
0.0043031600000
-0.0051826200000
-0.0030020800000
0.0054536800000
0.0029424500000
0.0037821200000
0.0003898070000
-0.0077128800000
-0.0059943700000
-0.0028978100000
-0.0020481900000
-0.0000300486000
-0.0009332330000
0.0002474700000
-0.0029382800000
-0.0053542700000
-0.0012477700000
-0.0002744530000
0.0040830800000
0.0038635600000
0.0007603070000
-0.0005081410000
-0.0033752100000
-0.0014015800000
-0.0001151160000
-0.0004843010000
0.0010660900000
0.0011317200000
0.0024379400000
0.0020326100000
0.0000448926000
0.0006699320000
-0.0003345120000
-0.0016942500000
-0.0005256170000
0.0005172680000
0.0004713940000
0.0005977520000
0.0005932830000
0.0008145940000
-0.0001292500000
-0.0006432590000
0.0010009500000
0.0003932670000
-0.0011190100000
-0.0008970330000
-0.0002672110000
0.0007939300000
0.0002660820000
0.0002303760000
0.0004085250000
0.0000357278000
-0.0001815860000
-0.0013537200000
-0.0017744400000
-0.0009850450000
-0.0002857580000
-0.0003141010000
-0.0007457590000
-0.0008102350000
-0.0010605200000
-0.0005982620000
-0.0002154200000
-0.0007634120000
-0.0007908580000
-0.0007904840000
-0.0005797400000
-0.0006783390000
-0.0007933540000
-0.0007071020000
-0.0010068500000
-0.0010383100000
-0.0010278800000
-0.0008458720000
-0.0008803800000
-0.0010827500000
-0.0010313700000
-0.0008517170000
-0.0008688880000
-0.0008032000000
-0.0007074120000
-0.0006851080000
-0.0005401920000
-0.0004778700000
-0.0004632500000
-0.0003931780000
-0.0003619830000
-0.0003298740000
-0.0002384450000
-0.0001798320000
-0.0001541920000
-0.0001080730000
-0.0000529500000
-0.0000081455700
0.0000351548000
0.0000822934000
0.0000000000000
0.0000000000000
0.0000000000000
0.0000000000000
