101  1 
102  1 
103  1 
104  1 
105  1 
106  1 
107  1 
108  1 
109  1 
201  1 
202  1 
203  1 
204  1 
205  1 
206  1 
207  1 
208  1 
209  1 
301  1 
302  1 
303  1 
304  1 
305  1 
306  1 
307  1 
308  1 
309  1 
401  1 
402  1 
403  1 
404  1 
405  1 
406  1 
407  1 
408  1 
409  1 
501  1 
502  1 
503  1 
504  1 
505  1 
506  1 
507  1 
508  1 
509  1 
601  1 
602  1 
603  1 
604  1 
605  1 
606  1 
607  1 
608  1 
609  1 
701  1 
702  1 
703  1 
704  1 
705  1 
706  1 
707  1 
708  1 
709  1 
801  1 
802  1 
803  1 
804  1 
805  1 
806  1 
807  1 
808  1 
809  1 
25  2 
26  2 
55  4 
56  4 
35  2 
36  2 
125  2 
126  2 
155  4 
156  4 
135  2 
136  2 
225  2 
226  2 
255  4 
256  4 
235  2 
236  2 
321  2 
322  2 
323  2 
324  2 
351  4 
352  4 
353  4 
354  4 
331  2 
332  2 
333  2 
334  2 
425  2 
426  2 
455  4 
456  4 
435  2 
436  2 
525  2 
526  2 
555  4 
556  4 
535  2 
536  2 
621  2 
622  2 
623  2 
624  2 
651  4 
652  4 
653  4 
654  4 
631  2 
632  2 
633  2 
634  2 
725  2 
726  2 
755  4 
756  4 
735  2 
736  2 
825  2 
826  2 
855  4 
856  4 
835  2 
836  2 
925  2 
926  2 
955  4 
956  4 
935  2 
936  2 
10001  3 
10002  3 
10003  3 
10004  3 
10011  3 
10012  3 
10013  3 
10014  3 
10015  3 
10016  3 
10017  3 
10006  3 
10007  3 
10008  3 
11001  2 
11002  2 
11003  2 
11004  2 
11011  2 
11012  2 
11013  2 
11014  2 
11015  2 
11016  2 
11017  2 
11006  2 
11007  2 
11008  2 
12001  2 
12002  2 
12003  2 
12004  2 
12011  2 
12012  2 
12013  2 
12014  2 
12015  2 
12016  2 
12017  2 
12006  2 
12007  2 
12008  2 
11301  5 
11302  5 
11303  5 
11304  5 
11311  5 
11312  5 
11313  5 
11314  5 
11315  5 
11316  5 
11317  5 
11306  5 
11307  5 
11308  5 
11601  5 
11602  5 
11603  5 
11604  5 
11611  5 
11612  5 
11613  5 
11614  5 
11615  5 
11616  5 
11617  5 
11606  5 
11607  5 
11608  5 
15001  2 
15002  2 
15003  2 
15004  2 
15011  2 
15012  2 
15013  2 
15014  2 
15015  2 
15016  2 
15017  2 
15006  2 
15007  2 
15008  2 
16001  2 
16002  2 
16003  2 
16004  2 
16011  2 
16012  2 
16013  2 
16014  2 
16015  2 
16016  2 
16017  2 
16006  2 
16007  2 
16008  2 
17001  2 
17002  2 
17003  2 
17004  2 
17011  2 
17012  2 
17013  2 
17014  2 
17015  2 
17016  2 
17017  2 
17006  2 
17007  2 
17008  2 
18001  2 
18002  2 
18003  2 
18004  2 
18011  2 
18012  2 
18013  2 
18014  2 
18015  2 
18016  2 
18017  2 
18006  2 
18007  2 
18008  2 
20001  3 
20002  3 
20003  3 
20004  3 
20011  3 
20012  3 
20013  3 
20014  3 
20015  3 
20016  3 
20017  3 
20006  3 
20007  3 
20008  3 
21001  2 
21002  2 
21003  2 
21004  2 
21011  2 
21012  2 
21013  2 
21014  2 
21015  2 
21016  2 
21017  2 
21006  2 
21007  2 
21008  2 
22001  2 
22002  2 
22003  2 
22004  2 
22011  2 
22012  2 
22013  2 
22014  2 
22015  2 
22016  2 
22017  2 
22006  2 
22007  2 
22008  2 
21301  5 
21302  5 
21303  5 
21304  5 
21311  5 
21312  5 
21313  5 
21314  5 
21315  5 
21316  5 
21317  5 
21306  5 
21307  5 
21308  5 
21601  5 
21602  5 
21603  5 
21604  5 
21611  5 
21612  5 
21613  5 
21614  5 
21615  5 
21616  5 
21617  5 
21606  5 
21607  5 
21608  5 
25001  2 
25002  2 
25003  2 
25004  2 
25011  2 
25012  2 
25013  2 
25014  2 
25015  2 
25016  2 
25017  2 
25006  2 
25007  2 
25008  2 
26001  2 
26002  2 
26003  2 
26004  2 
26011  2 
26012  2 
26013  2 
26014  2 
26015  2 
26016  2 
26017  2 
26006  2 
26007  2 
26008  2 
27001  2 
27002  2 
27003  2 
27004  2 
27011  2 
27012  2 
27013  2 
27014  2 
27015  2 
27016  2 
27017  2 
27006  2 
27007  2 
27008  2 
28001  2 
28002  2 
28003  2 
28004  2 
28011  2 
28012  2 
28013  2 
28014  2 
28015  2 
28016  2 
28017  2 
28006  2 
28007  2 
28008  2 
30001  3 
30002  3 
30003  3 
30004  3 
30011  3 
30012  3 
30013  3 
30014  3 
30015  3 
30016  3 
30017  3 
30006  3 
30007  3 
30008  3 
31001  2 
31002  2 
31003  2 
31004  2 
31011  2 
31012  2 
31013  2 
31014  2 
31015  2 
31016  2 
31017  2 
31006  2 
31007  2 
31008  2 
31009  2 
32001  2 
32002  2 
32003  2 
32004  2 
32011  2 
32012  2 
32013  2 
32014  2 
32015  2 
32016  2 
32017  2 
32006  2 
32007  2 
32008  2 
32009  2 
31301  5 
31302  5 
31303  5 
31304  5 
31311  5 
31312  5 
31313  5 
31314  5 
31315  5 
31316  5 
31317  5 
31306  5 
31307  5 
31308  5 
31309  5 
31601  5 
31602  5 
31603  5 
31604  5 
31611  5 
31612  5 
31613  5 
31614  5 
31615  5 
31616  5 
31617  5 
31606  5 
31607  5 
31608  5 
31609  5 
35001  2 
35002  2 
35003  2 
35004  2 
35011  2 
35012  2 
35013  2 
35014  2 
35015  2 
35016  2 
35017  2 
35006  2 
35007  2 
35008  2 
35009  2 
36001  2 
36002  2 
36003  2 
36004  2 
36011  2 
36012  2 
36013  2 
36014  2 
36015  2 
36016  2 
36017  2 
36006  2 
36007  2 
36008  2 
36009  2 
37001  2 
37002  2 
37003  2 
37004  2 
37011  2 
37012  2 
37013  2 
37014  2 
37015  2 
37016  2 
37017  2 
37006  2 
37007  2 
37008  2 
37009  2 
38001  2 
38002  2 
38003  2 
38004  2 
38011  2 
38012  2 
38013  2 
38014  2 
38015  2 
38016  2 
38017  2 
38006  2 
38007  2 
38008  2 
38009  2 
40001  3 
40002  3 
40003  3 
40004  3 
40011  3 
40012  3 
40013  3 
40014  3 
40015  3 
40016  3 
40017  3 
40006  3 
40007  3 
40008  3 
41001  2 
41002  2 
41003  2 
41004  2 
41011  2 
41012  2 
41013  2 
41014  2 
41015  2 
41016  2 
41017  2 
41006  2 
41007  2 
41008  2 
42001  2 
42002  2 
42003  2 
42004  2 
42011  2 
42012  2 
42013  2 
42014  2 
42015  2 
42016  2 
42017  2 
42006  2 
42007  2 
42008  2 
41301  5 
41302  5 
41303  5 
41304  5 
41311  5 
41312  5 
41313  5 
41314  5 
41315  5 
41316  5 
41317  5 
41306  5 
41307  5 
41308  5 
41601  5 
41602  5 
41603  5 
41604  5 
41611  5 
41612  5 
41613  5 
41614  5 
41615  5 
41616  5 
41617  5 
41606  5 
41607  5 
41608  5 
45001  2 
45002  2 
45003  2 
45004  2 
45011  2 
45012  2 
45013  2 
45014  2 
45015  2 
45016  2 
45017  2 
45006  2 
45007  2 
45008  2 
46001  2 
46002  2 
46003  2 
46004  2 
46011  2 
46012  2 
46013  2 
46014  2 
46015  2 
46016  2 
46017  2 
46006  2 
46007  2 
46008  2 
47001  2 
47002  2 
47003  2 
47004  2 
47011  2 
47012  2 
47013  2 
47014  2 
47015  2 
47016  2 
47017  2 
47006  2 
47007  2 
47008  2 
48001  2 
48002  2 
48003  2 
48004  2 
48011  2 
48012  2 
48013  2 
48014  2 
48015  2 
48016  2 
48017  2 
48006  2 
48007  2 
48008  2 
50001  3 
50002  3 
50003  3 
50004  3 
50011  3 
50012  3 
50013  3 
50014  3 
50015  3 
50016  3 
50017  3 
50006  3 
50007  3 
50008  3 
51001  2 
51002  2 
51003  2 
51004  2 
51011  2 
51012  2 
51013  2 
51014  2 
51015  2 
51016  2 
51017  2 
51006  2 
51007  2 
51008  2 
52001  2 
52002  2 
52003  2 
52004  2 
52011  2 
52012  2 
52013  2 
52014  2 
52015  2 
52016  2 
52017  2 
52006  2 
52007  2 
52008  2 
51301  5 
51302  5 
51303  5 
51304  5 
51311  5 
51312  5 
51313  5 
51314  5 
51315  5 
51316  5 
51317  5 
51306  5 
51307  5 
51308  5 
51601  5 
51602  5 
51603  5 
51604  5 
51611  5 
51612  5 
51613  5 
51614  5 
51615  5 
51616  5 
51617  5 
51606  5 
51607  5 
51608  5 
55001  2 
55002  2 
55003  2 
55004  2 
55011  2 
55012  2 
55013  2 
55014  2 
55015  2 
55016  2 
55017  2 
55006  2 
55007  2 
55008  2 
56001  2 
56002  2 
56003  2 
56004  2 
56011  2 
56012  2 
56013  2 
56014  2 
56015  2 
56016  2 
56017  2 
56006  2 
56007  2 
56008  2 
57001  2 
57002  2 
57003  2 
57004  2 
57011  2 
57012  2 
57013  2 
57014  2 
57015  2 
57016  2 
57017  2 
57006  2 
57007  2 
57008  2 
58001  2 
58002  2 
58003  2 
58004  2 
58011  2 
58012  2 
58013  2 
58014  2 
58015  2 
58016  2 
58017  2 
58006  2 
58007  2 
58008  2 
60001  3 
60002  3 
60003  3 
60004  3 
60011  3 
60012  3 
60013  3 
60014  3 
60015  3 
60016  3 
60017  3 
60006  3 
60007  3 
60008  3 
61001  2 
61002  2 
61003  2 
61004  2 
61011  2 
61012  2 
61013  2 
61014  2 
61015  2 
61016  2 
61017  2 
61006  2 
61007  2 
61008  2 
61009  2 
62001  2 
62002  2 
62003  2 
62004  2 
62011  2 
62012  2 
62013  2 
62014  2 
62015  2 
62016  2 
62017  2 
62006  2 
62007  2 
62008  2 
62009  2 
61301  5 
61302  5 
61303  5 
61304  5 
61311  5 
61312  5 
61313  5 
61314  5 
61315  5 
61316  5 
61317  5 
61306  5 
61307  5 
61308  5 
61309  5 
61601  5 
61602  5 
61603  5 
61604  5 
61611  5 
61612  5 
61613  5 
61614  5 
61615  5 
61616  5 
61617  5 
61606  5 
61607  5 
61608  5 
61609  5 
65001  2 
65002  2 
65003  2 
65004  2 
65011  2 
65012  2 
65013  2 
65014  2 
65015  2 
65016  2 
65017  2 
65006  2 
65007  2 
65008  2 
65009  2 
66001  2 
66002  2 
66003  2 
66004  2 
66011  2 
66012  2 
66013  2 
66014  2 
66015  2 
66016  2 
66017  2 
66006  2 
66007  2 
66008  2 
66009  2 
67001  2 
67002  2 
67003  2 
67004  2 
67011  2 
67012  2 
67013  2 
67014  2 
67015  2 
67016  2 
67017  2 
67006  2 
67007  2 
67008  2 
67009  2 
68001  2 
68002  2 
68003  2 
68004  2 
68011  2 
68012  2 
68013  2 
68014  2 
68015  2 
68016  2 
68017  2 
68006  2 
68007  2 
68008  2 
68009  2 
70001  3 
70002  3 
70003  3 
70004  3 
70011  3 
70012  3 
70013  3 
70014  3 
70015  3 
70016  3 
70017  3 
70006  3 
70007  3 
70008  3 
71001  2 
71002  2 
71003  2 
71004  2 
71011  2 
71012  2 
71013  2 
71014  2 
71015  2 
71016  2 
71017  2 
71006  2 
71007  2 
71008  2 
72001  2 
72002  2 
72003  2 
72004  2 
72011  2 
72012  2 
72013  2 
72014  2 
72015  2 
72016  2 
72017  2 
72006  2 
72007  2 
72008  2 
71301  5 
71302  5 
71303  5 
71304  5 
71311  5 
71312  5 
71313  5 
71314  5 
71315  5 
71316  5 
71317  5 
71306  5 
71307  5 
71308  5 
71601  5 
71602  5 
71603  5 
71604  5 
71611  5 
71612  5 
71613  5 
71614  5 
71615  5 
71616  5 
71617  5 
71606  5 
71607  5 
71608  5 
75001  2 
75002  2 
75003  2 
75004  2 
75011  2 
75012  2 
75013  2 
75014  2 
75015  2 
75016  2 
75017  2 
75006  2 
75007  2 
75008  2 
76001  2 
76002  2 
76003  2 
76004  2 
76011  2 
76012  2 
76013  2 
76014  2 
76015  2 
76016  2 
76017  2 
76006  2 
76007  2 
76008  2 
77001  2 
77002  2 
77003  2 
77004  2 
77011  2 
77012  2 
77013  2 
77014  2 
77015  2 
77016  2 
77017  2 
77006  2 
77007  2 
77008  2 
78001  2 
78002  2 
78003  2 
78004  2 
78011  2 
78012  2 
78013  2 
78014  2 
78015  2 
78016  2 
78017  2 
78006  2 
78007  2 
78008  2 
80001  3 
80002  3 
80003  3 
80004  3 
80011  3 
80012  3 
80013  3 
80014  3 
80015  3 
80016  3 
80017  3 
80006  3 
80007  3 
80008  3 
81001  2 
81002  2 
81003  2 
81004  2 
81011  2 
81012  2 
81013  2 
81014  2 
81015  2 
81016  2 
81017  2 
81006  2 
81007  2 
81008  2 
82001  2 
82002  2 
82003  2 
82004  2 
82011  2 
82012  2 
82013  2 
82014  2 
82015  2 
82016  2 
82017  2 
82006  2 
82007  2 
82008  2 
81301  5 
81302  5 
81303  5 
81304  5 
81311  5 
81312  5 
81313  5 
81314  5 
81315  5 
81316  5 
81317  5 
81306  5 
81307  5 
81308  5 
81601  5 
81602  5 
81603  5 
81604  5 
81611  5 
81612  5 
81613  5 
81614  5 
81615  5 
81616  5 
81617  5 
81606  5 
81607  5 
81608  5 
85001  2 
85002  2 
85003  2 
85004  2 
85011  2 
85012  2 
85013  2 
85014  2 
85015  2 
85016  2 
85017  2 
85006  2 
85007  2 
85008  2 
86001  2 
86002  2 
86003  2 
86004  2 
86011  2 
86012  2 
86013  2 
86014  2 
86015  2 
86016  2 
86017  2 
86006  2 
86007  2 
86008  2 
87001  2 
87002  2 
87003  2 
87004  2 
87011  2 
87012  2 
87013  2 
87014  2 
87015  2 
87016  2 
87017  2 
87006  2 
87007  2 
87008  2 
88001  2 
88002  2 
88003  2 
88004  2 
88011  2 
88012  2 
88013  2 
88014  2 
88015  2 
88016  2 
88017  2 
88006  2 
88007  2 
88008  2 
90001  3 
90002  3 
90003  3 
90004  3 
90011  3 
90012  3 
90013  3 
90014  3 
90015  3 
90016  3 
90017  3 
90006  3 
90007  3 
90008  3 
91001  2 
91002  2 
91003  2 
91004  2 
91011  2 
91012  2 
91013  2 
91014  2 
91015  2 
91016  2 
91017  2 
91006  2 
91007  2 
91008  2 
91009  2 
92001  2 
92002  2 
92003  2 
92004  2 
92011  2 
92012  2 
92013  2 
92014  2 
92015  2 
92016  2 
92017  2 
92006  2 
92007  2 
92008  2 
92009  2 
91301  5 
91302  5 
91303  5 
91304  5 
91311  5 
91312  5 
91313  5 
91314  5 
91315  5 
91316  5 
91317  5 
91306  5 
91307  5 
91308  5 
91309  5 
91601  5 
91602  5 
91603  5 
91604  5 
91611  5 
91612  5 
91613  5 
91614  5 
91615  5 
91616  5 
91617  5 
91606  5 
91607  5 
91608  5 
91609  5 
95001  2 
95002  2 
95003  2 
95004  2 
95011  2 
95012  2 
95013  2 
95014  2 
95015  2 
95016  2 
95017  2 
95006  2 
95007  2 
95008  2 
95009  2 
96001  2 
96002  2 
96003  2 
96004  2 
96011  2 
96012  2 
96013  2 
96014  2 
96015  2 
96016  2 
96017  2 
96006  2 
96007  2 
96008  2 
96009  2 
97001  2 
97002  2 
97003  2 
97004  2 
97011  2 
97012  2 
97013  2 
97014  2 
97015  2 
97016  2 
97017  2 
97006  2 
97007  2 
97008  2 
97009  2 
98001  2 
98002  2 
98003  2 
98004  2 
98011  2 
98012  2 
98013  2 
98014  2 
98015  2 
98016  2 
98017  2 
98006  2 
98007  2 
98008  2 
98009  2 
341 2 
342 2 
343 2 
344 2 
345 7 
346 7 
641 2 
642 2 
643 2 
644 2 
645 7 
646 7 
