0.1 -0.000491558 -1.36358e-07
0.2 -0.000983045 -2.72703e-07
0.3 -0.00147446 -4.09034e-07
0.4 -0.00196581 -5.45353e-07
0.5 -0.00245708 -6.81658e-07
0.6 -0.00294829 -8.1795e-07
0.7 -0.00343943 -9.54229e-07
0.8 -0.00393049 -1.0905e-06
0.9 -0.00442148 -1.22675e-06
1 -0.0049124 -1.36299e-06
