recorder Node -file $dir/eigen1.txt -node 1 4 7 10 -dof 1 "eigen 1"
recorder Node -file $dir/eigen2.txt -node 1 4 7 10 -dof 1 "eigen 2"
recorder Node -file $dir/eigen3.txt -node 1 4 7 10 -dof 1 "eigen 3"
