#node 	#	x	y	;
node	1	0.00	0.00	;
node	2	180.00	0.00	;
node	3	360.00	0.00	;
node	4	0.00	240.00	;
node	5	180.00	240.00	;
node	6	360.00	240.00	;
node	7	0.00	432.00	;
node	8	180.00	432.00	;
node	9	360.00	432.00	;
node	10	0.00	624.00	;
node	11	180.00	624.00	;
node	12	360.00	624.00	;
