-0.0007606280000
-0.0007537510000
-0.0007468700000
-0.0007400080000
-0.0007331150000
-0.0007261460000
-0.0007189110000
-0.0007114770000
-0.0007040380000
-0.0006967490000
-0.0006894730000
-0.0006819140000
-0.0006739610000
-0.0006660000000
-0.0006582620000
-0.0006507970000
-0.0006437830000
-0.0006371900000
-0.0006301690000
-0.0006220710000
-0.0006130710000
-0.0006045070000
-0.0005981740000
-0.0005955700000
-0.0005957070000
-0.0005945640000
-0.0005898250000
-0.0005830160000
-0.0005747980000
-0.0005645430000
-0.0005527660000
-0.0005409520000
-0.0005299750000
-0.0005188200000
-0.0005055020000
-0.0004919220000
-0.0004818510000
-0.0004761230000
-0.0004729290000
-0.0004694300000
-0.0004594600000
-0.0004371390000
-0.0004070220000
-0.0003796060000
-0.0003607460000
-0.0003526680000
-0.0003565930000
-0.0003723000000
-0.0003967740000
-0.0004231000000
-0.0004435290000
-0.0004541900000
-0.0004559150000
-0.0004528170000
-0.0004473300000
-0.0004384350000
-0.0004216710000
-0.0003947360000
-0.0003625270000
-0.0003366790000
-0.0003280670000
-0.0003313130000
-0.0003287180000
-0.0003057450000
-0.0002560400000
-0.0001823390000
-0.0000970353000
-0.0000175293000
0.0000441602000
0.0000872590000
0.0001244200000
0.0001718430000
0.0002388710000
0.0003209370000
0.0004025970000
0.0004636510000
0.0004952580000
0.0005116670000
0.0005265500000
0.0005358510000
0.0005360250000
0.0005296370000
0.0005130110000
0.0004820170000
0.0004433160000
0.0004014670000
0.0003508570000
0.0002834330000
0.0002023140000
0.0001318930000
0.0000804095000
0.0000059737300
-0.0001389680000
-0.0003680030000
-0.0006529680000
-0.0009333720000
-0.0011262500000
-0.0011801900000
-0.0011149600000
-0.0009796330000
-0.0008138740000
-0.0006434030000
-0.0004918770000
-0.0003938790000
-0.0003612510000
-0.0003633240000
-0.0003785360000
-0.0004089330000
-0.0004352540000
-0.0004345910000
-0.0004201030000
-0.0003943680000
-0.0003240470000
-0.0002151800000
-0.0001215570000
-0.0000751368000
-0.0000556590000
-0.0000027681300
0.0001060170000
0.0002251590000
0.0003056160000
0.0003007610000
0.0001105950000
-0.0002972220000
-0.0007786250000
-0.0011758400000
-0.0014369600000
-0.0015710700000
-0.0016098700000
-0.0015991500000
-0.0015786800000
-0.0015672700000
-0.0015495400000
-0.0014903700000
-0.0013667100000
-0.0012093000000
-0.0011130900000
-0.0011290500000
-0.0012068800000
-0.0012822400000
-0.0013241500000
-0.0013331000000
-0.0013518400000
-0.0014589100000
-0.0016804600000
-0.0019492300000
-0.0021012600000
-0.0019860500000
-0.0015944400000
-0.0010110500000
-0.0003306120000
0.0003569960000
0.0009719030000
0.0014459600000
0.0017424300000
0.0018791100000
0.0019296800000
0.0019959100000
0.0021528500000
0.0024286000000
0.0028109200000
0.0032300900000
0.0035650900000
0.0037364700000
0.0037459400000
0.0036185800000
0.0033920200000
0.0031322500000
0.0028641800000
0.0025409400000
0.0021338900000
0.0016770300000
0.0012455900000
0.0008971350000
0.0006166950000
0.0003241310000
-0.0000750444000
-0.0006041970000
-0.0012038600000
-0.0017635400000
-0.0021625400000
-0.0023081100000
-0.0021443100000
-0.0016790500000
-0.0010434600000
-0.0003990110000
0.0001996360000
0.0007408810000
0.0011880100000
0.0015400000000
0.0018395500000
0.0021035100000
0.0023195200000
0.0024729000000
0.0025324300000
0.0024490100000
0.0021587900000
0.0016164700000
0.0008431670000
-0.0000244942000
-0.0007690340000
-0.0013388200000
-0.0018796800000
-0.0024936800000
-0.0031587600000
-0.0037849300000
-0.0043081000000
-0.0047311500000
-0.0050258400000
-0.0051497800000
-0.0051607900000
-0.0051234000000
-0.0049880100000
-0.0047192100000
-0.0043803500000
-0.0040693900000
-0.0038721600000
-0.0038596400000
-0.0040412500000
-0.0043284200000
-0.0045330500000
-0.0044476900000
-0.0039598100000
-0.0031279000000
-0.0021888400000
-0.0014747800000
-0.0012357600000
-0.0014268600000
-0.0018514700000
-0.0024073500000
-0.0030158000000
-0.0035617300000
-0.0039806900000
-0.0042492400000
-0.0043288400000
-0.0042356300000
-0.0040557300000
-0.0037797600000
-0.0033110600000
-0.0025917600000
-0.0016616900000
-0.0006372410000
0.0004077760000
0.0014681600000
0.0025534000000
0.0036076500000
0.0045182000000
0.0052771300000
0.0059486800000
0.0064706500000
0.0066521700000
0.0063184700000
0.0055356400000
0.0045560000000
0.0035583200000
0.0026771500000
0.0020813700000
0.0018525800000
0.0019534300000
0.0023649500000
0.0031160300000
0.0042200300000
0.0055680200000
0.0069583100000
0.0082545100000
0.0093530600000
0.0100969000000
0.0103271000000
0.0099912300000
0.0092102100000
0.0082123400000
0.0072137200000
0.0063890800000
0.0058560900000
0.0056862200000
0.0058886600000
0.0064027700000
0.0071503100000
0.0080554500000
0.0089614800000
0.0096614600000
0.0099853600000
0.0097990000000
0.0090181700000
0.0076253100000
0.0057411500000
0.0036784400000
0.0017352800000
0.0000080721400
-0.0015587200000
-0.0030124200000
-0.0042278700000
-0.0050685600000
-0.0055658600000
-0.0057776600000
-0.0057051900000
-0.0053200500000
-0.0046398300000
-0.0037711600000
-0.0028476000000
-0.0019977500000
-0.0013890800000
-0.0011117300000
-0.0010584500000
-0.0010233700000
-0.0008344870000
-0.0004256780000
0.0001766000000
0.0008895840000
0.0015492200000
0.0019643300000
0.0020705700000
0.0019412400000
0.0016816600000
0.0012430600000
0.0004375390000
-0.0007844340000
-0.0022687500000
-0.0037728500000
-0.0050874300000
-0.0061090600000
-0.0067945000000
-0.0071309300000
-0.0071284300000
-0.0068284000000
-0.0063028000000
-0.0055828500000
-0.0046231600000
-0.0033301800000
-0.0017415000000
-0.0000798110000
0.0014282000000
0.0027500100000
0.0041080600000
0.0056519000000
0.0072894800000
0.0088818000000
0.0103099000000
0.0114268000000
0.0120548000000
0.0120750000000
0.0115457000000
0.0106444000000
0.0095399900000
0.0083899700000
0.0073466500000
0.0065439100000
0.0060543100000
0.0058678500000
0.0059868500000
0.0064188700000
0.0070399100000
0.0076167800000
0.0079249900000
0.0078014000000
0.0071887200000
0.0061450300000
0.0047812700000
0.0031905300000
0.0014457900000
-0.0003632650000
-0.0020686400000
-0.0034707600000
-0.0044297300000
-0.0048759800000
-0.0047951800000
-0.0041811000000
-0.0031145200000
-0.0018028900000
-0.0003545170000
0.0012322200000
0.0028362400000
0.0041717700000
0.0049281900000
0.0049794700000
0.0044234300000
0.0034336500000
0.0021538400000
0.0006889690000
-0.0007585420000
-0.0019469400000
-0.0027837600000
-0.0033007900000
-0.0035611000000
-0.0035935300000
-0.0034057000000
-0.0030241500000
-0.0024969000000
-0.0018873900000
-0.0012984800000
-0.0008389200000
-0.0005566600000
-0.0004037120000
-0.0002582810000
-0.0000050693500
0.0004146800000
0.0010010000000
0.0017458800000
0.0026637700000
0.0038017700000
0.0051625900000
0.0066127800000
0.0079246500000
0.0088841800000
0.0093521200000
0.0093046700000
0.0088346000000
0.0080629500000
0.0070930700000
0.0060468300000
0.0050037900000
0.0039136900000
0.0027046500000
0.0013938900000
0.0001466500000
-0.0007808360000
-0.0011594400000
-0.0009233060000
-0.0001986160000
0.0008463420000
0.0020958500000
0.0034943700000
0.0049486100000
0.0063170400000
0.0075387500000
0.0086305400000
0.0095944300000
0.0103525000000
0.0107829000000
0.0108215000000
0.0104988000000
0.0099156000000
0.0091953900000
0.0084361000000
0.0076526800000
0.0068416200000
0.0060745400000
0.0053837300000
0.0046876400000
0.0038797500000
0.0029187600000
0.0018655700000
0.0008268500000
-0.0001067100000
-0.0008517250000
-0.0013902900000
-0.0018420700000
-0.0023185000000
-0.0028080800000
-0.0032396400000
-0.0035546300000
-0.0037345600000
-0.0037976900000
-0.0037769800000
-0.0036615700000
-0.0033916000000
-0.0028877200000
-0.0021000800000
-0.0010394400000
0.0002747170000
0.0018075600000
0.0034489100000
0.0050018500000
0.0062443900000
0.0070458800000
0.0074486500000
0.0076861000000
0.0080472700000
0.0087193900000
0.0097465700000
0.0110415000000
0.0124185000000
0.0136834000000
0.0147233000000
0.0155201000000
0.0161001000000
0.0164307000000
0.0164279000000
0.0160101000000
0.0150395000000
0.0133786000000
0.0110209000000
0.0080987700000
0.0048232900000
0.0014032500000
-0.0020050200000
-0.0053080100000
-0.0084056800000
-0.0111450000000
-0.0133686000000
-0.0149968000000
-0.0160282000000
-0.0165170000000
-0.0165444000000
-0.0161784000000
-0.0154866000000
-0.0145968000000
-0.0136645000000
-0.0128065000000
-0.0121113000000
-0.0116277000000
-0.0112984000000
-0.0109738000000
-0.0104840000000
-0.0097150300000
-0.0086427900000
-0.0072756400000
-0.0056427300000
-0.0038096100000
-0.0018586300000
0.0001263170000
0.0020310000000
0.0036846000000
0.0048723400000
0.0054806800000
0.0055858100000
0.0053198200000
0.0047444600000
0.0038074900000
0.0025660100000
0.0012861100000
0.0002579290000
-0.0002943250000
-0.0001889540000
0.0006114660000
0.0019347800000
0.0034603000000
0.0048000300000
0.0055849600000
0.0056356600000
0.0050191600000
0.0038191700000
0.0021135700000
0.0000641427000
-0.0021689600000
-0.0044984200000
-0.0068759300000
-0.0091584300000
-0.0110127000000
-0.0120508000000
-0.0120357000000
-0.0109506000000
-0.0090020500000
-0.0065576400000
-0.0039542200000
-0.0013844400000
0.0010916200000
0.0034979000000
0.0058770400000
0.0081488500000
0.0101174000000
0.0115913000000
0.0124593000000
0.0127127000000
0.0124042000000
0.0116318000000
0.0105354000000
0.0092920300000
0.0080875200000
0.0070530500000
0.0062276000000
0.0055701700000
0.0049719700000
0.0042890400000
0.0034131100000
0.0023298400000
0.0011294800000
-0.0001095390000
-0.0014098300000
-0.0027922900000
-0.0042078100000
-0.0055484000000
-0.0067108800000
-0.0076501200000
-0.0083401300000
-0.0087543800000
-0.0088659900000
-0.0086742000000
-0.0082379300000
-0.0076892700000
-0.0071509500000
-0.0066240700000
-0.0061491100000
-0.0059090500000
-0.0060376800000
-0.0065186200000
-0.0072318100000
-0.0079656200000
-0.0084710800000
-0.0085808300000
-0.0082505000000
-0.0075060500000
-0.0063909300000
-0.0049472900000
-0.0031948200000
-0.0012108400000
0.0007820720000
0.0025981900000
0.0042134700000
0.0055671300000
0.0065489500000
0.0071229900000
0.0073103100000
0.0071686800000
0.0068308600000
0.0064676600000
0.0062009000000
0.0060800100000
0.0060974700000
0.0062533800000
0.0065118000000
0.0067406300000
0.0068235900000
0.0067418900000
0.0064912100000
0.0060205700000
0.0052386700000
0.0041570700000
0.0029452000000
0.0018424800000
0.0010172000000
0.0004760690000
0.0001509030000
-0.0000232564000
-0.0001060530000
-0.0001732690000
-0.0003234500000
-0.0006332260000
-0.0011199900000
-0.0017495000000
-0.0024608000000
-0.0031937900000
-0.0039061100000
-0.0045802400000
-0.0052160100000
-0.0058011600000
-0.0063003200000
-0.0067556100000
-0.0073113900000
-0.0081431200000
-0.0093671600000
-0.0109703000000
-0.0127726000000
-0.0145089000000
-0.0160115000000
-0.0171644000000
-0.0177955000000
-0.0178124000000
-0.0172664000000
-0.0161393000000
-0.0144337000000
-0.0123714000000
-0.0102678000000
-0.0083389700000
-0.0065699100000
-0.0048142300000
-0.0029903400000
-0.0012051400000
0.0003278870000
0.0015402300000
0.0024862200000
0.0031962800000
0.0037166200000
0.0041477400000
0.0045816700000
0.0049999100000
0.0052311700000
0.0051225300000
0.0046532600000
0.0038616900000
0.0028064600000
0.0015776000000
0.0003049090000
-0.0008925760000
-0.0020381200000
-0.0032116000000
-0.0043890900000
-0.0054463100000
-0.0062407100000
-0.0066513600000
-0.0066050500000
-0.0060856400000
-0.0051039900000
-0.0036914500000
-0.0018995800000
0.0001299290000
0.0021438500000
0.0040477800000
0.0059668500000
0.0079442600000
0.0099372500000
0.0119674000000
0.0140224000000
0.0159831000000
0.0176439000000
0.0188745000000
0.0197462000000
0.0203404000000
0.0206418000000
0.0206192000000
0.0202164000000
0.0193189000000
0.0178806000000
0.0159746000000
0.0136141000000
0.0107874000000
0.0075871900000
0.0041768000000
0.0007225000000
-0.0026115500000
-0.0056842700000
-0.0084093900000
-0.0107812000000
-0.0128747000000
-0.0147989000000
-0.0166104000000
-0.0182349000000
-0.0194125000000
-0.0198165000000
-0.0192507000000
-0.0177831000000
-0.0157360000000
-0.0133595000000
-0.0106675000000
-0.0076590400000
-0.0044025900000
-0.0009144470000
0.0028098000000
0.0066980400000
0.0105707000000
0.0142208000000
0.0176081000000
0.0208474000000
0.0240293000000
0.0270871000000
0.0297733000000
0.0317827000000
0.0329063000000
0.0330515000000
0.0322516000000
0.0306535000000
0.0284202000000
0.0256744000000
0.0225187000000
0.0190597000000
0.0153612000000
0.0115061000000
0.0077006300000
0.0041745400000
0.0010454800000
-0.0016607700000
-0.0039550200000
-0.0057713400000
-0.0070437600000
-0.0078464200000
-0.0083245700000
-0.0086010800000
-0.0087617900000
-0.0088641300000
-0.0089438000000
-0.0090391300000
-0.0092080400000
-0.0094683800000
-0.0097672900000
-0.0100292000000
-0.0101753000000
-0.0100801000000
-0.0096282700000
-0.0088068900000
-0.0077267700000
-0.0065611500000
-0.0053740400000
-0.0041256200000
-0.0028088500000
-0.0014869900000
-0.0002564760000
0.0008439520000
0.0018483800000
0.0027301200000
0.0034065400000
0.0038326500000
0.0039971400000
0.0038903100000
0.0034515000000
0.0026101800000
0.0014086500000
0.0000103446000
-0.0013716600000
-0.0025633400000
-0.0034827100000
-0.0040652000000
-0.0042466100000
-0.0039891200000
-0.0033312300000
-0.0024225100000
-0.0014502000000
-0.0005486260000
0.0002654800000
0.0010597500000
0.0018783300000
0.0027105900000
0.0035221400000
0.0043510000000
0.0053187900000
0.0064916000000
0.0078315700000
0.0092576400000
0.0107144000000
0.0121960000000
0.0136244000000
0.0148384000000
0.0157971000000
0.0165845000000
0.0172324000000
0.0177172000000
0.0180133000000
0.0180198000000
0.0175996000000
0.0168283000000
0.0159662000000
0.0152527000000
0.0148168000000
0.0146652000000
0.0147216000000
0.0148693000000
0.0149589000000
0.0148424000000
0.0144143000000
0.0136640000000
0.0126960000000
0.0115955000000
0.0103663000000
0.0090271300000
0.0076552200000
0.0063700900000
0.0052991100000
0.0045384700000
0.0041479500000
0.0041614200000
0.0047112100000
0.0059260400000
0.0076324400000
0.0094824300000
0.0112630000000
0.0129285000000
0.0145164000000
0.0160392000000
0.0174362000000
0.0184977000000
0.0189629000000
0.0186747000000
0.0176099000000
0.0158708000000
0.0136458000000
0.0111510000000
0.0085273900000
0.0058585200000
0.0032660600000
0.0009195880000
-0.0010133700000
-0.0024140900000
-0.0032370900000
-0.0034052500000
-0.0029004400000
-0.0019645900000
-0.0008801320000
0.0002926510000
0.0015148200000
0.0026054400000
0.0033003900000
0.0033949100000
0.0028623400000
0.0018523100000
0.0006301260000
-0.0005477650000
-0.0015171100000
-0.0021886500000
-0.0025371000000
-0.0026086300000
-0.0024389400000
-0.0019524400000
-0.0009632890000
0.0006964900000
0.0029278100000
0.0053871500000
0.0078168600000
0.0101189000000
0.0122605000000
0.0142437000000
0.0160835000000
0.0176275000000
0.0185935000000
0.0188009000000
0.0182550000000
0.0170768000000
0.0154215000000
0.0134332000000
0.0112665000000
0.0090963600000
0.0071367300000
0.0055687200000
0.0044318600000
0.0035706200000
0.0026727600000
0.0015381200000
0.0002050570000
-0.0012494800000
-0.0028186300000
-0.0045504100000
-0.0064322900000
-0.0082690500000
-0.0096961900000
-0.0103186000000
-0.0098638900000
-0.0083071800000
-0.0059431500000
-0.0031954800000
-0.0003558530000
0.0024584600000
0.0052476100000
0.0081044900000
0.0110974000000
0.0140176000000
0.0164872000000
0.0182225000000
0.0190733000000
0.0190359000000
0.0182676000000
0.0170151000000
0.0154805000000
0.0137631000000
0.0118690000000
0.0097399300000
0.0073623000000
0.0049503400000
0.0028025500000
0.0010505900000
-0.0003819330000
-0.0016721100000
-0.0028522400000
-0.0038400100000
-0.0046135100000
-0.0051942800000
-0.0056101700000
-0.0059770000000
-0.0064728100000
-0.0072186600000
-0.0082408300000
-0.0094722200000
-0.0107337000000
-0.0118122000000
-0.0126608000000
-0.0133303000000
-0.0137788000000
-0.0138873000000
-0.0135598000000
-0.0127430000000
-0.0114191000000
-0.0095771900000
-0.0073179200000
-0.0049116100000
-0.0025760300000
-0.0003536160000
0.0018235000000
0.0040495000000
0.0063700700000
0.0086793400000
0.0107449000000
0.0123848000000
0.0135075000000
0.0140217000000
0.0139078000000
0.0132839000000
0.0121850000000
0.0105343000000
0.0083188300000
0.0057031700000
0.0030092000000
0.0004495470000
-0.0019853100000
-0.0042736600000
-0.0063015500000
-0.0079586600000
-0.0091736700000
-0.0099251100000
-0.0101779000000
-0.0098790600000
-0.0089651100000
-0.0074185300000
-0.0053244500000
-0.0028072100000
0.0000210434000
0.0030969200000
0.0063301500000
0.0095145900000
0.0124580000000
0.0150920000000
0.0172937000000
0.0189260000000
0.0200564000000
0.0209183000000
0.0217394000000
0.0225916000000
0.0234382000000
0.0244484000000
0.0258818000000
0.0277683000000
0.0298800000000
0.0318768000000
0.0334936000000
0.0346030000000
0.0351397000000
0.0350274000000
0.0341939000000
0.0326964000000
0.0307625000000
0.0286927000000
0.0266810000000
0.0246966000000
0.0227225000000
0.0208792000000
0.0192031000000
0.0175332000000
0.0155682000000
0.0131157000000
0.0102524000000
0.0071454800000
0.0039636000000
0.0009102500000
-0.0018668000000
-0.0043754800000
-0.0067182700000
-0.0089649900000
-0.0109699000000
-0.0124446000000
-0.0131362000000
-0.0128891000000
-0.0117394000000
-0.0100806000000
-0.0084952000000
-0.0074494500000
-0.0071506200000
-0.0075368400000
-0.0083793600000
-0.0094032700000
-0.0103821000000
-0.0111556000000
-0.0116291000000
-0.0117563000000
-0.0115834000000
-0.0113148000000
-0.0112597000000
-0.0116853000000
-0.0126126000000
-0.0138508000000
-0.0152003000000
-0.0164426000000
-0.0172966000000
-0.0174531000000
-0.0167492000000
-0.0153674000000
-0.0136595000000
-0.0118777000000
-0.0101740000000
-0.0086714000000
-0.0075585200000
-0.0070302600000
-0.0071716000000
-0.0079643400000
-0.0092861500000
-0.0108690000000
-0.0124353000000
-0.0138794000000
-0.0151087000000
-0.0159147000000
-0.0159077000000
-0.0147298000000
-0.0123185000000
-0.0088323400000
-0.0045440000000
0.0001220870000
0.0047681200000
0.0093628900000
0.0140209000000
0.0187090000000
0.0233360000000
0.0277626000000
0.0315424000000
0.0341600000000
0.0354347000000
0.0355792000000
0.0350361000000
0.0341624000000
0.0330800000000
0.0316939000000
0.0298866000000
0.0276422000000
0.0249620000000
0.0218921000000
0.0186168000000
0.0153641000000
0.0122692000000
0.0092379400000
0.0061153000000
0.0029743300000
-0.0000365385000
-0.0028859900000
-0.0054997900000
-0.0077797900000
-0.0097975500000
-0.0117217000000
-0.0136573000000
-0.0155957000000
-0.0174700000000
-0.0192694000000
-0.0210359000000
-0.0227912000000
-0.0243897000000
-0.0255568000000
-0.0260569000000
-0.0258106000000
-0.0249194000000
-0.0235629000000
-0.0219273000000
-0.0202568000000
-0.0187782000000
-0.0175607000000
-0.0165654000000
-0.0157282000000
-0.0149449000000
-0.0140632000000
-0.0128997000000
-0.0114096000000
-0.0098213300000
-0.0084200500000
-0.0073566800000
-0.0066736700000
-0.0063027000000
-0.0060358000000
-0.0056962200000
-0.0052526200000
-0.0046851600000
-0.0039207200000
-0.0028787100000
-0.0015426000000
-0.0000153269000
0.0015195600000
0.0028768800000
0.0039535700000
0.0047043500000
0.0050985100000
0.0052262600000
0.0053171900000
0.0054210700000
0.0053799500000
0.0050237500000
0.0042260700000
0.0029069300000
0.0011540900000
-0.0007264780000
-0.0021333400000
-0.0023814600000
-0.0010608100000
0.0015236000000
0.0043949500000
0.0066556000000
0.0079091100000
0.0082643800000
0.0081695300000
0.0082078900000
0.0089781000000
0.0108327000000
0.0134452000000
0.0160021000000
0.0176961000000
0.0180618000000
0.0170904000000
0.0150717000000
0.0124919000000
0.0100054000000
0.0082359500000
0.0075492700000
0.0080106000000
0.0094357700000
0.0115264000000
0.0139518000000
0.0164031000000
0.0186745000000
0.0206317000000
0.0218207000000
0.0216316000000
0.0197573000000
0.0163775000000
0.0120989000000
0.0075623800000
0.0031884900000
-0.0009046290000
-0.0048058000000
-0.0086572700000
-0.0124341000000
-0.0159303000000
-0.0188588000000
-0.0209768000000
-0.0221717000000
-0.0225707000000
-0.0225264000000
-0.0223749000000
-0.0223055000000
-0.0223768000000
-0.0225586000000
-0.0227758000000
-0.0229143000000
-0.0228608000000
-0.0225598000000
-0.0220071000000
-0.0212120000000
-0.0202006000000
-0.0190423000000
-0.0178968000000
-0.0168347000000
-0.0155476000000
-0.0136377000000
-0.0109855000000
-0.0076607700000
-0.0038491600000
0.0000595101000
0.0036684000000
0.0068429100000
0.0096465100000
0.0121828000000
0.0143676000000
0.0159910000000
0.0168801000000
0.0167641000000
0.0152829000000
0.0123810000000
0.0083696400000
0.0035585000000
-0.0017713600000
-0.0072450800000
-0.0124875000000
-0.0172759000000
-0.0216643000000
-0.0257805000000
-0.0295091000000
-0.0325932000000
-0.0348623000000
-0.0362383000000
-0.0366931000000
-0.0361564000000
-0.0346070000000
-0.0322195000000
-0.0293559000000
-0.0264140000000
-0.0235398000000
-0.0206884000000
-0.0178499000000
-0.0150957000000
-0.0125381000000
-0.0103828000000
-0.0088348500000
-0.0079512700000
-0.0076580800000
-0.0078080500000
-0.0081392500000
-0.0082659200000
-0.0076310200000
-0.0058489800000
-0.0030944000000
0.0001487600000
0.0034338900000
0.0065360200000
0.0094371700000
0.0122224000000
0.0149441000000
0.0175397000000
0.0197566000000
0.0212864000000
0.0219872000000
0.0219346000000
0.0213533000000
0.0205116000000
0.0196405000000
0.0189285000000
0.0184890000000
0.0183312000000
0.0184143000000
0.0186837000000
0.0189954000000
0.0191106000000
0.0187259000000
0.0175884000000
0.0156229000000
0.0129361000000
0.0097728500000
0.0064445400000
0.0031901300000
0.0000461127000
-0.0030249600000
-0.0059924800000
-0.0086728800000
-0.0108117000000
-0.0121965000000
-0.0127324000000
-0.0125025000000
-0.0118532000000
-0.0113386000000
-0.0116430000000
-0.0133236000000
-0.0165218000000
-0.0208886000000
-0.0257370000000
-0.0304692000000
-0.0347898000000
-0.0387197000000
-0.0424622000000
-0.0462270000000
-0.0499481000000
-0.0532812000000
-0.0557496000000
-0.0570033000000
-0.0570220000000
-0.0560318000000
-0.0543585000000
-0.0522854000000
-0.0500261000000
-0.0477675000000
-0.0456687000000
-0.0438184000000
-0.0421343000000
-0.0404637000000
-0.0388130000000
-0.0373068000000
-0.0360564000000
-0.0351811000000
-0.0347804000000
-0.0348458000000
-0.0351939000000
-0.0354956000000
-0.0355224000000
-0.0352623000000
-0.0347860000000
-0.0341741000000
-0.0335251000000
-0.0330136000000
-0.0328529000000
-0.0331353000000
-0.0338485000000
-0.0350371000000
-0.0368356000000
-0.0393994000000
-0.0429059000000
-0.0474103000000
-0.0526343000000
-0.0580843000000
-0.0633146000000
-0.0681482000000
-0.0726662000000
-0.0769440000000
-0.0808450000000
-0.0839834000000
-0.0860084000000
-0.0868735000000
-0.0869052000000
-0.0866358000000
-0.0865547000000
-0.0869262000000
-0.0877187000000
-0.0885686000000
-0.0886799000000
-0.0866440000000
-0.0811828000000
-0.0719707000000
-0.0593424000000
-0.0439271000000
-0.0263491000000
-0.0073733600000
0.0119386000000
0.0305695000000
0.0477686000000
0.0625938000000
0.0741282000000
0.0819560000000
0.0858536000000
0.0857253000000
0.0817315000000
0.0745079000000
0.0651672000000
0.0545414000000
0.0427298000000
0.0294402000000
0.0145686000000
-0.0013088300000
-0.0170062000000
-0.0312430000000
-0.0434206000000
-0.0538119000000
-0.0630080000000
-0.0713570000000
-0.0787114000000
-0.0847759000000
-0.0894555000000
-0.0927921000000
-0.0949626000000
-0.0963245000000
-0.0972601000000
-0.0980298000000
-0.0986670000000
-0.0989924000000
-0.0986948000000
-0.0976393000000
-0.0960342000000
-0.0940801000000
-0.0918549000000
-0.0895077000000
-0.0872708000000
-0.0853780000000
-0.0841256000000
-0.0837762000000
-0.0843364000000
-0.0855485000000
-0.0870009000000
-0.0881205000000
-0.0883033000000
-0.0871362000000
-0.0845580000000
-0.0808638000000
-0.0764033000000
-0.0713912000000
-0.0660841000000
-0.0607492000000
-0.0553736000000
-0.0497791000000
-0.0438747000000
-0.0377175000000
-0.0314636000000
-0.0253224000000
-0.0195567000000
-0.0144285000000
-0.0097842300000
-0.0049976400000
0.0004170220000
0.0065112400000
0.0129803000000
0.0194714000000
0.0257966000000
0.0317631000000
0.0371376000000
0.0417925000000
0.0458359000000
0.0495750000000
0.0529283000000
0.0553156000000
0.0560326000000
0.0546483000000
0.0512141000000
0.0460694000000
0.0396634000000
0.0325093000000
0.0251362000000
0.0180021000000
0.0114244000000
0.0055137800000
0.0002319840000
-0.0044248900000
-0.0079903300000
-0.0097369200000
-0.0091760700000
-0.0062936600000
-0.0015376700000
0.0044949300000
0.0112730000000
0.0183882000000
0.0254011000000
0.0318270000000
0.0374552000000
0.0423759000000
0.0466564000000
0.0498941000000
0.0511748000000
0.0496413000000
0.0450056000000
0.0375274000000
0.0277473000000
0.0161954000000
0.0032197300000
-0.0109030000000
-0.0255159000000
-0.0397472000000
-0.0529805000000
-0.0648562000000
-0.0751994000000
-0.0838991000000
-0.0909080000000
-0.0962040000000
-0.0998573000000
-0.1021380000000
-0.1034910000000
-0.1044320000000
-0.1054140000000
-0.1067020000000
-0.1083040000000
-0.1100720000000
-0.1118090000000
-0.1133390000000
-0.1145100000000
-0.1151970000000
-0.1153450000000
-0.1150420000000
-0.1145380000000
-0.1141730000000
-0.1142310000000
-0.1148240000000
-0.1158530000000
-0.1172010000000
-0.1188450000000
-0.1208980000000
-0.1235150000000
-0.1267600000000
-0.1305480000000
-0.1346690000000
-0.1389600000000
-0.1435000000000
-0.1487620000000
-0.1551200000000
-0.1623530000000
-0.1697630000000
-0.1765820000000
-0.1823910000000
-0.1868890000000
-0.1895180000000
-0.1893420000000
-0.1853960000000
-0.1766590000000
-0.1625510000000
-0.1433840000000
-0.1197570000000
-0.0922830000000
-0.0625992000000
-0.0332327000000
-0.0064279700000
0.0164003000000
0.0348400000000
0.0494070000000
0.0612470000000
0.0712486000000
0.0798791000000
0.0874127000000
0.0939396000000
0.0994222000000
0.1039550000000
0.1077590000000
0.1109210000000
0.1133250000000
0.1147750000000
0.1151400000000
0.1144660000000
0.1129140000000
0.1106100000000
0.1075180000000
0.1036050000000
0.0989691000000
0.0936192000000
0.0873679000000
0.0798583000000
0.0709623000000
0.0611048000000
0.0509646000000
0.0410471000000
0.0312805000000
0.0213973000000
0.0115030000000
0.0018951100000
-0.0072235300000
-0.0156001000000
-0.0229416000000
-0.0290019000000
-0.0335290000000
-0.0363064000000
-0.0373149000000
-0.0368340000000
-0.0353937000000
-0.0336276000000
-0.0320495000000
-0.0306274000000
-0.0288853000000
-0.0268668000000
-0.0251828000000
-0.0244396000000
-0.0249824000000
-0.0268027000000
-0.0296343000000
-0.0331254000000
-0.0370844000000
-0.0413966000000
-0.0458546000000
-0.0501523000000
-0.0540119000000
-0.0573175000000
-0.0600920000000
-0.0623528000000
-0.0639475000000
-0.0645467000000
-0.0637244000000
-0.0612135000000
-0.0571842000000
-0.0521513000000
-0.0467080000000
-0.0410822000000
-0.0351109000000
-0.0285826000000
-0.0215288000000
-0.0142707000000
-0.0069625600000
0.0006126190000
0.0085177500000
0.0165069000000
0.0242252000000
0.0315165000000
0.0385783000000
0.0458784000000
0.0539058000000
0.0629687000000
0.0730427000000
0.0837446000000
0.0945949000000
0.1052530000000
0.1154840000000
0.1251040000000
0.1339230000000
0.1418360000000
0.1489280000000
0.1553490000000
0.1611980000000
0.1663910000000
0.1706970000000
0.1738740000000
0.1758680000000
0.1769820000000
0.1781420000000
0.1803480000000
0.1836800000000
0.1874920000000
0.1910850000000
0.1942050000000
0.1970270000000
0.1996950000000
0.2022180000000
0.2046350000000
0.2070200000000
0.2094290000000
0.2117450000000
0.2137290000000
0.2151710000000
0.2159090000000
0.2158050000000
0.2146550000000
0.2122730000000
0.2086740000000
0.2039710000000
0.1981430000000
0.1910020000000
0.1823550000000
0.1720830000000
0.1602780000000
0.1473680000000
0.1339090000000
0.1203820000000
0.1073990000000
0.0956431000000
0.0854624000000
0.0767677000000
0.0692044000000
0.0624758000000
0.0565132000000
0.0515287000000
0.0478206000000
0.0455419000000
0.0446616000000
0.0450173000000
0.0464742000000
0.0489513000000
0.0524066000000
0.0567384000000
0.0617146000000
0.0671294000000
0.0729149000000
0.0790213000000
0.0853912000000
0.0920758000000
0.0991123000000
0.1063490000000
0.1135880000000
0.1207070000000
0.1275810000000
0.1340760000000
0.1401110000000
0.1455950000000
0.1504150000000
0.1544030000000
0.1574020000000
0.1592620000000
0.1599660000000
0.1597390000000
0.1589150000000
0.1578010000000
0.1567120000000
0.1559100000000
0.1554470000000
0.1548450000000
0.1530630000000
0.1488090000000
0.1410940000000
0.1294240000000
0.1134670000000
0.0927365000000
0.0671791000000
0.0378344000000
0.0073330300000
-0.0210894000000
-0.0451360000000
-0.0638028000000
-0.0773280000000
-0.0869198000000
-0.0943081000000
-0.1009920000000
-0.1077940000000
-0.1147720000000
-0.1218380000000
-0.1291260000000
-0.1369200000000
-0.1453590000000
-0.1542590000000
-0.1635190000000
-0.1733880000000
-0.1839910000000
-0.1951530000000
-0.2066480000000
-0.2183080000000
-0.2299820000000
-0.2414150000000
-0.2522000000000
-0.2616690000000
-0.2694160000000
-0.2759780000000
-0.2821210000000
-0.2881650000000
-0.2941570000000
-0.2999880000000
-0.3051360000000
-0.3090140000000
-0.3113850000000
-0.3121280000000
-0.3111070000000
-0.3082730000000
-0.3036720000000
-0.2973710000000
-0.2892180000000
-0.2788770000000
-0.2657910000000
-0.2494110000000
-0.2291800000000
-0.2038540000000
-0.1715620000000
-0.1316390000000
-0.0855925000000
-0.0366631000000
0.0110250000000
0.0533847000000
0.0875165000000
0.1127010000000
0.1303260000000
0.1428960000000
0.1526060000000
0.1608480000000
0.1683240000000
0.1751990000000
0.1812990000000
0.1862520000000
0.1897290000000
0.1916770000000
0.1922660000000
0.1918150000000
0.1907570000000
0.1895370000000
0.1884640000000
0.1876690000000
0.1871320000000
0.1867470000000
0.1864330000000
0.1862590000000
0.1863290000000
0.1866260000000
0.1871880000000
0.1881370000000
0.1893850000000
0.1907030000000
0.1919650000000
0.1929960000000
0.1934010000000
0.1923240000000
0.1887570000000
0.1819980000000
0.1717020000000
0.1578900000000
0.1409470000000
0.1215600000000
0.1003310000000
0.0778164000000
0.0548306000000
0.0327395000000
0.0131286000000
-0.0031258800000
-0.0160931000000
-0.0262786000000
-0.0343274000000
-0.0409363000000
-0.0466892000000
-0.0520110000000
-0.0572466000000
-0.0628299000000
-0.0693089000000
-0.0768093000000
-0.0847982000000
-0.0924611000000
-0.0992419000000
-0.1052380000000
-0.1108310000000
-0.1162090000000
-0.1207870000000
-0.1234790000000
-0.1233580000000
-0.1200890000000
-0.1141420000000
-0.1066250000000
-0.0987572000000
-0.0911736000000
-0.0839229000000
-0.0768081000000
-0.0698864000000
-0.0635442000000
-0.0583281000000
-0.0546826000000
-0.0527224000000
-0.0521694000000
-0.0524604000000
-0.0529776000000
-0.0532713000000
-0.0531775000000
-0.0526899000000
-0.0518743000000
-0.0509931000000
-0.0505001000000
-0.0509154000000
-0.0525717000000
-0.0554376000000
-0.0592590000000
-0.0637288000000
-0.0686432000000
-0.0739732000000
-0.0797892000000
-0.0859852000000
-0.0922337000000
-0.0981555000000
-0.1036350000000
-0.1089490000000
-0.1143580000000
-0.1198620000000
-0.1252580000000
-0.1302860000000
-0.1347760000000
-0.1387430000000
-0.1423430000000
-0.1456640000000
-0.1486110000000
-0.1508960000000
-0.1521970000000
-0.1522900000000
-0.1508740000000
-0.1477740000000
-0.1432900000000
-0.1379220000000
-0.1319800000000
-0.1250210000000
-0.1163120000000
-0.1057510000000
-0.0938404000000
-0.0812624000000
-0.0684246000000
-0.0554251000000
-0.0422619000000
-0.0289137000000
-0.0153725000000
-0.0018986800000
0.0109749000000
0.0225835000000
0.0324893000000
0.0407723000000
0.0478165000000
0.0540120000000
0.0594155000000
0.0638136000000
0.0669858000000
0.0688501000000
0.0695548000000
0.0695159000000
0.0693007000000
0.0694387000000
0.0703220000000
0.0721213000000
0.0747632000000
0.0779732000000
0.0813856000000
0.0847089000000
0.0878219000000
0.0906504000000
0.0931100000000
0.0951041000000
0.0965020000000
0.0971421000000
0.0967979000000
0.0952831000000
0.0925765000000
0.0887717000000
0.0840026000000
0.0784851000000
0.0725018000000
0.0662283000000
0.0596980000000
0.0528780000000
0.0457766000000
0.0384637000000
0.0309522000000
0.0232907000000
0.0157173000000
0.0085121100000
0.0018170000000
-0.0043920500000
-0.0102553000000
-0.0159412000000
-0.0215251000000
-0.0269553000000
-0.0321122000000
-0.0368967000000
-0.0412934000000
-0.0453690000000
-0.0492287000000
-0.0528905000000
-0.0562991000000
-0.0594179000000
-0.0622041000000
-0.0646009000000
-0.0666346000000
-0.0684047000000
-0.0699263000000
-0.0709844000000
-0.0711631000000
-0.0700768000000
-0.0675777000000
-0.0637757000000
-0.0589316000000
-0.0532725000000
-0.0465273000000
-0.0382423000000
-0.0288013000000
-0.0190300000000
-0.0093026900000
0.0003060180000
0.0097424800000
0.0189242000000
0.0277621000000
0.0361680000000
0.0440739000000
0.0514785000000
0.0585015000000
0.0652501000000
0.0716636000000
0.0776820000000
0.0833767000000
0.0887394000000
0.0936255000000
0.0978365000000
0.1012880000000
0.1041020000000
0.1064640000000
0.1084500000000
0.1098870000000
0.1104460000000
0.1098240000000
0.1076780000000
0.1037470000000
0.0980235000000
0.0906902000000
0.0820091000000
0.0721420000000
0.0611755000000
0.0492426000000
0.0366875000000
0.0241021000000
0.0121522000000
0.0013599000000
-0.0079299700000
-0.0155522000000
-0.0214997000000
-0.0256676000000
-0.0278969000000
-0.0281906000000
-0.0268320000000
-0.0243355000000
-0.0210824000000
-0.0172238000000
-0.0129689000000
-0.0086046200000
-0.0043499800000
-0.0004137060000
0.0029901300000
0.0056736100000
0.0075640000000
0.0087566000000
0.0093928200000
0.0095895400000
0.0094940800000
0.0092240400000
0.0087402500000
0.0079905600000
0.0070346800000
0.0059106700000
0.0046381400000
0.0033712600000
0.0023308300000
0.0016515400000
0.0012923600000
0.0011108000000
0.0010511300000
0.0010899700000
0.0011176400000
0.0010043100000
0.0006805790000
0.0001658580000
-0.0003720110000
-0.0006071610000
-0.0002832100000
0.0006171040000
0.0018970700000
0.0033380600000
0.0048931700000
0.0065968700000
0.0084249700000
0.0102258000000
0.0118205000000
0.0131531000000
0.0142203000000
0.0149921000000
0.0154113000000
0.0154497000000
0.0151485000000
0.0146036000000
0.0139273000000
0.0132181000000
0.0125804000000
0.0122146000000
0.0123496000000
0.0131085000000
0.0144664000000
0.0162719000000
0.0183208000000
0.0204038000000
0.0223180000000
0.0237911000000
0.0245251000000
0.0242919000000
0.0229970000000
0.0207117000000
0.0177707000000
0.0146879000000
0.0116829000000
0.0087412200000
0.0060314900000
0.0038494900000
0.0024242100000
0.0020624800000
0.0030904700000
0.0056753100000
0.0097046300000
0.0147994000000
0.0206788000000
0.0272001000000
0.0340833000000
0.0410887000000
0.0482475000000
0.0554939000000
0.0624949000000
0.0688098000000
0.0741509000000
0.0785513000000
0.0821709000000
0.0851485000000
0.0875767000000
0.0895027000000
0.0909169000000
0.0917836000000
0.0921054000000
0.0919529000000
0.0914190000000
0.0905329000000
0.0892945000000
0.0877360000000
0.0858841000000
0.0837425000000
0.0813052000000
0.0786382000000
0.0759009000000
0.0731367000000
0.0702338000000
0.0670809000000
0.0636887000000
0.0602127000000
0.0568172000000
0.0535448000000
0.0502215000000
0.0466305000000
0.0427366000000
0.0385790000000
0.0341901000000
0.0297392000000
0.0254999000000
0.0216782000000
0.0182531000000
0.0149508000000
0.0114170000000
0.0074383900000
0.0031319700000
-0.0011992000000
-0.0053071300000
-0.0091635300000
-0.0129101000000
-0.0166815000000
-0.0205851000000
-0.0247579000000
-0.0293306000000
-0.0343365000000
-0.0395696000000
-0.0447412000000
-0.0497331000000
-0.0545889000000
-0.0594158000000
-0.0643589000000
-0.0695246000000
-0.0748862000000
-0.0802699000000
-0.0854390000000
-0.0902582000000
-0.0946458000000
-0.0983105000000
-0.1009180000000
-0.1023780000000
-0.1027390000000
-0.1020480000000
-0.1001260000000
-0.0967342000000
-0.0918574000000
-0.0857024000000
-0.0786236000000
-0.0710537000000
-0.0633317000000
-0.0555382000000
-0.0476490000000
-0.0396746000000
-0.0315237000000
-0.0230594000000
-0.0143241000000
-0.0056076200000
0.0026499900000
0.0100392000000
0.0163693000000
0.0217714000000
0.0265393000000
0.0309087000000
0.0349172000000
0.0384127000000
0.0410455000000
0.0425124000000
0.0428392000000
0.0423208000000
0.0413414000000
0.0401476000000
0.0388609000000
0.0376109000000
0.0364848000000
0.0354743000000
0.0346014000000
0.0339515000000
0.0336250000000
0.0337308000000
0.0343617000000
0.0355316000000
0.0371478000000
0.0390547000000
0.0410906000000
0.0431328000000
0.0451153000000
0.0470167000000
0.0488010000000
0.0504075000000
0.0517635000000
0.0527636000000
0.0533035000000
0.0533513000000
0.0529041000000
0.0518616000000
0.0501148000000
0.0476458000000
0.0442697000000
0.0397581000000
0.0342497000000
0.0280561000000
0.0213286000000
0.0141460000000
0.0066314200000
-0.0010917300000
-0.0090259600000
-0.0173304000000
-0.0259555000000
-0.0345222000000
-0.0425952000000
-0.0498830000000
-0.0563007000000
-0.0618411000000
-0.0665006000000
-0.0701838000000
-0.0728177000000
-0.0745108000000
-0.0755171000000
-0.0761305000000
-0.0765584000000
-0.0769232000000
-0.0773230000000
-0.0778202000000
-0.0784134000000
-0.0790153000000
-0.0795079000000
-0.0798158000000
-0.0798891000000
-0.0796802000000
-0.0790894000000
-0.0779802000000
-0.0762144000000
-0.0735590000000
-0.0697616000000
-0.0647223000000
-0.0585391000000
-0.0514380000000
-0.0436050000000
-0.0351906000000
-0.0265161000000
-0.0179438000000
-0.0096250300000
-0.0016376400000
0.0059031400000
0.0128063000000
0.0188559000000
0.0238828000000
0.0277974000000
0.0306500000000
0.0326524000000
0.0341364000000
0.0354567000000
0.0368108000000
0.0382001000000
0.0395905000000
0.0410204000000
0.0426012000000
0.0443648000000
0.0461932000000
0.0478854000000
0.0492231000000
0.0499979000000
0.0499235000000
0.0487045000000
0.0461768000000
0.0424253000000
0.0377873000000
0.0325870000000
0.0270196000000
0.0212854000000
0.0155689000000
0.0099432200000
0.0045025900000
-0.0005638820000
-0.0049409000000
-0.0083613300000
-0.0107954000000
-0.0123576000000
-0.0132189000000
-0.0135893000000
-0.0136854000000
-0.0136775000000
-0.0136316000000
-0.0135179000000
-0.0132798000000
-0.0128595000000
-0.0121941000000
-0.0112170000000
-0.0099139300000
-0.0084277000000
-0.0069900000000
-0.0057749800000
-0.0048869500000
-0.0043585200000
-0.0041409300000
-0.0041033500000
-0.0040717900000
-0.0039366700000
-0.0036924000000
-0.0033346500000
-0.0027763100000
-0.0018534700000
-0.0005464420000
0.0009878710000
0.0027298600000
0.0048015900000
0.0072818900000
0.0101939000000
0.0135101000000
0.0171601000000
0.0211041000000
0.0254178000000
0.0301975000000
0.0354326000000
0.0409304000000
0.0464915000000
0.0521500000000
0.0580438000000
0.0641873000000
0.0702732000000
0.0758592000000
0.0807240000000
0.0848477000000
0.0882878000000
0.0909884000000
0.0928159000000
0.0936766000000
0.0935753000000
0.0926471000000
0.0911612000000
0.0894302000000
0.0876613000000
0.0859587000000
0.0843828000000
0.0829484000000
0.0816120000000
0.0802623000000
0.0787787000000
0.0771064000000
0.0752986000000
0.0734830000000
0.0717650000000
0.0701181000000
0.0683449000000
0.0662255000000
0.0636572000000
0.0606683000000
0.0573308000000
0.0536705000000
0.0496957000000
0.0454607000000
0.0410975000000
0.0367653000000
0.0325766000000
0.0286399000000
0.0250679000000
0.0219568000000
0.0193690000000
0.0173626000000
0.0160373000000
0.0154988000000
0.0157912000000
0.0168406000000
0.0184675000000
0.0205059000000
0.0228776000000
0.0255398000000
0.0284064000000
0.0313005000000
0.0340882000000
0.0367905000000
0.0394695000000
0.0421498000000
0.0448210000000
0.0473822000000
0.0496180000000
0.0512622000000
0.0520843000000
0.0518537000000
0.0503756000000
0.0475809000000
0.0435151000000
0.0383677000000
0.0324620000000
0.0259777000000
0.0187368000000
0.0107135000000
0.0022798800000
-0.0061469000000
-0.0142385000000
-0.0216770000000
-0.0282029000000
-0.0337254000000
-0.0383604000000
-0.0423181000000
-0.0457401000000
-0.0486912000000
-0.0512114000000
-0.0532365000000
-0.0546849000000
-0.0556046000000
-0.0560694000000
-0.0560851000000
-0.0556307000000
-0.0546703000000
-0.0530792000000
-0.0506661000000
-0.0472872000000
-0.0429866000000
-0.0379829000000
-0.0323392000000
-0.0259792000000
-0.0189186000000
-0.0113436000000
-0.0035726700000
0.0041334300000
0.0116382000000
0.0187493000000
0.0252939000000
0.0313259000000
0.0369253000000
0.0420512000000
0.0468208000000
0.0515467000000
0.0562927000000
0.0609038000000
0.0653114000000
0.0695687000000
0.0737428000000
0.0777378000000
0.0813510000000
0.0845864000000
0.0876143000000
0.0905382000000
0.0933443000000
0.0959723000000
0.0984148000000
0.1007150000000
0.1028000000000
0.1045260000000
0.1058180000000
0.1066190000000
0.1068500000000
0.1064960000000
0.1056370000000
0.1043820000000
0.1028340000000
0.1010920000000
0.0991789000000
0.0970562000000
0.0948386000000
0.0927660000000
0.0908971000000
0.0891603000000
0.0875792000000
0.0862687000000
0.0853301000000
0.0847857000000
0.0845693000000
0.0845671000000
0.0846811000000
0.0848844000000
0.0852229000000
0.0857584000000
0.0864392000000
0.0871094000000
0.0876299000000
0.0879358000000
0.0880450000000
0.0880556000000
0.0881044000000
0.0882565000000
0.0884833000000
0.0887209000000
0.0889128000000
0.0890300000000
0.0890719000000
0.0890521000000
0.0889467000000
0.0886433000000
0.0878483000000
0.0863135000000
0.0841235000000
0.0815492000000
0.0788479000000
0.0761856000000
0.0736234000000
0.0711072000000
0.0685763000000
0.0660715000000
0.0637184000000
0.0616503000000
0.0600208000000
0.0589874000000
0.0587296000000
0.0593297000000
0.0606467000000
0.0624181000000
0.0643822000000
0.0663064000000
0.0680398000000
0.0695839000000
0.0710212000000
0.0724158000000
0.0738300000000
0.0753252000000
0.0768492000000
0.0782757000000
0.0795468000000
0.0806387000000
0.0815024000000
0.0821694000000
0.0827813000000
0.0834389000000
0.0841422000000
0.0848018000000
0.0852855000000
0.0854716000000
0.0852726000000
0.0846608000000
0.0836886000000
0.0824473000000
0.0809979000000
0.0793159000000
0.0773074000000
0.0748632000000
0.0719131000000
0.0683956000000
0.0643150000000
0.0598185000000
0.0551338000000
0.0504437000000
0.0457146000000
0.0407675000000
0.0355559000000
0.0301840000000
0.0247977000000
0.0195713000000
0.0146956000000
0.0103539000000
0.0066275300000
0.0033635300000
0.0002948200000
-0.0027668900000
-0.0058309000000
-0.0087645200000
-0.0113831000000
-0.0135774000000
-0.0153991000000
-0.0170101000000
-0.0185751000000
-0.0201737000000
-0.0217815000000
-0.0232919000000
-0.0245870000000
-0.0256169000000
-0.0264054000000
-0.0270217000000
-0.0275103000000
-0.0278940000000
-0.0282782000000
-0.0287810000000
-0.0293822000000
-0.0300278000000
-0.0307281000000
-0.0314504000000
-0.0320849000000
-0.0325355000000
-0.0327267000000
-0.0325759000000
-0.0320632000000
-0.0312774000000
-0.0302751000000
-0.0290356000000
-0.0274952000000
-0.0255891000000
-0.0232926000000
-0.0207020000000
-0.0180333000000
-0.0154963000000
-0.0131918000000
-0.0110760000000
-0.0090670500000
-0.0071645200000
-0.0054125800000
-0.0038396100000
-0.0024795200000
-0.0013609400000
-0.0004717340000
0.0002135230000
0.0006991970000
0.0009545730000
0.0009524460000
0.0007457700000
0.0004216960000
-0.0000305881000
-0.0007053960000
-0.0016999800000
-0.0030496300000
-0.0047171800000
-0.0066619800000
-0.0088874000000
-0.0114419000000
-0.0142856000000
-0.0172113000000
-0.0200262000000
-0.0226606000000
-0.0251440000000
-0.0275490000000
-0.0299526000000
-0.0324043000000
-0.0349102000000
-0.0373537000000
-0.0395637000000
-0.0414344000000
-0.0429036000000
-0.0439301000000
-0.0445703000000
-0.0449554000000
-0.0451456000000
-0.0451542000000
-0.0450470000000
-0.0449503000000
-0.0449989000000
-0.0452696000000
-0.0457817000000
-0.0465353000000
-0.0475129000000
-0.0486767000000
-0.0500561000000
-0.0516998000000
-0.0535286000000
-0.0553996000000
-0.0572385000000
-0.0590392000000
-0.0608378000000
-0.0627172000000
-0.0647467000000
-0.0668966000000
-0.0690464000000
-0.0710562000000
-0.0728815000000
-0.0745652000000
-0.0761353000000
-0.0775405000000
-0.0786607000000
-0.0793648000000
-0.0795984000000
-0.0794571000000
-0.0791334000000
-0.0788067000000
-0.0785905000000
-0.0785186000000
-0.0785653000000
-0.0786731000000
-0.0787887000000
-0.0789054000000
-0.0790497000000
-0.0790961000000
-0.0788150000000
-0.0781486000000
-0.0772482000000
-0.0763597000000
-0.0757273000000
-0.0754873000000
-0.0755085000000
-0.0755390000000
-0.0755073000000
-0.0754972000000
-0.0756043000000
-0.0758363000000
-0.0761189000000
-0.0763538000000
-0.0764299000000
-0.0762261000000
-0.0756650000000
-0.0747550000000
-0.0735678000000
-0.0721296000000
-0.0703124000000
-0.0680144000000
-0.0653231000000
-0.0624319000000
-0.0595284000000
-0.0567311000000
-0.0540798000000
-0.0515447000000
-0.0490269000000
-0.0464084000000
-0.0436632000000
-0.0408733000000
-0.0381814000000
-0.0357417000000
-0.0336614000000
-0.0319582000000
-0.0305944000000
-0.0295639000000
-0.0288471000000
-0.0283523000000
-0.0280344000000
-0.0279372000000
-0.0281481000000
-0.0287254000000
-0.0296577000000
-0.0309370000000
-0.0325790000000
-0.0345280000000
-0.0367048000000
-0.0391439000000
-0.0418806000000
-0.0448166000000
-0.0477935000000
-0.0506967000000
-0.0535227000000
-0.0563193000000
-0.0590936000000
-0.0617867000000
-0.0643153000000
-0.0666335000000
-0.0687719000000
-0.0708354000000
-0.0728867000000
-0.0748683000000
-0.0766462000000
-0.0781009000000
-0.0791982000000
-0.0799654000000
-0.0804467000000
-0.0806987000000
-0.0807958000000
-0.0808091000000
-0.0807743000000
-0.0806637000000
-0.0804265000000
-0.0800384000000
-0.0795106000000
-0.0788654000000
-0.0780925000000
-0.0771659000000
-0.0760931000000
-0.0749471000000
-0.0738331000000
-0.0727823000000
-0.0717526000000
-0.0706989000000
-0.0696613000000
-0.0687656000000
-0.0681207000000
-0.0677400000000
-0.0675310000000
-0.0674366000000
-0.0675420000000
-0.0680028000000
-0.0688944000000
-0.0700532000000
-0.0712440000000
-0.0724168000000
-0.0736573000000
-0.0750422000000
-0.0765097000000
-0.0779375000000
-0.0793142000000
-0.0806605000000
-0.0819189000000
-0.0829727000000
-0.0837612000000
-0.0844287000000
-0.0851857000000
-0.0860908000000
-0.0870786000000
-0.0880605000000
-0.0890180000000
-0.0899747000000
-0.0909151000000
-0.0917969000000
-0.0926007000000
-0.0933735000000
-0.0941781000000
-0.0949633000000
-0.0955836000000
-0.0959027000000
-0.0958977000000
-0.0956632000000
-0.0952878000000
-0.0947957000000
-0.0941611000000
-0.0933813000000
-0.0925063000000
-0.0915154000000
-0.0902893000000
-0.0886601000000
-0.0865350000000
-0.0839962000000
-0.0812644000000
-0.0785931000000
-0.0761526000000
-0.0739987000000
-0.0721008000000
-0.0704339000000
-0.0690102000000
-0.0678419000000
-0.0669223000000
-0.0662624000000
-0.0659206000000
-0.0659817000000
-0.0664423000000
-0.0671937000000
-0.0681301000000
-0.0691644000000
-0.0701951000000
-0.0711703000000
-0.0721266000000
-0.0731777000000
-0.0744436000000
-0.0759682000000
-0.0776626000000
-0.0793394000000
-0.0809356000000
-0.0825351000000
-0.0841174000000
-0.0855755000000
-0.0868664000000
-0.0879586000000
-0.0887709000000
-0.0891444000000
-0.0889619000000
-0.0883142000000
-0.0873690000000
-0.0861857000000
-0.0846441000000
-0.0825520000000
-0.0798164000000
-0.0764959000000
-0.0727574000000
-0.0688033000000
-0.0647981000000
-0.0608032000000
-0.0567863000000
-0.0526923000000
-0.0485346000000
-0.0444264000000
-0.0404205000000
-0.0364474000000
-0.0324036000000
-0.0282209000000
-0.0238998000000
-0.0195803000000
-0.0154931000000
-0.0116908000000
-0.0080379600000
-0.0044568000000
-0.0010045600000
0.0021639000000
0.0048480900000
0.0068973800000
0.0083044000000
0.0091993800000
0.0097757900000
0.0101589000000
0.0103649000000
0.0104080000000
0.0103362000000
0.0101599000000
0.0098599900000
0.0094408000000
0.0090035500000
0.0087104200000
0.0086368900000
0.0087603400000
0.0090552600000
0.0095317100000
0.0102072000000
0.0109962000000
0.0117395000000
0.0123600000000
0.0129045000000
0.0134750000000
0.0140255000000
0.0143426000000
0.0142807000000
0.0138314000000
0.0130442000000
0.0119938000000
0.0107698000000
0.0094176600000
0.0079614100000
0.0065008000000
0.0051060200000
0.0036846600000
0.0021445900000
0.0005227370000
-0.0010410000000
-0.0024160900000
-0.0036037900000
-0.0047847800000
-0.0062350600000
-0.0080480800000
-0.0101183000000
-0.0124404000000
-0.0150470000000
-0.0178008000000
-0.0204831000000
-0.0229366000000
-0.0251123000000
-0.0270362000000
-0.0287323000000
-0.0301392000000
-0.0311140000000
-0.0315522000000
-0.0314528000000
-0.0308329000000
-0.0297661000000
-0.0284621000000
-0.0271394000000
-0.0259050000000
-0.0247663000000
-0.0236938000000
-0.0226886000000
-0.0217751000000
-0.0209670000000
-0.0202926000000
-0.0197928000000
-0.0194796000000
-0.0192877000000
-0.0190508000000
-0.0186198000000
-0.0179660000000
-0.0171130000000
-0.0160887000000
-0.0149380000000
-0.0137616000000
-0.0127233000000
-0.0119343000000
-0.0113880000000
-0.0110893000000
-0.0110891000000
-0.0114429000000
-0.0121911000000
-0.0133447000000
-0.0149008000000
-0.0168257000000
-0.0190134000000
-0.0213433000000
-0.0237628000000
-0.0261626000000
-0.0283276000000
-0.0301570000000
-0.0317133000000
-0.0330478000000
-0.0341937000000
-0.0352361000000
-0.0362790000000
-0.0373862000000
-0.0385284000000
-0.0396170000000
-0.0405814000000
-0.0413967000000
-0.0420713000000
-0.0425617000000
-0.0427905000000
-0.0427696000000
-0.0425991000000
-0.0423892000000
-0.0421858000000
-0.0419590000000
-0.0416528000000
-0.0412029000000
-0.0404993000000
-0.0394902000000
-0.0382717000000
-0.0369046000000
-0.0353457000000
-0.0336225000000
-0.0317675000000
-0.0296162000000
-0.0270470000000
-0.0241983000000
-0.0212545000000
-0.0183301000000
-0.0156002000000
-0.0132316000000
-0.0112365000000
-0.0095356300000
-0.0080260500000
-0.0065304700000
-0.0048887900000
-0.0031514400000
-0.0014525100000
0.0001601980000
0.0016098000000
0.0027503300000
0.0034964400000
0.0039278800000
0.0043130700000
0.0048623000000
0.0055616600000
0.0063128600000
0.0070489300000
0.0077418600000
0.0084152900000
0.0091342900000
0.0098966600000
0.0106066000000
0.0112083000000
0.0117075000000
0.0120950000000
0.0123231000000
0.0123383000000
0.0121596000000
0.0118860000000
0.0116159000000
0.0113454000000
0.0109105000000
0.0101175000000
0.0088808500000
0.0072395100000
0.0052991200000
0.0031481000000
0.0008439350000
-0.0015759500000
-0.0041599400000
-0.0070168500000
-0.0102075000000
-0.0136669000000
-0.0171952000000
-0.0206039000000
-0.0238163000000
-0.0267638000000
-0.0293454000000
-0.0314469000000
-0.0330075000000
-0.0340794000000
-0.0347595000000
-0.0351357000000
-0.0352485000000
-0.0351142000000
-0.0347675000000
-0.0342629000000
-0.0336689000000
-0.0330847000000
-0.0325693000000
-0.0320100000000
-0.0312611000000
-0.0303319000000
-0.0293716000000
-0.0285360000000
-0.0277816000000
-0.0269761000000
-0.0261399000000
-0.0253671000000
-0.0246883000000
-0.0240355000000
-0.0233258000000
-0.0225972000000
-0.0219675000000
-0.0215291000000
-0.0213461000000
-0.0214589000000
-0.0218976000000
-0.0226202000000
-0.0234586000000
-0.0242665000000
-0.0250337000000
-0.0257828000000
-0.0264829000000
-0.0270141000000
-0.0272675000000
-0.0272590000000
-0.0270913000000
-0.0268751000000
-0.0266440000000
-0.0263853000000
-0.0261219000000
-0.0259008000000
-0.0257592000000
-0.0257479000000
-0.0259195000000
-0.0262872000000
-0.0268189000000
-0.0274565000000
-0.0281389000000
-0.0288052000000
-0.0293201000000
-0.0294922000000
-0.0291352000000
-0.0280976000000
-0.0263139000000
-0.0238452000000
-0.0208582000000
-0.0175221000000
-0.0139952000000
-0.0104134000000
-0.0067030800000
-0.0025751800000
0.0022129300000
0.0076809800000
0.0135931000000
0.0196656000000
0.0257405000000
0.0317024000000
0.0374257000000
0.0428082000000
0.0478129000000
0.0524914000000
0.0569160000000
0.0611415000000
0.0652166000000
0.0692457000000
0.0734449000000
0.0780091000000
0.0829537000000
0.0881244000000
0.0932929000000
0.0982886000000
0.1031090000000
0.1079480000000
0.1128800000000
0.1177220000000
0.1222750000000
0.1264660000000
0.1302800000000
0.1336720000000
0.1365460000000
0.1388930000000
0.1408220000000
0.1424100000000
0.1436600000000
0.1445570000000
0.1451100000000
0.1453660000000
0.1453150000000
0.1449080000000
0.1441430000000
0.1430510000000
0.1416560000000
0.1398750000000
0.1375760000000
0.1347470000000
0.1314570000000
0.1277170000000
0.1234820000000
0.1187340000000
0.1135270000000
0.1079970000000
0.1023470000000
0.0967687000000
0.0913886000000
0.0863508000000
0.0818287000000
0.0779921000000
0.0749756000000
0.0728695000000
0.0716949000000
0.0713581000000
0.0716920000000
0.0725086000000
0.0736794000000
0.0751771000000
0.0770639000000
0.0794307000000
0.0823195000000
0.0856794000000
0.0893831000000
0.0932758000000
0.0972231000000
0.1011240000000
0.1048490000000
0.1082610000000
0.1113130000000
0.1140530000000
0.1165850000000
0.1189860000000
0.1212640000000
0.1233130000000
0.1249710000000
0.1261250000000
0.1267290000000
0.1267980000000
0.1262920000000
0.1251350000000
0.1232890000000
0.1207350000000
0.1174330000000
0.1133220000000
0.1083690000000
0.1024700000000
0.0955959000000
0.0880051000000
0.0800332000000
0.0718531000000
0.0635130000000
0.0550435000000
0.0465752000000
0.0383438000000
0.0306356000000
0.0237019000000
0.0176515000000
0.0123565000000
0.0075371100000
0.0029383100000
-0.0016029800000
-0.0061509700000
-0.0105831000000
-0.0146564000000
-0.0181541000000
-0.0209694000000
-0.0231284000000
-0.0247992000000
-0.0262311000000
-0.0275635000000
-0.0287983000000
-0.0299025000000
-0.0308559000000
-0.0316613000000
-0.0323038000000
-0.0327450000000
-0.0329268000000
-0.0328137000000
-0.0324259000000
-0.0318000000000
-0.0309740000000
-0.0300802000000
-0.0292925000000
-0.0286819000000
-0.0282391000000
-0.0279463000000
-0.0277814000000
-0.0276986000000
-0.0276094000000
-0.0274797000000
-0.0274364000000
-0.0276297000000
-0.0280939000000
-0.0287664000000
-0.0295455000000
-0.0303375000000
-0.0310818000000
-0.0317455000000
-0.0322512000000
-0.0324873000000
-0.0323918000000
-0.0319449000000
-0.0311215000000
-0.0299796000000
-0.0286919000000
-0.0273543000000
-0.0259430000000
-0.0244226000000
-0.0228092000000
-0.0211528000000
-0.0193634000000
-0.0172376000000
-0.0147670000000
-0.0121284000000
-0.0094741900000
-0.0068780500000
-0.0043602800000
-0.0019498500000
0.0003014900000
0.0023222700000
0.0040151700000
0.0052690100000
0.0059964600000
0.0061953300000
0.0060092600000
0.0057035700000
0.0055814300000
0.0058073900000
0.0063174900000
0.0069734900000
0.0076832200000
0.0084357600000
0.0092191600000
0.0099615700000
0.0107168000000
0.0116937000000
0.0129832000000
0.0145014000000
0.0161060000000
0.0176728000000
0.0191313000000
0.0204679000000
0.0216974000000
0.0228042000000
0.0237098000000
0.0243014000000
0.0245731000000
0.0246610000000
0.0246473000000
0.0245371000000
0.0243657000000
0.0241951000000
0.0240778000000
0.0240759000000
0.0242251000000
0.0244330000000
0.0245566000000
0.0245428000000
0.0244225000000
0.0242595000000
0.0241125000000
0.0240173000000
0.0239897000000
0.0240775000000
0.0243802000000
0.0249870000000
0.0259055000000
0.0270180000000
0.0281473000000
0.0291645000000
0.0300540000000
0.0308816000000
0.0316373000000
0.0322413000000
0.0326444000000
0.0328513000000
0.0328959000000
0.0327388000000
0.0323114000000
0.0316367000000
0.0307839000000
0.0298046000000
0.0287708000000
0.0277478000000
0.0266905000000
0.0255405000000
0.0243500000000
0.0232262000000
0.0222686000000
0.0216112000000
0.0213683000000
0.0215573000000
0.0221714000000
0.0232036000000
0.0245625000000
0.0261039000000
0.0277390000000
0.0294380000000
0.0311878000000
0.0329365000000
0.0346250000000
0.0362580000000
0.0378335000000
0.0392878000000
0.0406330000000
0.0419862000000
0.0434682000000
0.0451668000000
0.0471268000000
0.0492671000000
0.0514034000000
0.0534151000000
0.0552679000000
0.0569483000000
0.0584597000000
0.0598222000000
0.0609765000000
0.0617844000000
0.0620912000000
0.0618126000000
0.0609945000000
0.0597316000000
0.0580694000000
0.0559001000000
0.0531560000000
0.0499848000000
0.0464904000000
0.0426143000000
0.0382494000000
0.0333445000000
0.0279894000000
0.0225304000000
0.0174253000000
0.0127145000000
0.0081516600000
0.0036824500000
-0.0005800300000
-0.0045345300000
-0.0081170300000
-0.0113527000000
-0.0144084000000
-0.0174197000000
-0.0203612000000
-0.0232162000000
-0.0260274000000
-0.0287644000000
-0.0313650000000
-0.0338348000000
-0.0361944000000
-0.0384633000000
-0.0407436000000
-0.0430943000000
-0.0453658000000
-0.0474002000000
-0.0491993000000
-0.0508636000000
-0.0524693000000
-0.0539875000000
-0.0553980000000
-0.0567782000000
-0.0581920000000
-0.0596543000000
-0.0611934000000
-0.0628468000000
-0.0646174000000
-0.0664386000000
-0.0682017000000
-0.0698236000000
-0.0712516000000
-0.0724492000000
-0.0734113000000
-0.0741602000000
-0.0746468000000
-0.0747462000000
-0.0743336000000
-0.0734315000000
-0.0722308000000
-0.0708695000000
-0.0693783000000
-0.0677658000000
-0.0660782000000
-0.0643895000000
-0.0626767000000
-0.0608838000000
-0.0590987000000
-0.0574306000000
-0.0558800000000
-0.0545023000000
-0.0534300000000
-0.0527427000000
-0.0524513000000
-0.0525237000000
-0.0528913000000
-0.0534548000000
-0.0541150000000
-0.0547943000000
-0.0554392000000
-0.0559509000000
-0.0562004000000
-0.0561064000000
-0.0555888000000
-0.0544812000000
-0.0526369000000
-0.0500525000000
-0.0468718000000
-0.0433484000000
-0.0397819000000
-0.0363177000000
-0.0328649000000
-0.0292502000000
-0.0253699000000
-0.0212623000000
-0.0170823000000
-0.0130259000000
-0.0092730900000
-0.0059131200000
-0.0028751600000
0.0000112223000
0.0028859900000
0.0056693800000
0.0081207200000
0.0100974000000
0.0115765000000
0.0125732000000
0.0131786000000
0.0135496000000
0.0137624000000
0.0138948000000
0.0141739000000
0.0148150000000
0.0158442000000
0.0170639000000
0.0182604000000
0.0194621000000
0.0207822000000
0.0222296000000
0.0237362000000
0.0252099000000
0.0265477000000
0.0277055000000
0.0287400000000
0.0297476000000
0.0307624000000
0.0316513000000
0.0322404000000
0.0324889000000
0.0324708000000
0.0322722000000
0.0318451000000
0.0311403000000
0.0302863000000
0.0294566000000
0.0287366000000
0.0281288000000
0.0275905000000
0.0270732000000
0.0265744000000
0.0261498000000
0.0258977000000
0.0258648000000
0.0259496000000
0.0260130000000
0.0259946000000
0.0259037000000
0.0257798000000
0.0256642000000
0.0255842000000
0.0255491000000
0.0255513000000
0.0255603000000
0.0255080000000
0.0253725000000
0.0252441000000
0.0252104000000
0.0252894000000
0.0254927000000
0.0258149000000
0.0261859000000
0.0265128000000
0.0267416000000
0.0269126000000
0.0271240000000
0.0274480000000
0.0278771000000
0.0283127000000
0.0285614000000
0.0284565000000
0.0280358000000
0.0274828000000
0.0269836000000
0.0266523000000
0.0265035000000
0.0264438000000
0.0263596000000
0.0262147000000
0.0260354000000
0.0258639000000
0.0257356000000
0.0256884000000
0.0257853000000
0.0261102000000
0.0267223000000
0.0275768000000
0.0285617000000
0.0296044000000
0.0306542000000
0.0316521000000
0.0325963000000
0.0335483000000
0.0345682000000
0.0356598000000
0.0367497000000
0.0377100000000
0.0384209000000
0.0388371000000
0.0389932000000
0.0389758000000
0.0388824000000
0.0387760000000
0.0385891000000
0.0381815000000
0.0374613000000
0.0363588000000
0.0348128000000
0.0328179000000
0.0303850000000
0.0274125000000
0.0238091000000
0.0196624000000
0.0152006000000
0.0106871000000
0.0063136400000
0.0021418500000
-0.0019010000000
-0.0059042100000
-0.0099159600000
-0.0139858000000
-0.0181029000000
-0.0220951000000
-0.0257217000000
-0.0288269000000
-0.0314682000000
-0.0338078000000
-0.0358950000000
-0.0377085000000
-0.0392599000000
-0.0405193000000
-0.0414412000000
-0.0420749000000
-0.0425479000000
-0.0429814000000
-0.0434181000000
-0.0438334000000
-0.0442345000000
-0.0446628000000
-0.0451465000000
-0.0456529000000
-0.0460932000000
-0.0463457000000
-0.0463377000000
-0.0461142000000
-0.0457609000000
-0.0453261000000
-0.0448328000000
-0.0443121000000
-0.0438353000000
-0.0434772000000
-0.0432560000000
-0.0430603000000
-0.0427322000000
-0.0422586000000
-0.0417495000000
-0.0413272000000
-0.0411046000000
-0.0411480000000
-0.0414063000000
-0.0417488000000
-0.0420472000000
-0.0421858000000
-0.0420696000000
-0.0416256000000
-0.0408303000000
-0.0397375000000
-0.0384489000000
-0.0370669000000
-0.0356232000000
-0.0341109000000
-0.0325600000000
-0.0309932000000
-0.0293913000000
-0.0277627000000
-0.0261241000000
-0.0243965000000
-0.0224318000000
-0.0201132000000
-0.0174556000000
-0.0146246000000
-0.0118964000000
-0.0095263000000
-0.0076101300000
-0.0060348100000
-0.0045649200000
-0.0030335500000
-0.0013998800000
0.0002788230000
0.0018787000000
0.0032672600000
0.0043793300000
0.0052531700000
0.0060310000000
0.0069072400000
0.0080513600000
0.0095337800000
0.0113007000000
0.0131938000000
0.0150686000000
0.0168830000000
0.0187082000000
0.0206436000000
0.0227023000000
0.0247952000000
0.0267883000000
0.0285781000000
0.0301213000000
0.0313937000000
0.0323708000000
0.0330262000000
0.0332910000000
0.0331022000000
0.0325103000000
0.0315930000000
0.0303268000000
0.0286570000000
0.0265936000000
0.0242219000000
0.0217076000000
0.0192794000000
0.0170685000000
0.0150294000000
0.0130690000000
0.0111613000000
0.0093892200000
0.0078048500000
0.0063415400000
0.0049668400000
0.0036925000000
0.0024475400000
0.0011682300000
-0.0001047150000
-0.0013224100000
-0.0024491300000
-0.0033424600000
-0.0038280300000
-0.0038484600000
-0.0035089300000
-0.0030187300000
-0.0025734700000
-0.0022909000000
-0.0021959300000
-0.0022472300000
-0.0023710800000
-0.0025026100000
-0.0026439700000
-0.0028995600000
-0.0033605300000
-0.0040236600000
-0.0048652000000
-0.0058518800000
-0.0068934100000
-0.0078834300000
-0.0087552200000
-0.0094982100000
-0.0101628000000
-0.0108615000000
-0.0116724000000
-0.0125663000000
-0.0134686000000
-0.0143478000000
-0.0152933000000
-0.0164462000000
-0.0178836000000
-0.0195978000000
-0.0215278000000
-0.0236355000000
-0.0259061000000
-0.0283040000000
-0.0307072000000
-0.0329356000000
-0.0348613000000
-0.0364397000000
-0.0376663000000
-0.0385110000000
-0.0389109000000
-0.0387600000000
-0.0379866000000
-0.0366418000000
-0.0348751000000
-0.0328741000000
-0.0308025000000
-0.0287673000000
-0.0268178000000
-0.0250119000000
-0.0234523000000
-0.0222549000000
-0.0214811000000
-0.0211046000000
-0.0210790000000
-0.0214018000000
-0.0220705000000
-0.0230487000000
-0.0243131000000
-0.0258954000000
-0.0278461000000
-0.0300073000000
-0.0320647000000
-0.0341204000000
-0.0365375000000
-0.0393999000000
-0.0424985000000
-0.0455390000000
-0.0483425000000
-0.0508159000000
-0.0527974000000
-0.0541391000000
-0.0548251000000
-0.0548423000000
-0.0541608000000
-0.0528046000000
-0.0509044000000
-0.0486461000000
-0.0459175000000
-0.0424182000000
-0.0381870000000
-0.0335133000000
-0.0286283000000
-0.0237424000000
-0.0190604000000
-0.0146366000000
-0.0103845000000
-0.0061720500000
-0.0018922500000
0.0024830500000
0.0067903500000
0.0108186000000
0.0145478000000
0.0181418000000
0.0218011000000
0.0255310000000
0.0292022000000
0.0327754000000
0.0362453000000
0.0395616000000
0.0427142000000
0.0457352000000
0.0485835000000
0.0511552000000
0.0533616000000
0.0551838000000
0.0566579000000
0.0577769000000
0.0584897000000
0.0587784000000
0.0587592000000
0.0586449000000
0.0585316000000
0.0583853000000
0.0581500000000
0.0578281000000
0.0574870000000
0.0572015000000
0.0570150000000
0.0569272000000
0.0568788000000
0.0567605000000
0.0564396000000
0.0558317000000
0.0549820000000
0.0540215000000
0.0530801000000
0.0522382000000
0.0514970000000
0.0507204000000
0.0497193000000
0.0483910000000
0.0467753000000
0.0450237000000
0.0432984000000
0.0416874000000
0.0401714000000
0.0387271000000
0.0373984000000
0.0362006000000
0.0350805000000
0.0339703000000
0.0328468000000
0.0317474000000
0.0306916000000
0.0296451000000
0.0285609000000
0.0274096000000
0.0261877000000
0.0249106000000
0.0236101000000
0.0223579000000
0.0212053000000
0.0200751000000
0.0188252000000
0.0173594000000
0.0156604000000
0.0137886000000
0.0118769000000
0.0100434000000
0.0083121700000
0.0066740500000
0.0051344100000
0.0036956800000
0.0023643400000
0.0011779200000
0.0002061430000
-0.0004881340000
-0.0008891330000
-0.0010099600000
-0.0008127040000
-0.0002225810000
0.0007988590000
0.0021791200000
0.0037375700000
0.0052506600000
0.0065622000000
0.0076618800000
0.0086020400000
0.0094347100000
0.0102498000000
0.0111549000000
0.0122004000000
0.0133162000000
0.0143473000000
0.0152848000000
0.0162503000000
0.0172847000000
0.0183859000000
0.0196006000000
0.0209098000000
0.0222187000000
0.0235203000000
0.0248745000000
0.0262791000000
0.0276172000000
0.0287173000000
0.0295160000000
0.0300805000000
0.0305173000000
0.0308316000000
0.0309021000000
0.0306419000000
0.0300106000000
0.0288281000000
0.0269335000000
0.0243832000000
0.0211980000000
0.0173275000000
0.0129912000000
0.0085662200000
0.0042689100000
0.0002273310000
-0.0034331400000
-0.0066624800000
-0.0095384900000
-0.0122494000000
-0.0150003000000
-0.0179009000000
-0.0208328000000
-0.0235351000000
-0.0258011000000
-0.0274497000000
-0.0282997000000
-0.0282876000000
-0.0275360000000
-0.0262848000000
-0.0247720000000
-0.0231319000000
-0.0213370000000
-0.0192599000000
-0.0168155000000
-0.0140562000000
-0.0111880000000
-0.0084444000000
-0.0059687500000
-0.0037864100000
-0.0018335700000
-0.0000150645000
0.0016911600000
0.0032241200000
0.0045659600000
0.0057576900000
0.0068233500000
0.0077998900000
0.0087730200000
0.0098670000000
0.0111400000000
0.0124521000000
0.0135972000000
0.0144793000000
0.0150767000000
0.0153923000000
0.0154250000000
0.0151883000000
0.0147280000000
0.0140754000000
0.0132351000000
0.0122267000000
0.0111374000000
0.0101356000000
0.0093412300000
0.0087315300000
0.0081197500000
0.0073338500000
0.0064231900000
0.0055694900000
0.0049259300000
0.0045593400000
0.0044859400000
0.0047430600000
0.0053274400000
0.0061362200000
0.0070258000000
0.0078616200000
0.0085316600000
0.0090290700000
0.0094925600000
0.0100941000000
0.0109392000000
0.0120435000000
0.0133787000000
0.0149125000000
0.0165713000000
0.0182496000000
0.0199090000000
0.0215785000000
0.0232938000000
0.0250379000000
0.0267347000000
0.0282657000000
0.0295325000000
0.0305011000000
0.0311071000000
0.0312367000000
0.0308352000000
0.0299608000000
0.0287627000000
0.0274754000000
0.0263552000000
0.0254842000000
0.0247531000000
0.0239980000000
0.0230635000000
0.0218481000000
0.0204109000000
0.0189331000000
0.0175364000000
0.0162195000000
0.0148880000000
0.0134368000000
0.0118190000000
0.0100899000000
0.0083374200000
0.0066005500000
0.0049448500000
0.0034852100000
0.0022985900000
0.0013849700000
0.0006838370000
0.0001448020000
-0.0002484250000
-0.0005002960000
-0.0005832040000
-0.0004139790000
0.0000123563000
0.0005632980000
0.0010703400000
0.0013967300000
0.0014469400000
0.0011908600000
0.0006606060000
-0.0001619180000
-0.0013278900000
-0.0028302200000
-0.0046018000000
-0.0065417200000
-0.0085532800000
-0.0105654000000
-0.0125342000000
-0.0143790000000
-0.0159785000000
-0.0172547000000
-0.0182383000000
-0.0190700000000
-0.0199216000000
-0.0209103000000
-0.0220736000000
-0.0233635000000
-0.0246701000000
-0.0259694000000
-0.0273735000000
-0.0288888000000
-0.0304229000000
-0.0320041000000
-0.0336947000000
-0.0354487000000
-0.0371677000000
-0.0387741000000
-0.0402428000000
-0.0415920000000
-0.0428664000000
-0.0441107000000
-0.0453280000000
-0.0464205000000
-0.0472880000000
-0.0479299000000
-0.0483832000000
-0.0487050000000
-0.0490431000000
-0.0495447000000
-0.0502325000000
-0.0509965000000
-0.0516740000000
-0.0521487000000
-0.0523870000000
-0.0524285000000
-0.0523489000000
-0.0522020000000
-0.0519341000000
-0.0514636000000
-0.0507934000000
-0.0499544000000
-0.0489626000000
-0.0478346000000
-0.0465737000000
-0.0451657000000
-0.0436760000000
-0.0422459000000
-0.0409502000000
-0.0397929000000
-0.0387708000000
-0.0378389000000
-0.0369030000000
-0.0358826000000
-0.0347655000000
-0.0336244000000
-0.0325564000000
-0.0316140000000
-0.0307535000000
-0.0298967000000
-0.0290294000000
-0.0282208000000
-0.0275713000000
-0.0271432000000
-0.0269342000000
-0.0268866000000
-0.0268856000000
-0.0267935000000
-0.0265171000000
-0.0260375000000
-0.0253913000000
-0.0246114000000
-0.0237085000000
-0.0227372000000
-0.0217893000000
-0.0209241000000
-0.0200996000000
-0.0191865000000
-0.0181746000000
-0.0171686000000
-0.0161122000000
-0.0149001000000
-0.0136340000000
-0.0124621000000
-0.0113995000000
-0.0103344000000
-0.0091538400000
-0.0078877100000
-0.0066610800000
-0.0055908500000
-0.0048089800000
-0.0044361100000
-0.0045011600000
-0.0049308500000
-0.0056017600000
-0.0064507100000
-0.0074934500000
-0.0086744300000
-0.0098833200000
-0.0111167000000
-0.0124552000000
-0.0139579000000
-0.0155972000000
-0.0172913000000
-0.0190516000000
-0.0209655000000
-0.0230768000000
-0.0252755000000
-0.0273133000000
-0.0289735000000
-0.0301628000000
-0.0308766000000
-0.0311286000000
-0.0309216000000
-0.0302845000000
-0.0292792000000
-0.0278617000000
-0.0259335000000
-0.0234759000000
-0.0205074000000
-0.0170530000000
-0.0132152000000
-0.0091575700000
-0.0049946200000
-0.0007980650000
0.0033565300000
0.0074110600000
0.0113261000000
0.0149618000000
0.0181614000000
0.0209188000000
0.0232966000000
0.0253415000000
0.0271406000000
0.0288188000000
0.0304405000000
0.0320083000000
0.0334973000000
0.0348182000000
0.0358323000000
0.0364141000000
0.0365329000000
0.0362990000000
0.0358076000000
0.0350240000000
0.0337988000000
0.0319776000000
0.0294919000000
0.0264372000000
0.0230862000000
0.0197124000000
0.0164586000000
0.0133475000000
0.0103305000000
0.0073518800000
0.0044842100000
0.0019433700000
-0.0001589660000
-0.0019142200000
-0.0035000500000
-0.0050603700000
-0.0066377600000
-0.0082065200000
-0.0097262900000
-0.0111688000000
-0.0125100000000
-0.0137093000000
-0.0147602000000
-0.0157257000000
-0.0166543000000
-0.0175559000000
-0.0184611000000
-0.0193546000000
-0.0200799000000
-0.0204211000000
-0.0202434000000
-0.0195909000000
-0.0186157000000
-0.0174130000000
-0.0160400000000
-0.0145852000000
-0.0131400000000
-0.0117712000000
-0.0105470000000
-0.0095188500000
-0.0086979900000
-0.0081521400000
-0.0080162000000
-0.0083767500000
-0.0092376800000
-0.0105878000000
-0.0123402000000
-0.0142886000000
-0.0162835000000
-0.0183130000000
-0.0204189000000
-0.0225952000000
-0.0247395000000
-0.0267879000000
-0.0287952000000
-0.0308177000000
-0.0328571000000
-0.0348931000000
-0.0369051000000
-0.0388884000000
-0.0408866000000
-0.0429679000000
-0.0451315000000
-0.0473136000000
-0.0494366000000
-0.0513559000000
-0.0528700000000
-0.0538511000000
-0.0543015000000
-0.0542879000000
-0.0538616000000
-0.0530292000000
-0.0518025000000
-0.0502275000000
-0.0482968000000
-0.0459942000000
-0.0434014000000
-0.0406613000000
-0.0378988000000
-0.0351486000000
-0.0323961000000
-0.0297052000000
-0.0272105000000
-0.0250321000000
-0.0232168000000
-0.0217265000000
-0.0205104000000
-0.0195036000000
-0.0185950000000
-0.0177256000000
-0.0169553000000
-0.0164150000000
-0.0161902000000
-0.0161960000000
-0.0162882000000
-0.0164254000000
-0.0166420000000
-0.0169809000000
-0.0175032000000
-0.0182434000000
-0.0191367000000
-0.0200351000000
-0.0207892000000
-0.0213911000000
-0.0219468000000
-0.0224816000000
-0.0229122000000
-0.0231246000000
-0.0230465000000
-0.0226928000000
-0.0221823000000
-0.0216436000000
-0.0210865000000
-0.0204953000000
-0.0199279000000
-0.0194270000000
-0.0189820000000
-0.0185987000000
-0.0182817000000
-0.0179860000000
-0.0176812000000
-0.0173835000000
-0.0170826000000
-0.0167490000000
-0.0164113000000
-0.0161594000000
-0.0160931000000
-0.0162279000000
-0.0164831000000
-0.0167557000000
-0.0169903000000
-0.0172140000000
-0.0174929000000
-0.0178754000000
-0.0183759000000
-0.0189916000000
-0.0197443000000
-0.0206616000000
-0.0217392000000
-0.0229419000000
-0.0242110000000
-0.0254467000000
-0.0265640000000
-0.0275715000000
-0.0285110000000
-0.0293933000000
-0.0302100000000
-0.0309471000000
-0.0315637000000
-0.0320611000000
-0.0325382000000
-0.0330255000000
-0.0334281000000
-0.0337623000000
-0.0341473000000
-0.0345953000000
-0.0349955000000
-0.0352034000000
-0.0351258000000
-0.0347486000000
-0.0340842000000
-0.0331593000000
-0.0320351000000
-0.0307891000000
-0.0294944000000
-0.0282010000000
-0.0269325000000
-0.0256894000000
-0.0244602000000
-0.0232343000000
-0.0220413000000
-0.0209373000000
-0.0199163000000
-0.0189111000000
-0.0178648000000
-0.0168073000000
-0.0158677000000
-0.0151728000000
-0.0147824000000
-0.0147144000000
-0.0149283000000
-0.0153044000000
-0.0157644000000
-0.0163277000000
-0.0170027000000
-0.0177436000000
-0.0184954000000
-0.0192183000000
-0.0198974000000
-0.0205369000000
-0.0211529000000
-0.0217578000000
-0.0223232000000
-0.0227387000000
-0.0229147000000
-0.0228724000000
-0.0227031000000
-0.0224816000000
-0.0221694000000
-0.0216854000000
-0.0210259000000
-0.0202182000000
-0.0192669000000
-0.0181319000000
-0.0167838000000
-0.0152758000000
-0.0136873000000
-0.0120532000000
-0.0104138000000
-0.0088400100000
-0.0074295000000
-0.0062389800000
-0.0052164600000
-0.0042481500000
-0.0032391600000
-0.0021813400000
-0.0011258200000
-0.0000790294000
0.0010193100000
0.0022571300000
0.0036613500000
0.0051773700000
0.0067669300000
0.0084325700000
0.0101685000000
0.0119025000000
0.0134990000000
0.0149210000000
0.0162500000000
0.0175109000000
0.0186734000000
0.0197510000000
0.0207371000000
0.0215633000000
0.0222003000000
0.0227027000000
0.0231530000000
0.0236017000000
0.0240236000000
0.0243306000000
0.0244279000000
0.0243082000000
0.0240367000000
0.0236178000000
0.0230405000000
0.0223931000000
0.0217509000000
0.0210812000000
0.0203055000000
0.0193732000000
0.0182828000000
0.0170930000000
0.0159118000000
0.0148132000000
0.0138023000000
0.0129633000000
0.0124622000000
0.0124391000000
0.0129151000000
0.0137557000000
0.0147862000000
0.0159032000000
0.0171471000000
0.0186293000000
0.0203749000000
0.0223129000000
0.0243411000000
0.0263714000000
0.0283508000000
0.0302633000000
0.0321079000000
0.0338578000000
0.0354967000000
0.0370679000000
0.0385787000000
0.0399568000000
0.0411255000000
0.0420493000000
0.0427069000000
0.0431001000000
0.0432702000000
0.0432539000000
0.0430695000000
0.0427768000000
0.0424470000000
0.0420483000000
0.0415080000000
0.0408214000000
0.0400091000000
0.0390803000000
0.0380878000000
0.0371220000000
0.0362505000000
0.0354969000000
0.0348491000000
0.0343075000000
0.0338895000000
0.0335599000000
0.0332491000000
0.0329395000000
0.0326358000000
0.0323134000000
0.0319683000000
0.0316390000000
0.0313232000000
0.0309579000000
0.0304504000000
0.0297776000000
0.0290460000000
0.0283708000000
0.0277933000000
0.0273402000000
0.0270381000000
0.0268818000000
0.0268366000000
0.0268541000000
0.0268897000000
0.0269139000000
0.0269148000000
0.0268950000000
0.0268647000000
0.0268354000000
0.0268153000000
0.0268071000000
0.0268164000000
0.0268918000000
0.0271019000000
0.0274749000000
0.0279632000000
0.0284613000000
0.0289122000000
0.0293173000000
0.0296555000000
0.0298599000000
0.0298603000000
0.0296695000000
0.0293677000000
0.0289859000000
0.0284209000000
0.0274736000000
0.0260408000000
0.0241506000000
0.0218519000000
0.0192873000000
0.0167181000000
0.0142572000000
0.0118644000000
0.0095820500000
0.0075178200000
0.0057481800000
0.0044070200000
0.0036236900000
0.0033717500000
0.0035505100000
0.0040833500000
0.0048606700000
0.0057325600000
0.0065904800000
0.0074773400000
0.0085764600000
0.0099683700000
0.0115286000000
0.0130101000000
0.0143012000000
0.0155340000000
0.0167498000000
0.0178316000000
0.0187104000000
0.0194088000000
0.0199897000000
0.0204762000000
0.0208494000000
0.0210972000000
0.0212298000000
0.0212698000000
0.0211994000000
0.0209573000000
0.0204739000000
0.0197742000000
0.0190016000000
0.0182350000000
0.0174709000000
0.0167628000000
0.0161709000000
0.0156705000000
0.0151472000000
0.0144837000000
0.0136626000000
0.0127185000000
0.0116691000000
0.0105249000000
0.0093223300000
0.0081476100000
0.0070923300000
0.0061991600000
0.0054583300000
0.0048419100000
0.0043487600000
0.0039615600000
0.0036151300000
0.0032837800000
0.0030323900000
0.0030155800000
0.0033803900000
0.0041646900000
0.0052991800000
0.0066349000000
0.0079853500000
0.0092533600000
0.0104859000000
0.0117001000000
0.0128357000000
0.0138372000000
0.0146899000000
0.0154189000000
0.0160696000000
0.0166893000000
0.0173040000000
0.0178597000000
0.0182368000000
0.0184259000000
0.0185514000000
0.0187448000000
0.0190542000000
0.0194260000000
0.0197718000000
0.0200238000000
0.0201665000000
0.0202831000000
0.0205309000000
0.0209589000000
0.0215024000000
0.0221521000000
0.0229555000000
0.0239372000000
0.0250832000000
0.0263625000000
0.0277729000000
0.0292800000000
0.0307605000000
0.0320660000000
0.0330959000000
0.0337984000000
0.0341793000000
0.0343078000000
0.0342854000000
0.0342099000000
0.0341495000000
0.0341353000000
0.0341662000000
0.0342228000000
0.0342808000000
0.0343169000000
0.0342737000000
0.0340386000000
0.0335779000000
0.0329904000000
0.0323220000000
0.0315330000000
0.0305927000000
0.0295378000000
0.0284680000000
0.0274818000000
0.0266498000000
0.0260261000000
0.0256021000000
0.0252956000000
0.0250901000000
0.0250320000000
0.0251063000000
0.0252114000000
0.0252172000000
0.0250746000000
0.0248349000000
0.0245776000000
0.0243393000000
0.0240923000000
0.0238264000000
0.0235774000000
0.0233849000000
0.0232675000000
0.0232252000000
0.0232804000000
0.0234537000000
0.0236518000000
0.0237163000000
0.0235441000000
0.0231189000000
0.0224955000000
0.0217604000000
0.0209978000000
0.0202543000000
0.0194718000000
0.0185234000000
0.0174039000000
0.0162140000000
0.0150118000000
0.0137676000000
0.0124238000000
0.0110803000000
0.0099311100000
0.0090581800000
0.0084197500000
0.0079206300000
0.0075097300000
0.0071867700000
0.0069668100000
0.0069141900000
0.0071310700000
0.0075977600000
0.0081754500000
0.0087612400000
0.0093234400000
0.0098680100000
0.0104145000000
0.0109815000000
0.0115758000000
0.0121667000000
0.0126815000000
0.0130530000000
0.0132464000000
0.0132308000000
0.0130141000000
0.0126864000000
0.0123638000000
0.0121076000000
0.0118411000000
0.0114566000000
0.0109712000000
0.0104578000000
0.0099408500000
0.0093708300000
0.0086935200000
0.0080168600000
0.0075143700000
0.0072063100000
0.0069877800000
0.0067364400000
0.0063718600000
0.0058768400000
0.0053244400000
0.0048161200000
0.0043818100000
0.0040079200000
0.0037041300000
0.0034895700000
0.0033665700000
0.0033173700000
0.0033141000000
0.0033286400000
0.0033412000000
0.0033377200000
0.0032842800000
0.0031276800000
0.0028698800000
0.0025870200000
0.0024057300000
0.0024222700000
0.0026172400000
0.0028935500000
0.0031559800000
0.0033806100000
0.0036081800000
0.0038500000000
0.0040868300000
0.0043389000000
0.0046307800000
0.0049383100000
0.0052434700000
0.0055734700000
0.0059667000000
0.0064429900000
0.0069949600000
0.0075780600000
0.0081052500000
0.0084941500000
0.0087188700000
0.0088427900000
0.0089681200000
0.0090901400000
0.0091477500000
0.0091724000000
0.0092081700000
0.0092066300000
0.0090809400000
0.0087802100000
0.0083058800000
0.0076859200000
0.0069265200000
0.0060430500000
0.0051115500000
0.0042568100000
0.0036005800000
0.0032019300000
0.0030417500000
0.0030519700000
0.0031886100000
0.0034915700000
0.0040024300000
0.0046813500000
0.0054427400000
0.0062050600000
0.0069203500000
0.0075921900000
0.0082870900000
0.0090622200000
0.0099020600000
0.0107487000000
0.0115436000000
0.0122088000000
0.0126598000000
0.0128276000000
0.0127102000000
0.0124059000000
0.0120225000000
0.0116073000000
0.0111649000000
0.0106866000000
0.0101655000000
0.0096018800000
0.0089992200000
0.0083364400000
0.0075679300000
0.0066962700000
0.0057802100000
0.0048443800000
0.0039005100000
0.0030327400000
0.0022989400000
0.0016394400000
0.0010117800000
0.0004521370000
-0.0000320433000
-0.0004692640000
-0.0008473720000
-0.0011027000000
-0.0011606900000
-0.0010199000000
-0.0007661590000
-0.0005034660000
-0.0002886610000
-0.0000967364000
0.0001128230000
0.0003365510000
0.0005814910000
0.0008884900000
0.0012900100000
0.0017728000000
0.0022581300000
0.0026517500000
0.0028944000000
0.0029418100000
0.0027813500000
0.0025312300000
0.0023641000000
0.0023532100000
0.0024714000000
0.0026487100000
0.0028162900000
0.0029291700000
0.0029754100000
0.0029876000000
0.0030456200000
0.0032025700000
0.0034439300000
0.0037939900000
0.0043337800000
0.0051164600000
0.0061341600000
0.0073196900000
0.0085266800000
0.0095667600000
0.0103843000000
0.0110650000000
0.0116480000000
0.0121026000000
0.0124076000000
0.0125721000000
0.0126190000000
0.0124999000000
0.0121155000000
0.0114129000000
0.0104162000000
0.0092067600000
0.0078858200000
0.0065280200000
0.0050959100000
0.0034933700000
0.0017463400000
-0.0000163218000
-0.0016866500000
-0.0032781200000
-0.0049189800000
-0.0067027400000
-0.0086142000000
-0.0105424000000
-0.0123531000000
-0.0139742000000
-0.0154362000000
-0.0168343000000
-0.0181437000000
-0.0156484000000
-0.0166020000000
-0.0173453000000
-0.0179675000000
-0.0184870000000
-0.0188328000000
-0.0189321000000
-0.0187699000000
-0.0183909000000
-0.0178722000000
-0.0172890000000
-0.0166642000000
-0.0159638000000
-0.0151465000000
-0.0141978000000
-0.0131375000000
-0.0120282000000
-0.0109671000000
-0.0100052000000
-0.0091231400000
-0.0083512600000
-0.0077596600000
-0.0073412900000
-0.0070429400000
-0.0068277700000
-0.0066124400000
-0.0062749700000
-0.0058654500000
-0.0055368900000
-0.0053262500000
-0.0051987200000
-0.0051276800000
-0.0050539800000
-0.0049166600000
-0.0047241100000
-0.0044976300000
-0.0042301400000
-0.0039529100000
-0.0037332500000
-0.0036120100000
-0.0035591400000
-0.0034832500000
-0.0032990200000
-0.0029670900000
-0.0024987900000
-0.0019369000000
-0.0013345100000
-0.0007351040000
-0.0001646050000
0.0003761060000
0.0009333310000
0.0015815300000
0.0023242100000
0.0030748500000
0.0037090700000
0.0041628800000
0.0044700300000
0.0046659500000
0.0047587600000
0.0047610800000
0.0046943300000
0.0045851800000
0.0044542500000
0.0042952600000
0.0040551300000
0.0036747500000
0.0031484900000
0.0025985700000
0.0021499500000
0.0017507100000
0.0013108300000
0.0008398340000
0.0003941170000
-0.0000196094000
-0.0004921980000
-0.0010779300000
-0.0017165900000
-0.0023526400000
-0.0029820900000
-0.0036136700000
-0.0042233800000
-0.0047515900000
-0.0051487400000
-0.0053837300000
-0.0054294000000
-0.0053089100000
-0.0051074200000
-0.0048761200000
-0.0046315800000
-0.0044161100000
-0.0042805000000
-0.0042468200000
-0.0043077100000
-0.0044541500000
-0.0047041400000
-0.0050496200000
-0.0054279100000
-0.0057671300000
-0.0060240400000
-0.0061916700000
-0.0062909200000
-0.0063543500000
-0.0064105800000
-0.0064581100000
-0.0064475800000
-0.0063192400000
-0.0060488500000
-0.0056488600000
-0.0051395400000
-0.0045164900000
-0.0037995000000
-0.0030573100000
-0.0023637900000
-0.0017605800000
-0.0012567600000
-0.0008645710000
-0.0005911430000
-0.0003058080000
0.0001474700000
0.0007328050000
0.0012904100000
0.0016664000000
0.0017052700000
0.0013332300000
0.0006586920000
-0.0001708970000
-0.0010842100000
-0.0020189800000
-0.0028871200000
-0.0036020100000
-0.0041442600000
-0.0045830700000
-0.0050123300000
-0.0054834800000
-0.0059713000000
-0.0064146800000
-0.0067670200000
-0.0070169200000
-0.0072017000000
-0.0074067800000
-0.0077165300000
-0.0081694600000
-0.0087572600000
-0.0094593700000
-0.0102766000000
-0.0112140000000
-0.0122571000000
-0.0133746000000
-0.0145287000000
-0.0157018000000
-0.0169813000000
-0.0185012000000
-0.0202281000000
-0.0220052000000
-0.0237339000000
-0.0254823000000
-0.0273996000000
-0.0294790000000
-0.0315738000000
-0.0335460000000
-0.0353556000000
-0.0370454000000
-0.0386503000000
-0.0401781000000
-0.0416298000000
-0.0429766000000
-0.0441502000000
-0.0450418000000
-0.0455853000000
-0.0458188000000
-0.0457539000000
-0.0453625000000
-0.0446838000000
-0.0438020000000
-0.0427774000000
-0.0416163000000
-0.0402980000000
-0.0388209000000
-0.0372122000000
-0.0355139000000
-0.0337399000000
-0.0319042000000
-0.0300893000000
-0.0283834000000
-0.0268046000000
-0.0253528000000
-0.0240428000000
-0.0229088000000
-0.0219961000000
-0.0213353000000
-0.0209160000000
-0.0206845000000
-0.0205662000000
-0.0204908000000
-0.0204089000000
-0.0202975000000
-0.0201555000000
-0.0200017000000
-0.0199052000000
-0.0199681000000
-0.0202246000000
-0.0206226000000
-0.0210863000000
-0.0215955000000
-0.0221948000000
-0.0228971000000
-0.0236479000000
-0.0243564000000
-0.0249674000000
-0.0254845000000
-0.0258822000000
-0.0261233000000
-0.0262261000000
-0.0262032000000
-0.0260282000000
-0.0256809000000
-0.0251746000000
-0.0245514000000
-0.0238638000000
-0.0231520000000
-0.0224103000000
-0.0216050000000
-0.0207199000000
-0.0197859000000
-0.0188633000000
-0.0179731000000
-0.0170812000000
-0.0161290000000
-0.0150909000000
-0.0139990000000
-0.0129071000000
-0.0118599000000
-0.0108807000000
-0.0099879000000
-0.0092040500000
-0.0085402100000
-0.0079957200000
-0.0076046500000
-0.0073988600000
-0.0073484600000
-0.0074016000000
-0.0075250400000
-0.0076990000000
-0.0079076300000
-0.0081339700000
-0.0083425600000
-0.0084821100000
-0.0085512300000
-0.0086014900000
-0.0086557800000
-0.0087089400000
-0.0087701200000
-0.0088398100000
-0.0088962900000
-0.0089373000000
-0.0089786000000
-0.0090116100000
-0.0090108100000
-0.0089623800000
-0.0088885400000
-0.0088368400000
-0.0088441200000
-0.0089106700000
-0.0089933500000
-0.0090369000000
-0.0090107500000
-0.0089342800000
-0.0088524000000
-0.0087804400000
-0.0087054200000
-0.0086076500000
-0.0084567100000
-0.0082280200000
-0.0079592400000
-0.0076997300000
-0.0074222100000
-0.0070733900000
-0.0066413200000
-0.0061487000000
-0.0056240800000
-0.0050716600000
-0.0044802100000
-0.0038451900000
-0.0031737300000
-0.0024808800000
-0.0017838300000
-0.0010967700000
-0.0004305730000
0.0001962150000
0.0007589060000
0.0012610300000
0.0017351600000
0.0022152900000
0.0027207800000
0.0032511400000
0.0037785900000
0.0042563000000
0.0046321500000
0.0048867900000
0.0050710400000
0.0052663300000
0.0055288300000
0.0058589500000
0.0062193200000
0.0065815900000
0.0069189400000
0.0071903600000
0.0074005100000
0.0076136300000
0.0078785400000
0.0081942200000
0.0085206900000
0.0088189700000
0.0090783400000
0.0092942300000
0.0094583400000
0.0095692300000
0.0096348700000
0.0096707700000
0.0097041900000
0.0097651000000
0.0098554800000
0.0099515000000
0.0100249000000
0.0100395000000
0.0099568800000
0.0097816500000
0.0095590000000
0.0093114600000
0.0090274300000
0.0086845700000
0.0082786300000
0.0078338900000
0.0073840400000
0.0069514700000
0.0065352200000
0.0061337300000
0.0057640900000
0.0054282000000
0.0051017700000
0.0047691600000
0.0044289600000
0.0040760400000
0.0037045000000
0.0033167600000
0.0029316500000
0.0025786400000
0.0022879600000
0.0020723700000
0.0019154100000
0.0017929400000
0.0016891900000
0.0015869600000
0.0014682200000
0.0013253200000
0.0011668300000
0.0010151800000
0.0008919240000
0.0008070160000
0.0007577500000
0.0007333110000
0.0007204610000
0.0007082590000
0.0006903850000
0.0006653470000
0.0006350830000
0.0006030800000
0.0005726160000
0.0005457590000
0.0005230640000
0.0005039050000
0.0004870650000
0.0004713040000
0.0004557820000
0.0004401720000
0.0004246130000
0.0004094790000
0.0003939860000
0.0003712540000
0.0003350430000
0.0002894690000
0.0002408360000
0.0001906220000
0.0001427990000
0.0001050460000
0.0000822197000
0.0000717805000
0.0000645357000
0.0000582921000
0.0000613216000
0.0000775742000
0.0001011170000
0.0001199890000
0.0001260290000
0.0001216260000
0.0001147510000
0.0001128980000
0.0001201320000
0.0001368740000
0.0001612530000
0.0001930210000
0.0002333670000
0.0002762300000
0.0003117670000
0.0003406490000
0.0003715520000
0.0004119170000
0.0004644620000
0.0005273870000
0.0005962170000
0.0006659820000
0.0007327720000
0.0007945220000
0.0008508940000
0.0009027730000
0.0009514980000
0.0009981790000
0.0010423100000
0.0010812300000
0.0011138500000
0.0011424700000
0.0011685000000
0.0011913000000
0.0012101400000
0.0012241300000
0.0012315700000
0.0012301900000
0.0012196400000
0.0012074600000
0.0012037900000
0.0012112000000
0.0012250200000
0.0012385200000
0.0012496600000
0.0012611600000
0.0012752900000
0.0012924400000
0.0013121500000
0.0013329500000
0.0013529800000
0.0013725100000
0.0013936900000
0.0014185300000
0.0014474100000
0.0014791700000
0.0015139100000
0.0015528400000
0.0015941200000
0.0016350200000
0.0016765400000
0.0017216800000
0.0017724800000
0.0018291200000
0.0018903100000
0.0019540500000
0.0020184600000
0.0020822900000
0.0021455000000
0.0022088000000
0.0022723400000
0.0023357200000
0.0023989600000
0.0024620400000
0.0025244300000
0.0025855100000
0.0026448300000
0.0027016500000
0.0027559300000
0.0028092500000
0.0028628800000
0.0029167900000
0.0029709500000
0.0030255800000
0.0030802700000
0.0031343500000
0.0031874700000
0.0032397800000
0.0032918000000
0.0033444900000
0.0033985200000
0.0034534400000
0.0035084700000
0.0035631800000
0.0036176900000
0.0036723300000
0.0037273500000
0.0037826900000
0.0038380600000
0.0038931900000
0.0039480000000
0.0040024900000
0.0040566900000
0.0041106500000
0.0041643400000
0.0042175800000
0.0042701700000
0.0043219900000
0.0043730500000
0.0044234400000
0.0044731500000
0.0045221700000
0.0045705200000
0.0046182200000
0.0046652400000
0.0047115500000
0.0047571100000
0.0048018900000
0.0048458900000
0.0048891500000
0.0049316700000
0.0049734400000
0.0050144300000
0.0050546200000
0.0050940200000
0.0051326700000
0.0051706200000
0.0052079000000
0.0052444700000
0.0052803100000
0.0053154200000
0.0053498300000
0.0053835400000
0.0054165900000
0.0054489700000
0.0054807100000
0.0055118100000
0.0055422800000
0.0055721200000
0.0056013200000
0.0056298900000
0.0056578400000
0.0056851600000
0.0057118700000
0.0057379500000
0.0057634000000
0.0057882300000
0.0058124300000
0.0058359900000
0.0058589200000
0.0058812200000
0.0059028800000
0.0059239000000
0.0059442700000
0.0000000000000
0.0000000000000
0.0000000000000
