-0.0003355750000
0.0002956650000
0.0009585250000
-0.0002758130000
-0.0016957900000
0.0015588900000
0.0033060100000
0.0020686200000
0.0006772030000
0.0019398300000
0.0039297100000
0.0018457200000
0.0021842300000
0.0035029600000
0.0026694800000
0.0008047940000
0.0005251840000
0.0025834200000
0.0041938700000
0.0018946600000
-0.0021242700000
-0.0017113000000
0.0020799200000
0.0021593500000
0.0023214100000
0.0015705600000
-0.0001574380000
-0.0004778410000
0.0003716970000
0.0022341000000
0.0003010750000
-0.0015279100000
-0.0000877840000
0.0016777200000
0.0028230600000
0.0030759000000
-0.0010011600000
-0.0017509700000
-0.0008636860000
-0.0000855407000
0.0019349700000
-0.0008925880000
-0.0034284200000
0.0001771670000
0.0034951200000
0.0023271000000
-0.0016020500000
-0.0030536200000
0.0023053600000
0.0044911100000
0.0011382600000
0.0009168130000
0.0023763300000
-0.0004634600000
-0.0022873300000
-0.0018478100000
0.0005939670000
0.0040802200000
0.0019371000000
-0.0010475200000
0.0010229800000
0.0011697600000
0.0005107360000
-0.0002768030000
0.0032625000000
0.0036877400000
-0.0021885800000
-0.0015991200000
-0.0013187100000
0.0023470700000
0.0026693000000
-0.0014291600000
0.0003955280000
0.0032748900000
0.0032890800000
-0.0017141100000
-0.0029371800000
-0.0021212700000
-0.0017643700000
-0.0023468700000
0.0032426400000
0.0029508300000
0.0011300400000
-0.0000736488000
-0.0035274600000
0.0010237000000
0.0004371120000
-0.0011541700000
-0.0025139200000
0.0020607000000
0.0030479700000
0.0065821900000
0.0046696100000
-0.0011801700000
-0.0010598900000
0.0004241250000
-0.0005714750000
-0.0007469940000
-0.0000901934000
0.0007379680000
0.0044272300000
0.0042731300000
0.0021769600000
-0.0022193200000
-0.0019021800000
-0.0008628710000
-0.0006936250000
-0.0016484200000
-0.0017402900000
-0.0044076600000
-0.0025941800000
0.0018254100000
0.0084298400000
0.0042385900000
-0.0051424200000
0.0030583100000
0.0069311800000
0.0043454100000
0.0002296440000
-0.0066319600000
-0.0089923100000
0.0022153800000
0.0083332800000
0.0056893700000
-0.0004582320000
-0.0176178000000
-0.0153881000000
0.0063796600000
0.0110308000000
0.0035959500000
-0.0074048100000
-0.0057096300000
-0.0006627300000
0.0044933100000
0.0089639100000
-0.0003640490000
-0.0117055000000
-0.0111649000000
0.0075142600000
0.0086963800000
0.0002609250000
-0.0035926900000
-0.0028359100000
0.0004616990000
0.0079627200000
0.0032635300000
-0.0199548000000
-0.0260095000000
-0.0079229700000
0.0125657000000
0.0093853100000
-0.0048651600000
-0.0161525000000
-0.0122256000000
0.0071411100000
0.0188292000000
0.0097991300000
-0.0043830000000
-0.0199778000000
-0.0125788000000
0.0170736000000
0.0154375000000
-0.0083744900000
-0.0174750000000
0.0006187630000
0.0128822000000
0.0084145400000
-0.0004829670000
-0.0033859300000
-0.0038980100000
-0.0001281330000
0.0015884900000
-0.0018387600000
-0.0025017900000
-0.0013665800000
0.0070922500000
0.0019350900000
-0.0045531700000
-0.0028039100000
0.0061088100000
0.0075826800000
-0.0017228200000
-0.0026235100000
-0.0012802100000
0.0070929300000
0.0075202800000
-0.0030357300000
0.0045040700000
0.0095224400000
0.0017979500000
-0.0125627000000
-0.0072301400000
0.0032493100000
0.0017345800000
0.0062745700000
-0.0008644410000
-0.0023077700000
-0.0026903000000
-0.0008420890000
0.0073066600000
0.0059836900000
-0.0027740500000
-0.0059207800000
-0.0025894900000
0.0008795080000
-0.0031984800000
0.0025777600000
0.0118026000000
0.0065281700000
0.0059936600000
0.0031192800000
-0.0073826600000
-0.0088066100000
-0.0017880100000
-0.0035679300000
-0.0151990000000
-0.0079784500000
-0.0017809500000
-0.0065117300000
-0.0073287700000
0.0010770300000
0.0028334500000
-0.0028112500000
-0.0121473000000
-0.0177727000000
-0.0003235230000
0.0009810400000
-0.0015139000000
-0.0029327300000
-0.0003399080000
0.0046652200000
0.0006219210000
-0.0098126900000
-0.0118435000000
-0.0036203000000
0.0039695100000
0.0001342930000
-0.0013212600000
0.0043315700000
-0.0031511600000
-0.0090906300000
-0.0016813700000
0.0071793600000
0.0017896700000
-0.0054064400000
0.0044518500000
0.0102148000000
0.0038877800000
-0.0103504000000
-0.0005012990000
0.0165225000000
0.0120518000000
0.0107687000000
0.0035205300000
-0.0093273900000
-0.0133523000000
0.0062296400000
0.0086419300000
-0.0028238900000
-0.0009766780000
0.0046170000000
0.0039223700000
0.0030869900000
0.0058930100000
-0.0015693100000
-0.0067070500000
-0.0088439600000
-0.0078821000000
0.0018354400000
0.0069742000000
0.0039692800000
-0.0074985800000
-0.0065724200000
-0.0068947400000
-0.0090836600000
0.0010490300000
0.0002065070000
-0.0018620500000
0.0036734900000
0.0040325400000
0.0013346400000
-0.0098680200000
-0.0074210300000
0.0037112500000
-0.0013142900000
-0.0017569600000
0.0036908700000
0.0086450100000
0.0051066400000
0.0067784200000
0.0090346700000
0.0100251000000
0.0138236000000
0.0067539700000
-0.0067579600000
-0.0051024900000
0.0029096200000
-0.0027319900000
-0.0045516600000
0.0006258660000
-0.0070832800000
-0.0180789000000
-0.0115988000000
-0.0055695700000
-0.0062346000000
0.0020773900000
0.0070478600000
0.0058371300000
0.0033116300000
0.0035411400000
-0.0003695270000
-0.0058152900000
-0.0108316000000
-0.0145138000000
-0.0096157700000
-0.0056897800000
0.0026059000000
0.0064645700000
0.0128610000000
0.0080221500000
-0.0050552600000
-0.0018136800000
0.0045858200000
0.0040023900000
-0.0061435300000
-0.0188303000000
-0.0255765000000
-0.0018360200000
0.0174389000000
0.0047685200000
-0.0137057000000
-0.0075040800000
0.0056559800000
0.0030458200000
0.0050776800000
-0.0006251200000
-0.0032924000000
-0.0042858600000
-0.0086024800000
-0.0142267000000
-0.0001466330000
0.0015782100000
-0.0102089000000
-0.0091898900000
-0.0053108000000
0.0068863800000
0.0026217800000
-0.0113797000000
-0.0110360000000
0.0008399170000
-0.0048057600000
-0.0094100100000
-0.0020874100000
0.0087868400000
0.0186125000000
0.0048853900000
-0.0166723000000
-0.0092527800000
0.0208954000000
0.0165472000000
-0.0112794000000
-0.0178941000000
0.0000252788000
0.0146337000000
0.0002731950000
-0.0101308000000
-0.0106254000000
-0.0077398400000
-0.0080325500000
0.0068492800000
0.0220065000000
-0.0057160400000
-0.0294728000000
-0.0131701000000
0.0154276000000
0.0302809000000
0.0168751000000
0.0001440470000
-0.0017184400000
0.0016843100000
0.0094353200000
0.0013365500000
0.0083348100000
0.0083654400000
-0.0001066460000
0.0002136670000
-0.0032267600000
-0.0029890700000
-0.0193141000000
0.0015377600000
0.0174365000000
0.0029250300000
-0.0059336300000
-0.0222159000000
-0.0357818000000
-0.0244210000000
-0.0048043500000
0.0089758900000
-0.0042902000000
-0.0095900800000
0.0062046600000
0.0149389000000
0.0233754000000
0.0038200100000
-0.0126703000000
-0.0092767200000
-0.0064767800000
-0.0035401600000
0.0104696000000
0.0105584000000
0.0064172000000
0.0111347000000
0.0036867400000
-0.0103219000000
-0.0240082000000
-0.0128586000000
-0.0005981260000
-0.0115488000000
0.0001638950000
0.0229283000000
0.0238076000000
0.0016246600000
-0.0089843200000
0.0056874000000
0.0110690000000
0.0053927000000
-0.0020012300000
-0.0063729100000
-0.0074897700000
-0.0145542000000
0.0030550800000
0.0070861600000
-0.0139615000000
-0.0250295000000
-0.0149426000000
0.0017507100000
-0.0111492000000
-0.0151669000000
-0.0205260000000
-0.0078677100000
0.0201048000000
0.0307781000000
0.0187340000000
0.0008218510000
-0.0094821400000
-0.0110101000000
0.0024182900000
-0.0010313100000
-0.0157529000000
-0.0029294300000
0.0170544000000
0.0071146000000
-0.0026773500000
0.0021197500000
0.0125075000000
0.0131420000000
0.0035672700000
-0.0028566400000
-0.0069569900000
-0.0072272400000
-0.0064876900000
-0.0060449700000
-0.0035581600000
-0.0119201000000
-0.0067914600000
0.0025487300000
-0.0005632430000
0.0015431100000
-0.0006855440000
-0.0063291500000
0.0047695200000
0.0090760000000
-0.0049785300000
-0.0122429000000
-0.0086942900000
-0.0026935800000
-0.0134688000000
-0.0084585100000
-0.0116347000000
-0.0061481100000
0.0124465000000
0.0006186700000
-0.0140479000000
0.0076639100000
0.0332976000000
0.0238749000000
0.0006515680000
-0.0040913800000
0.0080915500000
0.0078172200000
0.0089862000000
0.0116413000000
-0.0008260980000
-0.0026375600000
0.0007754080000
-0.0084178000000
-0.0169001000000
-0.0144449000000
-0.0108850000000
-0.0218989000000
-0.0122690000000
0.0019161400000
-0.0083796800000
-0.0091446300000
0.0024742400000
0.0086024600000
0.0122582000000
0.0131538000000
0.0047388600000
-0.0083313600000
-0.0151327000000
-0.0016431100000
0.0205797000000
0.0339213000000
0.0190059000000
-0.0160963000000
-0.0243052000000
-0.0027229600000
0.0069762700000
-0.0075760100000
-0.0074984300000
0.0058095600000
0.0047569800000
0.0067297100000
0.0197409000000
0.0313965000000
0.0247298000000
-0.0074592800000
-0.0328001000000
-0.0312456000000
-0.0191667000000
-0.0020102100000
0.0047483700000
-0.0061094800000
0.0127208000000
0.0354424000000
0.0368347000000
0.0054126700000
0.0005901710000
0.0005259690000
-0.0095627900000
-0.0095035800000
-0.0196525000000
-0.0237447000000
-0.0272596000000
-0.0275533000000
-0.0126010000000
0.0173911000000
0.0208663000000
0.0050114900000
-0.0105383000000
0.0052400900000
0.0108267000000
0.0166214000000
0.0069283600000
0.0188920000000
0.0334862000000
0.0327590000000
0.0082321600000
-0.0233113000000
-0.0180776000000
-0.0150155000000
-0.0028896800000
-0.0108538000000
0.0065597200000
0.0118189000000
-0.0136994000000
-0.0176080000000
-0.0140522000000
-0.0051455000000
0.0048056800000
-0.0117876000000
-0.0196895000000
-0.0007541590000
0.0139227000000
-0.0070097000000
0.0009392220000
0.0145155000000
-0.0105408000000
-0.0223462000000
-0.0325512000000
-0.0099316300000
-0.0049917100000
-0.0268125000000
-0.0269400000000
-0.0103955000000
-0.0146366000000
-0.0316124000000
-0.0392236000000
-0.0199496000000
-0.0048688300000
-0.0042873600000
0.0157843000000
0.0357600000000
0.0360079000000
0.0477594000000
0.0210140000000
-0.0159997000000
0.0072808900000
0.0165201000000
0.0282410000000
0.0245384000000
0.0238378000000
0.0325435000000
0.0445102000000
0.0226415000000
0.0051832400000
0.0268440000000
0.0282099000000
-0.0015465300000
-0.0232949000000
-0.0184651000000
-0.0230235000000
-0.0349125000000
-0.0601921000000
-0.0510641000000
0.0020789800000
0.0501578000000
0.0427934000000
0.0294641000000
0.0328628000000
0.0211166000000
0.0009614350000
-0.0159399000000
-0.0097321200000
-0.0073962600000
0.0050284200000
0.0366281000000
0.0295545000000
0.0028713100000
-0.0155284000000
-0.0372339000000
-0.0169410000000
0.0253646000000
0.0574528000000
0.0610708000000
0.0340735000000
0.0151190000000
0.0055269300000
0.0034655800000
0.0112860000000
0.0177814000000
0.0253121000000
0.0502848000000
0.0490589000000
0.0295983000000
0.0424871000000
0.0572425000000
0.0573844000000
0.0645061000000
0.0782149000000
0.0819196000000
0.0740902000000
0.0640208000000
0.0557680000000
0.0332363000000
-0.0085693600000
-0.0358359000000
-0.0308899000000
-0.0125513000000
0.0026182500000
0.0114362000000
0.0271667000000
0.0464091000000
0.0540214000000
0.0452342000000
0.0283920000000
0.0116600000000
-0.0128087000000
-0.0371092000000
-0.0408352000000
-0.0386584000000
-0.0278219000000
-0.0014660300000
0.0108220000000
-0.0087640100000
-0.0527504000000
-0.0785961000000
-0.0823007000000
-0.0761399000000
-0.0616476000000
-0.0637508000000
-0.0725564000000
-0.0800034000000
-0.0806724000000
-0.0691780000000
-0.0454303000000
-0.0132380000000
0.0042866800000
-0.0114243000000
-0.0288805000000
-0.0095779900000
0.0428542000000
0.1037160000000
0.1396020000000
0.1411250000000
0.0838390000000
0.0218047000000
-0.0056893200000
0.0026074200000
0.0436798000000
0.0752713000000
0.1111310000000
0.1383480000000
0.1460800000000
0.1487800000000
0.1214260000000
0.0893069000000
0.0499217000000
0.0053273600000
-0.0010016800000
0.0036057200000
-0.0185303000000
-0.0670975000000
-0.1066680000000
-0.1186240000000
-0.1104290000000
-0.0506610000000
0.0150373000000
0.0108462000000
-0.0274007000000
-0.0486738000000
-0.0099575700000
0.0552093000000
0.0856584000000
0.0919427000000
0.0793804000000
0.0616325000000
0.0546741000000
0.0671987000000
0.1043370000000
0.1196910000000
0.0824000000000
0.0089080000000
-0.0552306000000
-0.0900992000000
-0.1075660000000
-0.1153910000000
-0.1229340000000
-0.1314310000000
-0.1249170000000
-0.1137340000000
-0.1215310000000
-0.1248400000000
-0.0979088000000
-0.0773170000000
-0.1010100000000
-0.1405350000000
-0.1527350000000
-0.1162110000000
-0.0339453000000
0.0514594000000
0.0955051000000
0.0801368000000
0.0336432000000
0.0068846200000
-0.0031184700000
-0.0096229500000
-0.0023094900000
0.0213689000000
0.0684021000000
0.0824109000000
0.0454502000000
0.0083538900000
-0.0266147000000
-0.0250184000000
0.0151391000000
0.0521631000000
0.0716013000000
0.0880315000000
0.1047290000000
0.0830765000000
0.0231393000000
-0.0137122000000
-0.0105451000000
-0.0115987000000
-0.0237397000000
0.0035413100000
0.0745038000000
0.1052220000000
0.0839838000000
0.0712420000000
0.0696927000000
0.0657147000000
0.0686810000000
0.0419519000000
0.0147027000000
0.0249139000000
0.0446367000000
0.0392022000000
0.0295765000000
0.0435914000000
0.0687681000000
0.0963112000000
0.0997211000000
0.0943397000000
0.0673617000000
0.0444098000000
0.0387121000000
0.0372576000000
0.0219526000000
-0.0157741000000
-0.0150662000000
0.0060570700000
0.0194977000000
0.0371070000000
0.0369918000000
-0.0004350070000
-0.0642992000000
-0.1205570000000
-0.1543970000000
-0.1807220000000
-0.2039990000000
-0.2224390000000
-0.2301000000000
-0.2412120000000
-0.2448030000000
-0.2258380000000
-0.1991120000000
-0.1810820000000
-0.1697000000000
-0.1490260000000
-0.1196310000000
-0.0943751000000
-0.0736313000000
-0.0509801000000
-0.0486331000000
-0.0527916000000
-0.0583444000000
-0.0668634000000
-0.0736769000000
-0.0745071000000
-0.0582330000000
-0.0361132000000
-0.0159110000000
0.0024796000000
0.0211477000000
0.0431522000000
0.0665847000000
0.0901396000000
0.1119750000000
0.1389760000000
0.1575300000000
0.1686740000000
0.1681420000000
0.1365790000000
0.0886702000000
0.0399877000000
0.0261024000000
0.0285791000000
0.0143134000000
0.0079241500000
0.0126417000000
0.0297471000000
0.0575177000000
0.0707023000000
0.0788603000000
0.0801914000000
0.0600465000000
0.0291150000000
0.0053960100000
-0.0099569800000
-0.0216502000000
-0.0464596000000
-0.0704694000000
-0.0782947000000
-0.0811079000000
-0.0897411000000
-0.1125990000000
-0.1255330000000
-0.1331850000000
-0.1212620000000
-0.0984537000000
-0.0929946000000
-0.0987290000000
-0.1115440000000
-0.1121950000000
-0.1065860000000
-0.1024430000000
-0.0983861000000
-0.0853983000000
-0.0673137000000
-0.0381519000000
-0.0047304900000
0.0188203000000
0.0264632000000
0.0166448000000
-0.0000811500000
-0.0122232000000
-0.0123527000000
-0.0212491000000
-0.0303831000000
-0.0454403000000
-0.0677181000000
-0.0855313000000
-0.0738706000000
-0.0245067000000
0.0113290000000
0.0209844000000
0.0147900000000
0.0076908000000
0.0017901400000
-0.0103611000000
-0.0332508000000
-0.0649504000000
-0.0705307000000
-0.0634601000000
-0.0703766000000
-0.0806337000000
-0.0797840000000
-0.0697992000000
-0.0746085000000
-0.0824022000000
-0.0889577000000
-0.0863842000000
-0.0536106000000
-0.0045832100000
0.0367319000000
0.0532274000000
0.0665823000000
0.0949475000000
0.1129390000000
0.1276970000000
0.1392180000000
0.1455700000000
0.1399680000000
0.1155940000000
0.0900742000000
0.0697406000000
0.0590704000000
0.0428994000000
0.0175810000000
-0.0083729000000
-0.0302590000000
-0.0440524000000
-0.0535098000000
-0.0565769000000
-0.0485597000000
-0.0348845000000
-0.0237726000000
-0.0109807000000
0.0145907000000
0.0463749000000
0.0741302000000
0.0800136000000
0.0633632000000
0.0364536000000
0.0120134000000
-0.0116802000000
-0.0207041000000
-0.0063016400000
0.0012729100000
-0.0103285000000
-0.0273605000000
-0.0355470000000
-0.0407856000000
-0.0432010000000
-0.0403847000000
-0.0361966000000
-0.0208343000000
-0.0033280000000
0.0149545000000
0.0379158000000
0.0517021000000
0.0592971000000
0.0559566000000
0.0493429000000
0.0511851000000
0.0607558000000
0.0642677000000
0.0623746000000
0.0599093000000
0.0458639000000
0.0227130000000
0.0193001000000
0.0389525000000
0.0510752000000
0.0508570000000
0.0457540000000
0.0414934000000
0.0407560000000
0.0455817000000
0.0476839000000
0.0427961000000
0.0315945000000
0.0276645000000
0.0292445000000
0.0353298000000
0.0476412000000
0.0656443000000
0.0792950000000
0.0759606000000
0.0728904000000
0.0775100000000
0.0731628000000
0.0643592000000
0.0573213000000
0.0512890000000
0.0620857000000
0.0787709000000
0.0799399000000
0.0616268000000
0.0266827000000
-0.0207902000000
-0.0594838000000
-0.0779835000000
-0.0796910000000
-0.0609750000000
-0.0317316000000
-0.0200066000000
-0.0196251000000
-0.0154829000000
-0.0059315900000
-0.0014507100000
0.0070765100000
0.0218747000000
0.0323644000000
0.0289699000000
0.0142115000000
0.0049937900000
-0.0040535900000
-0.0141954000000
-0.0216179000000
-0.0173972000000
-0.0155142000000
-0.0175746000000
-0.0086587600000
0.0153153000000
0.0366109000000
0.0301135000000
0.0073573700000
-0.0256743000000
-0.0468464000000
-0.0309630000000
-0.0092797800000
-0.0180589000000
-0.0359456000000
-0.0404530000000
-0.0077772400000
0.0489888000000
0.0705608000000
0.0686789000000
0.0687871000000
0.0778080000000
0.0808242000000
0.0732527000000
0.0771981000000
0.0851796000000
0.0868728000000
0.0713953000000
0.0422244000000
0.0187032000000
0.0112929000000
0.0170437000000
0.0220580000000
0.0148375000000
-0.0047200000000
-0.0262308000000
-0.0493154000000
-0.0655201000000
-0.0757486000000
-0.0750020000000
-0.0543531000000
-0.0221333000000
0.0140675000000
0.0407732000000
0.0443146000000
0.0353672000000
0.0245501000000
0.0179986000000
0.0256323000000
0.0441178000000
0.0651941000000
0.0672147000000
0.0358038000000
0.0051314100000
-0.0107653000000
-0.0216711000000
-0.0139068000000
0.0006577350000
0.0125050000000
0.0031506400000
-0.0059579600000
0.0110424000000
0.0326358000000
0.0460682000000
0.0337038000000
0.0004752300000
-0.0203593000000
-0.0276757000000
-0.0159080000000
0.0035730000000
-0.0035669900000
-0.0268638000000
-0.0486326000000
-0.0636858000000
-0.0722558000000
-0.0683380000000
-0.0588469000000
-0.0600403000000
-0.0670354000000
-0.0601086000000
-0.0517487000000
-0.0523811000000
-0.0525769000000
-0.0485459000000
-0.0498178000000
-0.0523219000000
-0.0516069000000
-0.0585398000000
-0.0739683000000
-0.0776607000000
-0.0631808000000
-0.0398921000000
-0.0016615200000
0.0190802000000
0.0196432000000
0.0196697000000
0.0184049000000
0.0106693000000
0.0113496000000
0.0311988000000
0.0582217000000
0.0759615000000
0.0765001000000
0.0652036000000
0.0534797000000
0.0533043000000
0.0582309000000
0.0516080000000
0.0321994000000
0.0082039300000
-0.0064157300000
0.0027642700000
0.0216853000000
0.0344649000000
0.0296402000000
0.0186977000000
0.0013658400000
-0.0272013000000
-0.0453440000000
-0.0603962000000
-0.0724924000000
-0.0745150000000
-0.0643426000000
-0.0386845000000
-0.0157977000000
-0.0039422700000
0.0004488230000
-0.0025663000000
-0.0028621100000
-0.0114678000000
-0.0220993000000
-0.0128979000000
-0.0023980300000
0.0086546800000
0.0190301000000
0.0096195900000
-0.0093350800000
-0.0182315000000
-0.0260039000000
-0.0345220000000
-0.0333459000000
-0.0277869000000
-0.0060191100000
0.0012953100000
0.0020419400000
0.0119002000000
-0.0015729600000
-0.0175431000000
-0.0150451000000
0.0025029300000
0.0117013000000
-0.0018422900000
0.0060188400000
0.0361170000000
0.0334660000000
0.0113330000000
-0.0069862100000
-0.0224413000000
-0.0444437000000
-0.0444498000000
-0.0387001000000
-0.0448293000000
-0.0237643000000
-0.0047259800000
-0.0015966300000
0.0077822500000
0.0020274000000
-0.0205381000000
-0.0487747000000
-0.0489012000000
-0.0329954000000
-0.0368255000000
-0.0404302000000
-0.0444398000000
-0.0345979000000
-0.0132921000000
-0.0116377000000
-0.0283994000000
-0.0423010000000
-0.0448041000000
-0.0251456000000
-0.0222499000000
-0.0318420000000
-0.0216746000000
-0.0063287400000
0.0079665500000
0.0251821000000
0.0324639000000
0.0131175000000
-0.0027496500000
-0.0018388100000
0.0216885000000
0.0395966000000
0.0433053000000
0.0456248000000
0.0366334000000
0.0183040000000
-0.0054681200000
-0.0205519000000
-0.0010791000000
0.0340313000000
0.0496424000000
0.0432296000000
0.0351563000000
0.0387946000000
0.0334365000000
0.0169594000000
0.0111158000000
0.0286282000000
0.0385517000000
0.0098846200000
-0.0179991000000
-0.0122780000000
0.0085697700000
0.0159117000000
0.0119847000000
0.0070743700000
-0.0006225780000
0.0071671400000
0.0165389000000
0.0175323000000
0.0129545000000
-0.0025637700000
-0.0043804200000
0.0046516500000
0.0170456000000
0.0334564000000
0.0414715000000
0.0385349000000
0.0227341000000
0.0073575400000
0.0152166000000
0.0294293000000
0.0342436000000
0.0280950000000
0.0072441700000
-0.0025223600000
0.0021573600000
0.0079162500000
0.0109762000000
0.0062586900000
-0.0042565200000
-0.0019574700000
0.0140544000000
0.0201010000000
0.0177519000000
0.0309150000000
0.0520973000000
0.0619249000000
0.0596574000000
0.0585283000000
0.0677684000000
0.0673257000000
0.0458638000000
0.0236288000000
0.0166805000000
0.0221559000000
0.0302771000000
0.0267621000000
0.0084785800000
0.0091150200000
0.0219190000000
0.0176952000000
0.0066526300000
-0.0068430300000
-0.0274012000000
-0.0538600000000
-0.0681645000000
-0.0710981000000
-0.0716489000000
-0.0632074000000
-0.0479350000000
-0.0397434000000
-0.0393936000000
-0.0412827000000
-0.0470253000000
-0.0511523000000
-0.0455872000000
-0.0310176000000
-0.0185338000000
-0.0147721000000
-0.0121599000000
-0.0069641100000
-0.0076485700000
-0.0102180000000
-0.0030433600000
0.0061355800000
0.0088620000000
0.0069933100000
0.0059600100000
0.0028377400000
-0.0046072800000
-0.0062536000000
0.0012504900000
0.0050336200000
0.0024825600000
0.0000049347200
-0.0024349500000
-0.0049625600000
-0.0125626000000
-0.0174056000000
-0.0247038000000
-0.0379128000000
-0.0376293000000
-0.0341471000000
-0.0370603000000
-0.0411770000000
-0.0385128000000
-0.0249714000000
-0.0184414000000
-0.0185832000000
-0.0173144000000
-0.0164668000000
-0.0142912000000
-0.0133100000000
-0.0184529000000
-0.0306572000000
-0.0406441000000
-0.0371150000000
-0.0193721000000
-0.0058041100000
-0.0094496500000
-0.0165775000000
-0.0143896000000
-0.0064061200000
-0.0018141300000
-0.0036144900000
-0.0074915600000
-0.0090634300000
-0.0175295000000
-0.0273623000000
-0.0347951000000
-0.0387589000000
-0.0305133000000
-0.0167923000000
-0.0063128800000
-0.0069218700000
-0.0149167000000
-0.0193221000000
-0.0233124000000
-0.0406841000000
-0.0609872000000
-0.0691534000000
-0.0555508000000
-0.0375631000000
-0.0185177000000
0.0149933000000
0.0367845000000
0.0275218000000
0.0044769100000
0.0006518480000
0.0096410500000
0.0159609000000
0.0264128000000
0.0368983000000
0.0454193000000
0.0449991000000
0.0464719000000
0.0582977000000
0.0622063000000
0.0565034000000
0.0487217000000
0.0433096000000
0.0367856000000
0.0303432000000
0.0321016000000
0.0352564000000
0.0383867000000
0.0472321000000
0.0560255000000
0.0618159000000
0.0650391000000
0.0689905000000
0.0645024000000
0.0525449000000
0.0484638000000
0.0444103000000
0.0382433000000
0.0256840000000
0.0058918200000
-0.0047580700000
0.0003418630000
0.0134488000000
0.0214659000000
0.0188496000000
0.0132711000000
0.0120246000000
0.0177967000000
0.0174815000000
0.0108198000000
0.0067111500000
-0.0060144300000
-0.0182718000000
-0.0142857000000
0.0045168600000
0.0136519000000
0.0106347000000
0.0074226300000
0.0024021200000
0.0032404900000
0.0090860300000
0.0099305200000
0.0130649000000
0.0249264000000
0.0341859000000
0.0265032000000
0.0078942400000
-0.0041051100000
-0.0120551000000
-0.0237851000000
-0.0281651000000
-0.0244830000000
-0.0249298000000
-0.0343445000000
-0.0445639000000
-0.0460665000000
-0.0458503000000
-0.0473171000000
-0.0457984000000
-0.0376701000000
-0.0297101000000
-0.0247183000000
-0.0282517000000
-0.0288250000000
-0.0251816000000
-0.0188373000000
-0.0090953500000
-0.0055672500000
-0.0075604100000
-0.0228941000000
-0.0359247000000
-0.0366765000000
-0.0265276000000
-0.0187206000000
-0.0197560000000
-0.0191818000000
-0.0157914000000
-0.0081986200000
-0.0004467000000
-0.0047685200000
-0.0209387000000
-0.0218435000000
-0.0072137000000
0.0081260000000
0.0141327000000
0.0085052700000
0.0010581700000
-0.0076629100000
-0.0105098000000
0.0025552800000
0.0199095000000
0.0197442000000
-0.0037159200000
-0.0402157000000
-0.0670214000000
-0.0587319000000
-0.0305453000000
-0.0122609000000
0.0050861700000
0.0307870000000
0.0592480000000
0.0688879000000
0.0373311000000
-0.0107804000000
-0.0355226000000
-0.0146841000000
0.0218879000000
0.0367217000000
0.0373091000000
0.0109645000000
-0.0226344000000
-0.0496706000000
-0.0686539000000
-0.0439884000000
-0.0127938000000
0.0032374700000
0.0198256000000
0.0272919000000
-0.0007295740000
-0.0186276000000
-0.0021455100000
-0.0130045000000
-0.0304741000000
-0.0328692000000
-0.0242136000000
0.0131867000000
0.0410989000000
0.0265668000000
-0.0029428600000
-0.0099432100000
0.0117205000000
0.0308964000000
0.0389053000000
0.0445591000000
0.0456820000000
0.0325780000000
0.0146116000000
-0.0008180170000
-0.0121727000000
-0.0077756200000
0.0049783600000
0.0232169000000
0.0397235000000
0.0475182000000
0.0472988000000
0.0274883000000
0.0022299100000
-0.0104019000000
-0.0033741600000
0.0190596000000
0.0370676000000
0.0434129000000
0.0394308000000
0.0275864000000
0.0064692700000
-0.0064787000000
-0.0036207600000
0.0106979000000
0.0144004000000
0.0063494400000
0.0049672500000
0.0058004900000
0.0095233900000
0.0130851000000
0.0025504700000
-0.0198509000000
-0.0315330000000
-0.0219604000000
-0.0076570700000
-0.0010241100000
0.0011953100000
-0.0018841800000
-0.0025095400000
-0.0044527400000
-0.0108207000000
-0.0147651000000
-0.0225723000000
-0.0310833000000
-0.0402665000000
-0.0552045000000
-0.0680097000000
-0.0668623000000
-0.0595663000000
-0.0501906000000
-0.0336789000000
-0.0185351000000
-0.0095704000000
-0.0036902100000
-0.0006802920000
-0.0043779000000
-0.0128501000000
-0.0197638000000
-0.0200658000000
-0.0125842000000
-0.0095018900000
-0.0181332000000
-0.0248847000000
-0.0219748000000
-0.0140474000000
-0.0103602000000
-0.0054888300000
0.0023722000000
0.0059461800000
0.0047995900000
0.0040069400000
0.0067404300000
0.0081040600000
0.0079876700000
0.0064759200000
0.0074550100000
0.0106444000000
0.0115878000000
0.0201547000000
0.0282707000000
0.0240652000000
0.0133499000000
-0.0027100600000
-0.0091606500000
0.0051824800000
0.0246603000000
0.0343002000000
0.0293898000000
0.0176281000000
0.0128717000000
0.0136876000000
0.0107407000000
0.0084955600000
0.0144002000000
0.0281773000000
0.0379763000000
0.0425019000000
0.0305902000000
0.0040425800000
-0.0021234300000
0.0083212500000
0.0195371000000
0.0281661000000
0.0409711000000
0.0563628000000
0.0651938000000
0.0693727000000
0.0654925000000
0.0500057000000
0.0249013000000
0.0028539100000
0.0026069600000
0.0145551000000
0.0249876000000
0.0235574000000
0.0060897900000
-0.0163034000000
-0.0330836000000
-0.0404685000000
-0.0360275000000
-0.0295516000000
-0.0175586000000
-0.0031389800000
0.0007960620000
0.0014926000000
0.0010600000000
-0.0074448800000
-0.0214965000000
-0.0198595000000
-0.0076217000000
-0.0054390200000
-0.0160665000000
-0.0259617000000
-0.0318523000000
-0.0339597000000
-0.0245758000000
-0.0168648000000
-0.0174993000000
-0.0132511000000
-0.0057583500000
-0.0044600100000
-0.0080199400000
-0.0103681000000
-0.0086831800000
-0.0027091600000
-0.0075553100000
-0.0210817000000
-0.0294407000000
-0.0268245000000
-0.0150446000000
-0.0104792000000
-0.0065523700000
-0.0046726300000
-0.0107071000000
-0.0189906000000
-0.0175332000000
-0.0062357700000
0.0049259600000
0.0051165700000
0.0000745877000
0.0014565600000
-0.0079449000000
-0.0223291000000
-0.0203718000000
-0.0071486600000
-0.0091153500000
-0.0110953000000
-0.0008740060000
-0.0003478130000
-0.0102705000000
-0.0125901000000
-0.0029532800000
0.0066743700000
0.0130105000000
0.0135448000000
0.0104735000000
0.0088638000000
0.0116442000000
0.0116981000000
0.0100262000000
0.0114979000000
0.0085989700000
0.0004878040000
-0.0116728000000
-0.0245749000000
-0.0342517000000
-0.0404229000000
-0.0369448000000
-0.0292154000000
-0.0214441000000
-0.0177927000000
-0.0144176000000
-0.0112476000000
-0.0158969000000
-0.0159195000000
-0.0186562000000
-0.0236156000000
-0.0251631000000
-0.0223643000000
-0.0151123000000
-0.0039403400000
0.0007729430000
-0.0002074110000
-0.0003676840000
-0.0039378200000
-0.0069510300000
-0.0051141400000
0.0049551600000
0.0147103000000
0.0167940000000
0.0104974000000
0.0040845600000
0.0025289300000
0.0058947900000
0.0102837000000
0.0120339000000
0.0156007000000
0.0200641000000
0.0225191000000
0.0260471000000
0.0257257000000
0.0262039000000
0.0269872000000
0.0247420000000
0.0266370000000
0.0313473000000
0.0366246000000
0.0414246000000
0.0453484000000
0.0461306000000
0.0392067000000
0.0252887000000
0.0159025000000
0.0170753000000
0.0176158000000
0.0170822000000
0.0206276000000
0.0205734000000
0.0155793000000
0.0102660000000
0.0081361100000
0.0068375100000
0.0055572700000
0.0103613000000
0.0154867000000
0.0126346000000
0.0118634000000
0.0125670000000
0.0035113300000
-0.0072447100000
-0.0072305700000
-0.0016625400000
0.0013014400000
-0.0000063372700
-0.0047739600000
-0.0124292000000
-0.0188513000000
-0.0163289000000
-0.0162301000000
-0.0199502000000
-0.0204420000000
-0.0186816000000
-0.0178199000000
-0.0172692000000
-0.0133179000000
-0.0121093000000
-0.0101001000000
-0.0043637300000
0.0008932090000
-0.0019425300000
-0.0078903000000
-0.0038216600000
-0.0020572000000
-0.0029947300000
-0.0032029500000
-0.0028644600000
-0.0063234200000
-0.0133952000000
-0.0132393000000
-0.0135659000000
-0.0208447000000
-0.0245505000000
-0.0216447000000
-0.0212501000000
-0.0236003000000
-0.0266319000000
-0.0277326000000
-0.0238466000000
-0.0152104000000
-0.0074024300000
-0.0058480900000
-0.0068019400000
-0.0060809500000
-0.0020429100000
0.0052683000000
0.0071816700000
0.0036737500000
0.0051954400000
0.0098107900000
0.0146842000000
0.0187967000000
0.0186476000000
0.0177101000000
0.0160127000000
0.0118162000000
0.0045832800000
0.0040343700000
0.0061945900000
0.0041983000000
-0.0003143310000
-0.0046964000000
-0.0053615900000
-0.0102588000000
-0.0174632000000
-0.0218799000000
-0.0170483000000
-0.0061222300000
0.0030912800000
0.0098812700000
0.0123699000000
0.0114803000000
0.0146279000000
0.0213720000000
0.0262444000000
0.0250467000000
0.0185982000000
0.0134011000000
0.0100258000000
0.0105917000000
0.0085760600000
0.0042806900000
0.0025292000000
0.0017405900000
0.0020505200000
0.0043259900000
0.0090555800000
0.0112413000000
0.0056494900000
0.0034675600000
0.0043650100000
0.0023360800000
0.0040984900000
0.0056681100000
0.0106180000000
0.0123682000000
0.0062959800000
0.0040936500000
0.0060243500000
0.0042055400000
0.0000876503000
0.0013125200000
0.0048160600000
0.0071190700000
0.0063437200000
-0.0020673500000
-0.0105447000000
-0.0133591000000
-0.0147515000000
-0.0159063000000
-0.0146060000000
-0.0099487900000
-0.0062239100000
-0.0044431400000
0.0012911500000
0.0074007900000
0.0052790400000
-0.0003413140000
-0.0056597500000
-0.0064412200000
-0.0085487000000
-0.0135040000000
-0.0125066000000
-0.0083920800000
-0.0084605700000
-0.0142360000000
-0.0181182000000
-0.0161569000000
-0.0092384300000
-0.0010806300000
0.0036244800000
0.0054480800000
0.0048277700000
0.0010638100000
-0.0001807410000
0.0008044240000
-0.0007134920000
-0.0006973270000
-0.0015318400000
-0.0019777400000
-0.0026357900000
-0.0040792500000
0.0003616750000
-0.0017437600000
-0.0099447200000
-0.0133088000000
-0.0116780000000
-0.0062538000000
-0.0068833000000
-0.0092213000000
-0.0091296500000
-0.0069816900000
-0.0054834600000
-0.0061904800000
-0.0046973600000
-0.0065763500000
-0.0081075300000
-0.0079455100000
-0.0066523100000
-0.0043227800000
-0.0045289800000
-0.0038029000000
-0.0035694700000
-0.0036410300000
0.0012833700000
0.0074980800000
0.0116259000000
0.0142196000000
0.0161350000000
0.0154565000000
0.0152054000000
0.0169393000000
0.0142769000000
0.0132068000000
0.0131148000000
0.0147548000000
0.0164907000000
0.0156164000000
0.0176705000000
0.0182538000000
0.0208332000000
0.0236248000000
0.0221171000000
0.0166171000000
0.0142628000000
0.0167178000000
0.0148775000000
0.0132372000000
0.0123680000000
0.0120313000000
0.0121484000000
0.0087995800000
0.0043257000000
0.0016694600000
0.0019100200000
0.0024321000000
0.0044525700000
0.0081947900000
0.0076734100000
0.0033923100000
-0.0024351100000
-0.0079677500000
-0.0092663700000
-0.0038901000000
0.0040269800000
0.0040462000000
-0.0020586600000
-0.0073169200000
-0.0095376200000
-0.0097244400000
-0.0095522100000
-0.0111507000000
-0.0143598000000
-0.0136745000000
-0.0109737000000
-0.0115380000000
-0.0146571000000
-0.0151362000000
-0.0159274000000
-0.0171933000000
-0.0150121000000
-0.0100424000000
-0.0051264400000
-0.0071111000000
-0.0133307000000
-0.0144227000000
-0.0096880100000
-0.0054593100000
-0.0023023600000
0.0033237100000
0.0074277300000
0.0072042100000
0.0010144600000
-0.0050455300000
-0.0054965100000
-0.0045481900000
-0.0029945400000
-0.0017559900000
-0.0024612200000
-0.0024041300000
-0.0024423100000
-0.0022599100000
-0.0004465200000
0.0020125300000
0.0052146900000
0.0053090200000
-0.0015281600000
-0.0082951800000
-0.0093590400000
-0.0071218800000
0.0003120120000
0.0053505200000
0.0018034600000
-0.0038750400000
-0.0073358400000
-0.0074970800000
-0.0089285800000
-0.0134388000000
-0.0144464000000
-0.0074277800000
0.0003538720000
0.0013264200000
0.0015566300000
0.0031848900000
0.0017699700000
-0.0005148490000
-0.0009646770000
-0.0009597410000
0.0009492280000
0.0054005400000
0.0087691700000
0.0103721000000
0.0127486000000
0.0124442000000
0.0081054900000
0.0052560500000
0.0047131700000
0.0058692300000
0.0077873700000
0.0094168500000
0.0105290000000
0.0095895600000
0.0091141100000
0.0098875700000
0.0120291000000
0.0131707000000
0.0113980000000
0.0092200800000
0.0091072000000
0.0097935300000
0.0097522300000
0.0099782700000
0.0108759000000
0.0118012000000
0.0088101900000
0.0049227100000
0.0014226400000
0.0005010280000
0.0019783300000
0.0002302420000
-0.0033669600000
-0.0064232500000
-0.0067569700000
-0.0058522600000
-0.0069922600000
-0.0090561200000
-0.0098101600000
-0.0083187900000
-0.0079052500000
-0.0090932300000
-0.0072376600000
-0.0058669300000
-0.0053410500000
-0.0078069500000
-0.0099519000000
-0.0093422200000
-0.0091749700000
-0.0083703200000
-0.0085537800000
-0.0082346400000
-0.0080547900000
-0.0096563500000
-0.0099318000000
-0.0094890000000
-0.0088494800000
-0.0069509500000
-0.0060590600000
-0.0049347400000
-0.0042070100000
-0.0041853200000
-0.0041327600000
-0.0031383700000
-0.0025752800000
-0.0039207600000
-0.0061314500000
-0.0064845100000
-0.0054940900000
-0.0056240400000
-0.0060303400000
-0.0044259700000
-0.0018346900000
-0.0011313200000
-0.0014686700000
-0.0022573000000
-0.0023111800000
-0.0012836000000
-0.0008758460000
-0.0004448090000
0.0010457800000
0.0021820800000
0.0020003500000
0.0006068520000
-0.0005992410000
0.0002950000000
0.0011502800000
0.0007116830000
0.0010906400000
0.0020659900000
0.0031332500000
0.0039891000000
0.0050326200000
0.0053365100000
0.0052932600000
0.0047035100000
0.0042057800000
0.0047541500000
0.0043830400000
0.0041093800000
0.0041698100000
0.0041652900000
0.0045826400000
0.0047044900000
0.0043470600000
0.0038157500000
0.0035070000000
0.0034799800000
0.0038311200000
0.0037789900000
0.0033834600000
0.0033949600000
0.0034944900000
0.0035701900000
0.0032436800000
0.0025654200000
0.0019187900000
0.0014338700000
0.0010078600000
0.0004857510000
0.0002746710000
0.0003240280000
0.0004586430000
0.0004602060000
0.0006009720000
0.0007371550000
0.0006364950000
0.0003084730000
-0.0001606470000
-0.0002940380000
-0.0004033510000
-0.0005101330000
-0.0008050090000
-0.0011171500000
-0.0013203100000
-0.0013815900000
-0.0012224800000
-0.0011821000000
-0.0010840700000
-0.0010191400000
-0.0010843900000
-0.0010690600000
-0.0010435100000
-0.0010594400000
-0.0010456300000
-0.0009987060000
-0.0008720200000
-0.0006646110000
-0.0005445960000
-0.0005034790000
-0.0004336160000
-0.0003788980000
-0.0003181560000
-0.0002411820000
-0.0001796030000
-0.0001333640000
-0.0000695578000
0.0000105042000
0.0000701734000
0.0001182060000
0.0001625690000
0.0002016690000
0.0002360580000
0.0002599820000
0.0002690630000
0.0002619970000
0.0002409610000
