0.1 0 0 0 8.40997e-06 5.28926e-19 -8.40997e-06 3.93108e-06 3.10652e-19 -3.93108e-06 1.38203e-05 1.1405e-19 -1.38203e-05
0.2 0 0 0 1.682e-05 8.17977e-19 -1.682e-05 7.8622e-06 4.59551e-19 -7.8622e-06 2.76404e-05 1.43439e-19 -2.76404e-05
0.3 0 0 0 2.523e-05 1.17402e-18 -2.523e-05 1.17933e-05 6.08297e-19 -1.17933e-05 4.14602e-05 1.2238e-19 -4.14602e-05
0.4 0 0 0 3.364e-05 1.62755e-18 -3.364e-05 1.57245e-05 7.24922e-19 -1.57245e-05 5.52799e-05 -2.33376e-20 -5.52799e-05
0.5 0 0 0 4.205e-05 1.76709e-18 -4.205e-05 1.96557e-05 6.92357e-19 -1.96557e-05 6.90994e-05 -2.38043e-19 -6.90994e-05
0.6 0 0 0 5.04601e-05 2.06748e-18 -5.04601e-05 2.35869e-05 5.88687e-19 -2.35869e-05 8.29187e-05 -5.48426e-19 -8.29187e-05
0.7 0 0 0 5.88702e-05 2.14232e-18 -5.88702e-05 2.75181e-05 4.08839e-19 -2.75181e-05 9.67378e-05 -8.98986e-19 -9.67378e-05
0.8 0 0 0 6.72803e-05 2.27249e-18 -6.72803e-05 3.14494e-05 2.30379e-19 -3.14494e-05 0.000110557 -1.33139e-18 -0.000110557
0.9 0 0 0 7.56904e-05 2.33772e-18 -7.56904e-05 3.53807e-05 -8.00392e-20 -3.53807e-05 0.000124376 -1.86954e-18 -0.000124376
1 0 0 0 8.41005e-05 2.36316e-18 -8.41005e-05 3.9312e-05 -4.33356e-19 -3.9312e-05 0.000138194 -2.45768e-18 -0.000138194
