-9.78921e-05 3.52779e-06 -9.57893e-06 4.44089e-16 -7.16657e-06 -2.12381e-11 9.78921e-05 3.52779e-06 9.57893e-06
-9.78938e-05 3.52796e-06 -9.58016e-06 -1.33227e-15 -7.16663e-06 -3.58256e-11 9.78938e-05 3.52796e-06 9.58016e-06
-9.78947e-05 3.52615e-06 -9.5802e-06 -3.10862e-15 -7.16588e-06 -5.40297e-11 9.78947e-05 3.52616e-06 9.5802e-06
-9.78975e-05 3.52588e-06 -9.58024e-06 8.88178e-16 -7.16513e-06 -8.01776e-11 9.78975e-05 3.52588e-06 9.58024e-06
-9.78997e-05 3.52491e-06 -9.58028e-06 -1.06581e-14 -7.16438e-06 -9.35358e-11 9.78997e-05 3.52491e-06 9.58028e-06
-9.79006e-05 3.52279e-06 -9.58032e-06 1.42109e-14 -7.16363e-06 -1.16813e-10 9.79006e-05 3.52279e-06 9.58032e-06
-9.79028e-05 3.52723e-06 -9.58036e-06 3.10862e-14 -7.16288e-06 -1.34037e-10 9.79028e-05 3.52724e-06 9.58036e-06
-9.7904e-05 3.52431e-06 -9.5804e-06 -4.44089e-15 -7.16213e-06 -1.51772e-10 9.7904e-05 3.52431e-06 9.5804e-06
-9.7905e-05 3.52598e-06 -9.58043e-06 1.68754e-14 -7.16139e-06 -1.74396e-10 9.7905e-05 3.52598e-06 9.58044e-06
-9.79085e-05 3.52363e-06 -9.58048e-06 -6.03961e-14 -7.16064e-06 -1.94973e-10 9.79085e-05 3.52364e-06 9.58048e-06
