0.1 0
0.2 0
0.3 0
0.4 0
0.5 0
0.6 0
0.7 0
0.8 0
0.9 0
1 0
0.02 -0.061313
0.04 -0.0568176
0.06 -0.0424527
0.08 -0.00686594
0.1 0.0249083
0.12 -0.00533215
0.14 -0.0615197
0.16 -0.0819798
0.18 -0.0098134
0.2 0.140042
0.22 0.323064
0.24 0.343438
0.26 0.178922
0.28 0.025518
0.3 -0.12034
0.32 -0.232842
0.34 -0.19222
0.36 -0.0907196
0.38 -0.143432
0.4 -0.273284
0.42 -0.277674
0.44 -0.0276134
0.46 0.162171
0.48 0.229206
0.5 0.272562
0.52 0.0589058
0.54 -0.107845
0.56 -0.0915444
0.58 0.178118
0.6 0.481234
0.62 0.456495
0.64 0.0485605
0.66 -0.356587
0.68 -0.59863
0.7 -0.81068
0.72 -0.467714
0.74 0.0870313
0.76 0.410228
0.78 0.53409
0.8 0.190053
0.82 -0.266656
0.84 -0.0622903
0.86 0.348332
0.88 0.379378
0.9 0.285473
0.92 0.0710093
0.94 -0.280945
0.96 -0.575788
0.98 -0.188708
1 0.493354
1.02 0.362487
1.04 -0.109421
1.06 -0.503443
1.08 -0.804551
1.1 -0.619694
1.12 0.248786
1.14 1.06053
1.16 1.10828
1.18 0.607376
1.2 -0.142518
1.22 -0.951112
1.24 -1.00285
1.26 -0.696858
1.28 -0.196465
1.3 0.452718
1.32 0.34616
1.34 0.173179
1.36 0.233406
1.38 0.231818
1.4 0.094416
1.42 -0.0501227
1.44 -0.241459
1.46 -0.227562
1.48 -0.068615
1.5 0.387237
1.52 0.996518
1.54 0.928309
1.56 0.630202
1.58 -0.161476
1.6 -0.885228
1.62 -1.36897
1.64 -0.921425
1.66 -0.253894
1.68 -0.414326
1.7 -0.555456
1.72 -0.336273
1.74 0.0393884
1.76 0.103951
1.78 0.698434
1.8 1.21921
1.82 1.34188
1.84 0.835471
1.86 0.343478
1.88 0.235841
1.9 0.543295
1.92 0.452626
1.94 0.0150257
1.96 -0.229849
1.98 -0.905836
2 -1.66023
2.02 -2.0459
2.04 -1.45318
2.06 -0.46941
2.08 -0.254452
2.1 -0.387523
2.12 -0.379503
2.14 0.246196
2.16 0.811431
2.18 1.06489
2.2 1.48124
2.22 1.98624
2.24 2.12645
2.26 1.00315
2.28 -0.042319
2.3 0.0237053
2.32 0.349137
2.34 -0.552082
2.36 -1.98942
2.38 -2.81201
2.4 -2.31153
2.42 -1.24354
2.44 0.0643109
2.46 1.65525
2.48 2.05547
2.5 0.513182
2.52 -1.12154
2.54 -1.3945
2.56 -0.0933503
2.58 1.33643
2.6 2.13047
2.62 2.28326
2.64 1.14519
2.66 -0.324342
2.68 -1.02353
2.7 -0.777303
2.72 -0.825201
2.74 -0.923632
2.76 -0.78712
2.78 -1.01486
2.8 -1.12172
2.82 -0.122784
2.84 0.690776
2.86 0.779975
2.88 0.254136
2.9 -0.123155
2.92 -0.211259
2.94 -0.237886
2.96 0.0614191
2.98 0.31403
3 0.209592
3.02 -0.129989
3.04 0.497089
3.06 0.981485
3.08 0.819628
3.1 0.638702
3.12 0.568175
3.14 0.0302756
3.16 -0.248881
3.18 -0.0646864
3.2 -0.149979
3.22 -0.708084
3.24 -1.27836
3.26 -1.25851
3.28 -0.705198
3.3 0.382505
3.32 1.49446
3.34 2.09395
3.36 1.9278
3.38 1.55987
3.4 1.30982
3.42 1.26597
3.44 1.13713
3.46 0.460132
3.48 -0.708643
3.5 -2.0636
3.52 -2.86328
3.54 -2.91821
3.56 -2.51325
3.58 -1.81973
3.6 -1.06811
3.62 -0.55078
3.64 -0.260138
3.66 0.223165
3.68 0.860773
3.7 1.16554
3.72 0.260713
3.74 -2.09728
3.76 -4.79091
3.78 -6.76522
3.8 -7.15518
3.82 -5.66712
3.84 -3.09384
3.86 0.436867
3.88 4.28435
3.9 7.41205
3.92 10.2294
3.94 11.0141
3.96 14.6039
3.98 20.0823
4 19.3273
4.02 13.8823
4.04 4.81829
4.06 -5.95389
4.08 -16.174
4.1 -23.8776
4.12 -27.9426
4.14 -28.5864
4.16 -26.806
4.18 -24.0184
4.2 -18.652
4.22 -8.04464
4.24 6.55047
4.26 20.0679
4.28 29.4608
4.3 34.3182
4.32 34.741
4.34 31.9221
4.36 27.9148
4.38 23.6446
4.4 16.3376
4.42 4.24773
4.44 -10.9193
4.46 -26.1304
4.48 -37.1951
4.5 -42.492
4.52 -42.081
4.54 -37.6464
4.56 -29.6993
4.58 -17.9277
4.6 -3.87109
4.62 10.7987
4.64 24.3583
4.66 34.4318
4.68 39.6199
4.7 40.0275
4.72 36.7672
4.74 29.3977
4.76 18.5163
4.78 5.58104
4.8 -8.25386
4.82 -19.9462
4.84 -28.1745
4.86 -32.4463
4.88 -32.8635
4.9 -31.0779
4.92 -27.5452
4.94 -21.1576
4.96 -11.3411
4.98 1.07099
5 13.4539
5.02 23.0059
5.04 28.5118
5.06 30.2366
5.08 29.276
5.1 25.5915
5.12 19.1114
5.14 10.4882
5.16 0.392627
5.18 -9.41355
5.2 -16.9157
5.22 -21.2686
5.24 -23.2098
5.26 -23.4007
5.28 -22.4095
5.3 -19.3412
5.32 -13.911
5.34 -6.86723
5.36 1.20429
5.38 8.71123
5.4 14.6057
5.42 18.6707
5.44 20.7515
5.46 22.0447
5.48 22.0937
5.5 19.0012
5.52 13.1338
5.54 5.6943
5.56 -1.69781
5.58 -9.30977
5.6 -16.2191
5.62 -21.1383
5.64 -23.852
5.66 -23.4623
5.68 -19.9262
5.7 -13.9332
5.72 -7.28252
5.74 -0.751928
5.76 5.21986
5.78 10.3711
5.8 14.7879
5.82 18.6251
5.84 20.8745
5.86 20.2653
5.88 16.7796
5.9 11.3724
5.92 5.72036
5.94 0.0638253
5.96 -5.43271
5.98 -10.5404
6 -14.7725
6.02 -17.7789
6.04 -18.819
6.06 -17.1761
6.08 -13.3492
6.1 -8.46934
6.12 -3.36175
6.14 1.75292
6.16 6.67098
6.18 11.0639
6.2 13.9663
6.22 14.6031
6.24 13.2577
6.26 10.6808
6.28 7.89881
6.3 5.47899
6.32 2.97789
6.34 -0.00603269
6.36 -3.7003
6.38 -7.42965
6.4 -10.2589
6.42 -11.3843
6.44 -10.8426
6.46 -9.39897
6.48 -7.95792
6.5 -6.64953
6.52 -4.634
6.54 -1.43946
6.56 2.78927
6.58 6.99207
6.6 10.1495
6.62 11.7935
6.64 12.1773
6.66 11.7789
6.68 10.8901
6.7 9.04947
6.72 5.61993
6.74 -0.224248
6.76 -7.4938
6.78 -13.7947
6.8 -17.4933
6.82 -17.8441
6.84 -15.2344
6.86 -10.6667
6.88 -5.55446
6.9 -0.88367
6.92 3.22173
6.94 6.95604
6.96 9.9633
6.98 11.9535
7 12.4451
7.02 11.5907
7.04 9.86134
7.06 7.58765
7.08 5.05235
7.1 1.99354
7.12 -1.77342
7.14 -5.83387
7.16 -9.2794
7.18 -11.2102
7.2 -11.5611
7.22 -10.4994
7.24 -8.2395
7.26 -5.65829
7.28 -3.27881
7.3 -0.68008
7.32 2.72233
7.34 6.39877
7.36 9.32542
7.38 11.0848
7.4 11.4454
7.42 10.3536
7.44 7.83359
7.46 4.41435
7.48 0.831476
7.5 -2.45951
7.52 -5.1372
7.54 -7.11789
7.56 -8.33076
7.58 -8.87705
7.6 -8.74973
7.62 -7.81205
7.64 -5.87867
7.66 -3.09868
7.68 0.138606
7.7 3.27349
7.72 4.88371
7.74 4.4494
7.76 3.19994
7.78 2.1257
7.8 1.93469
7.82 2.68237
7.84 3.74792
7.86 5.08152
7.88 5.81013
7.9 5.73843
7.92 4.94352
7.94 3.10543
7.96 0.589134
7.98 -2.33724
8 -5.01412
8.02 -7.03571
8.04 -8.17582
8.06 -8.49219
8.08 -7.9395
8.1 -6.97898
8.12 -5.56775
8.14 -3.1032
8.16 0.243082
8.18 3.60438
8.2 5.91819
8.22 6.95439
8.24 6.97679
8.26 6.4478
8.28 5.78329
8.3 4.96609
8.32 3.832
8.34 2.14194
8.36 -0.399101
8.38 -3.28446
8.4 -5.43401
8.42 -6.43006
8.44 -6.58415
8.46 -6.21749
8.48 -5.39873
8.5 -3.59835
8.52 -0.879828
8.54 2.03065
8.56 4.66494
8.58 6.53329
8.6 7.1831
8.62 6.6512
8.64 5.47453
8.66 3.82983
8.68 1.70059
8.7 -1.08203
8.72 -4.17687
8.74 -6.63317
8.76 -7.76509
8.78 -7.42734
8.8 -6.02492
8.82 -4.1581
8.84 -2.2983
8.86 -0.36089
8.88 1.97067
8.9 4.68295
8.92 7.22485
8.94 8.81513
8.96 8.73713
8.98 7.14397
9 4.83138
9.02 2.46519
9.04 0.316253
9.06 -1.90712
9.08 -4.48294
9.1 -7.12884
9.12 -8.95447
9.14 -9.38989
9.16 -8.38871
9.18 -6.35011
9.2 -3.86034
9.22 -1.29135
9.24 1.29826
9.26 3.859
9.28 6.22559
9.3 8.07575
9.32 8.83539
9.34 8.23948
9.36 6.45597
9.38 4.12894
9.4 1.87061
9.42 -0.172239
9.44 -2.02657
9.46 -3.71462
9.48 -5.26722
9.5 -6.39838
9.52 -6.83713
9.54 -6.4398
9.56 -5.55776
9.58 -4.66044
9.6 -3.37514
9.62 -1.44084
9.64 0.926415
9.66 3.65128
9.68 6.30031
9.7 7.95058
9.72 8.27783
9.74 7.54643
9.76 6.37151
9.78 4.7469
9.8 2.72915
9.82 0.472707
9.84 -2.11579
9.86 -4.88352
9.88 -7.29552
9.9 -8.59136
9.92 -8.57362
9.94 -7.56782
9.96 -5.98858
9.98 -4.01382
10 -1.87847
10.02 0.382856
10.04 2.9791
10.06 5.57579
10.08 7.55963
10.1 8.51498
10.12 8.47733
10.14 7.57508
10.16 5.90146
10.18 3.57192
10.2 0.596693
10.22 -2.67696
10.24 -5.75425
10.26 -8.13203
10.28 -9.29753
10.3 -9.06771
10.32 -7.49022
10.34 -5.06206
10.36 -2.24093
10.38 0.711054
10.4 3.39973
10.42 5.40256
10.44 6.47162
10.46 6.85103
10.48 6.54655
10.5 5.64197
10.52 4.33064
10.54 2.72126
10.56 0.795423
10.58 -1.3941
10.6 -3.45419
10.62 -4.96885
10.64 -5.72784
10.66 -5.78256
10.68 -5.23175
10.7 -4.21555
10.72 -2.83061
10.74 -1.11946
10.76 0.87981
10.78 2.87525
10.8 4.37632
10.82 5.08779
10.84 4.85146
10.86 3.77392
10.88 2.33372
10.9 0.88641
10.92 -0.380094
10.94 -1.38505
10.96 -1.98138
10.98 -2.19151
11 -2.25452
11.02 -2.08479
11.04 -1.5957
11.06 -0.811895
11.08 0.129678
11.1 0.852022
11.12 1.22003
11.14 0.929292
11.16 0.149515
11.18 -0.695858
11.2 -1.23187
11.22 -1.14039
11.24 -0.538459
11.26 0.452249
11.28 1.46666
11.3 2.22689
11.32 2.41046
11.34 2.09807
11.36 1.43546
11.38 0.454407
11.4 -0.633601
11.42 -1.51658
11.44 -2.05583
11.46 -2.31917
11.48 -2.35635
11.5 -2.18079
11.52 -1.7406
11.54 -1.01017
11.56 -0.122579
11.58 0.729165
11.6 1.43506
11.62 1.84213
11.64 1.98418
11.66 1.98889
11.68 1.95541
11.7 1.77785
11.72 1.26559
11.74 0.452886
11.76 -0.452115
11.78 -1.16107
11.8 -1.54246
11.82 -1.73038
11.84 -1.9085
11.86 -2.15021
11.88 -2.26835
11.9 -1.98741
11.92 -1.27936
11.94 -0.291621
11.96 0.710842
11.98 1.49137
12 1.99198
12.02 2.32747
12.04 2.68181
12.06 2.95903
12.08 2.82955
12.1 2.10033
12.12 0.952086
12.14 -0.240545
12.16 -1.18332
12.18 -1.8124
12.2 -2.21357
12.22 -2.48361
12.24 -2.5685
12.26 -2.3364
12.28 -1.72008
12.3 -0.791852
12.32 0.154509
12.34 0.695387
12.36 0.543725
12.38 0.218707
12.4 0.244816
12.42 0.596808
12.44 1.08184
12.46 1.39059
12.48 1.37515
12.5 1.16106
12.52 0.929052
12.54 0.833737
12.56 0.814901
12.58 0.549842
12.6 -0.116834
12.62 -0.986794
12.64 -1.6538
12.66 -1.84782
12.68 -1.58456
12.7 -1.109
12.72 -0.736012
12.74 -0.572051
12.76 -0.387043
12.78 0.128146
12.8 0.98871
12.82 1.76195
12.84 1.99153
12.86 1.49076
12.88 0.680995
12.9 0.0598219
12.92 -0.244967
12.94 -0.293333
12.96 -0.306592
12.98 -0.428234
13 -0.618353
13.02 -0.700398
13.04 -0.559806
13.06 -0.309256
13.08 -0.170905
13.1 -0.258274
13.12 -0.496951
13.14 -0.625692
13.16 -0.426574
13.18 0.0692946
13.2 0.598425
13.22 0.825847
13.24 0.72482
13.26 0.54355
13.28 0.498444
13.3 0.524888
13.32 0.367486
13.34 0.0510931
13.36 -0.284676
13.38 -0.53174
13.4 -0.606966
13.42 -0.52381
13.44 -0.448709
13.46 -0.538138
13.48 -0.652322
13.5 -0.514583
13.52 -0.0526834
13.54 0.557981
13.56 0.982295
13.58 0.987856
13.6 0.481358
13.62 -0.167176
13.64 -0.43981
13.66 -0.272445
13.68 0.047703
13.7 0.157814
13.72 0.00768386
13.74 -0.212449
13.76 -0.282128
13.78 -0.116983
13.8 0.264904
13.82 0.598991
13.84 0.664919
13.86 0.497665
13.88 0.286789
13.9 0.19588
13.92 0.237238
13.94 0.313335
13.96 0.229504
13.98 -0.0445247
14 -0.403378
14.02 -0.739084
14.04 -1.03771
14.06 -1.26142
14.08 -1.33912
14.1 -1.21067
14.12 -0.891163
14.14 -0.462546
14.16 0.00347913
14.18 0.481071
14.2 0.929914
14.22 1.32885
14.24 1.71173
14.26 1.98922
14.28 1.92862
14.3 1.36221
14.32 0.477937
14.34 -0.388795
14.36 -1.0021
14.38 -1.31332
14.4 -1.39686
14.42 -1.40465
14.44 -1.40036
14.46 -1.27353
14.48 -0.92348
14.5 -0.297521
14.52 0.406996
14.54 0.890486
14.56 1.02758
14.58 0.986486
14.6 0.938285
14.62 0.89376
14.64 0.844193
14.66 0.662412
14.68 0.332751
14.7 -0.148186
14.72 -0.579696
14.74 -0.755285
14.76 -0.753522
14.78 -0.748888
14.8 -0.796386
14.82 -0.803261
14.84 -0.674176
14.86 -0.35032
14.88 0.0699526
14.9 0.380967
14.92 0.461738
14.94 0.344853
14.96 0.152386
14.98 0.0987554
15 0.211293
15.02 0.409371
15.04 0.5118
15.06 0.489264
15.08 0.464961
15.1 0.539351
15.12 0.668974
15.14 0.677033
15.16 0.474046
15.18 0.073023
15.2 -0.386675
15.22 -0.747481
15.24 -0.968908
15.26 -1.12336
15.28 -1.29818
15.3 -1.40583
15.32 -1.26716
15.34 -0.809444
15.36 -0.140632
15.38 0.492467
15.4 0.899784
15.42 0.984924
15.44 0.9268
15.46 0.986295
15.48 1.23675
15.5 1.45031
15.52 1.36346
15.54 0.876049
15.56 0.117827
15.58 -0.598311
15.6 -1.04886
15.62 -1.26798
15.64 -1.40211
15.66 -1.49085
15.68 -1.43494
15.7 -1.10955
15.72 -0.546191
15.74 0.0984004
15.76 0.643464
15.78 1.00589
15.8 1.19263
15.82 1.3093
15.84 1.44214
15.86 1.47312
15.88 1.17179
15.9 0.494757
15.92 -0.311047
15.94 -0.890279
15.96 -1.10922
15.98 -1.14576
16 -1.22126
16.02 -1.37339
16.04 -1.50411
16.06 -1.38743
16.08 -0.834306
16.1 0.0474385
16.12 0.962642
16.14 1.57486
16.16 1.77937
16.18 1.71279
16.2 1.54201
16.22 1.28133
16.24 0.855062
16.26 0.219859
16.28 -0.451419
16.3 -0.868025
16.32 -0.976
16.34 -0.923054
16.36 -0.877155
16.38 -0.970091
16.4 -1.16556
16.42 -1.27156
16.44 -1.0895
16.46 -0.647484
16.48 -0.172142
16.5 0.210673
16.52 0.522003
16.54 0.84011
16.56 1.22237
16.58 1.59069
16.6 1.69966
16.62 1.43093
16.64 0.880941
16.66 0.290112
16.68 -0.151697
16.7 -0.411503
16.72 -0.610367
16.74 -0.873187
16.76 -1.15317
16.78 -1.27403
16.8 -1.05638
16.82 -0.559202
16.84 -0.0545968
16.86 0.25327
16.88 0.353055
16.9 0.33974
16.92 0.323068
16.94 0.422982
16.96 0.528031
16.98 0.432666
17 0.140498
17.02 -0.169005
17.04 -0.284518
17.06 -0.21888
17.08 -0.0906027
17.1 -0.0477585
17.12 -0.12229
17.14 -0.171685
17.16 -0.136817
17.18 0.0193851
17.2 0.24747
17.22 0.39017
17.24 0.365322
17.26 0.224045
17.28 0.128317
17.3 0.102795
17.32 0.0944293
17.34 0.00512501
17.36 -0.205909
17.38 -0.4483
17.4 -0.589344
17.42 -0.583489
17.44 -0.475313
17.46 -0.371091
17.48 -0.341365
17.5 -0.302268
17.52 -0.126942
17.54 0.257371
17.56 0.725721
17.58 1.08384
17.6 1.1903
17.62 1.06837
17.64 0.846205
17.66 0.622532
17.68 0.412443
17.7 0.0951856
17.72 -0.384671
17.74 -0.951874
17.76 -1.42883
17.78 -1.64838
17.8 -1.51643
17.82 -1.10881
17.84 -0.647188
17.86 -0.245924
17.88 0.0777995
17.9 0.404199
17.92 0.749748
17.94 1.07134
17.96 1.30461
17.98 1.36581
18 1.25627
18.02 1.00167
18.04 0.622211
18.06 0.155635
18.08 -0.355911
18.1 -0.834043
18.12 -1.15199
18.14 -1.26598
18.16 -1.22576
18.18 -1.06743
18.2 -0.813078
18.22 -0.465215
18.24 -0.0598176
18.26 0.372814
18.28 0.742595
18.3 0.909816
18.32 0.869838
18.34 0.727693
18.36 0.635661
18.38 0.630266
18.4 0.601588
18.42 0.426663
18.44 0.115174
18.46 -0.263993
18.48 -0.541634
18.5 -0.610937
18.52 -0.575741
18.54 -0.637328
18.56 -0.890713
18.58 -1.14135
18.6 -1.11085
18.62 -0.664559
18.64 0.081071
18.66 0.794351
18.68 1.1601
18.7 1.12919
18.72 0.887732
18.74 0.713964
18.76 0.700761
18.78 0.670414
18.8 0.415556
18.82 -0.0960949
18.84 -0.677432
18.86 -1.08903
18.88 -1.18444
18.9 -1.01742
18.92 -0.801691
18.94 -0.627318
18.96 -0.438624
18.98 -0.119342
19 0.329478
19.02 0.785855
19.04 1.08758
19.06 1.12106
19.08 0.978223
19.1 0.817887
19.12 0.705439
19.14 0.579141
19.16 0.304638
19.18 -0.137202
19.2 -0.608888
19.22 -0.927228
19.24 -0.983847
19.26 -0.850418
19.28 -0.682889
19.3 -0.631728
19.32 -0.675112
19.34 -0.632591
19.36 -0.37567
19.38 0.0355633
19.4 0.408377
19.42 0.629988
19.44 0.709475
19.46 0.710698
19.48 0.72325
19.5 0.723065
19.52 0.657528
19.54 0.494565
19.56 0.199054
19.58 -0.119642
19.6 -0.314391
19.62 -0.365503
19.64 -0.402356
19.66 -0.524639
19.68 -0.705255
19.7 -0.813844
19.72 -0.725317
19.74 -0.452753
19.76 -0.098988
19.78 0.238082
19.8 0.483151
19.82 0.626974
19.84 0.740717
19.86 0.823327
19.88 0.783879
19.9 0.573934
19.92 0.236703
19.94 -0.16558
19.96 -0.529266
19.98 -0.750058
20 -0.849362
20.02 -0.90837
20.04 -0.917506
20.06 -0.800986
20.08 -0.491074
20.1 -0.0340838
20.12 0.418978
20.14 0.728819
20.16 0.824523
20.18 0.770939
20.2 0.686062
20.22 0.657
20.24 0.665807
20.26 0.603523
20.28 0.352029
20.3 -0.0452351
20.32 -0.43366
20.34 -0.658614
20.36 -0.677716
20.38 -0.570023
20.4 -0.442676
20.42 -0.38982
20.44 -0.314764
20.46 -0.139811
20.48 0.120495
20.5 0.366429
20.52 0.467815
20.54 0.362028
20.56 0.128134
20.58 -0.0930514
20.6 -0.143464
20.62 -0.00558544
20.64 0.15419
20.66 0.20383
20.68 0.146405
20.7 0.0318913
20.72 -0.11516
20.74 -0.203785
20.76 -0.238304
20.78 -0.273782
20.8 -0.331063
20.82 -0.347549
20.84 -0.248214
20.86 -0.0805583
20.88 0.0985764
20.9 0.249833
20.92 0.305593
20.94 0.282591
20.96 0.239377
20.98 0.199178
21 0.164794
21.02 0.12642
21.04 0.0760009
21.06 0.0153141
21.08 0.0136945
21.1 0.0366203
21.12 0.0423962
21.14 0.0194812
21.16 -0.0866304
21.18 -0.199368
21.2 -0.276089
21.22 -0.283705
21.24 -0.23286
21.26 -0.152813
21.28 -0.0874691
21.3 -0.0628793
21.32 -0.0101271
21.34 0.0603725
21.36 0.177541
21.38 0.280886
21.4 0.318227
21.42 0.276539
21.44 0.159889
21.46 0.0370209
21.48 -0.0462801
21.5 -0.0828913
21.52 -0.134201
21.54 -0.211808
21.56 -0.307602
21.58 -0.358748
21.6 -0.301215
21.62 -0.134635
21.64 0.0777627
21.66 0.208983
21.68 0.279901
21.7 0.288142
21.72 0.272656
21.74 0.311257
21.76 0.334128
21.78 0.267487
21.8 0.102955
21.82 -0.0921049
21.84 -0.247205
21.86 -0.290723
21.88 -0.248357
21.9 -0.206105
21.92 -0.230779
21.94 -0.278118
21.96 -0.25602
21.98 -0.133676
22 -0.0120607
22.02 0.0269621
22.04 0.0179709
22.06 -0.00982337
22.08 0.0340504
22.1 0.205264
22.12 0.459384
22.14 0.564762
22.16 0.45587
22.18 0.186462
22.2 -0.0778236
22.22 -0.180334
22.24 -0.161668
22.26 -0.0988337
22.28 -0.125484
22.3 -0.284896
22.32 -0.43895
22.34 -0.44136
22.36 -0.25024
22.38 0.0382025
22.4 0.204698
22.42 0.209365
22.44 0.15439
22.46 0.149754
22.48 0.18292
22.5 0.239943
22.52 0.27024
22.54 0.16629
22.56 -0.0164342
22.58 -0.0983524
22.6 -0.0839759
22.62 -0.0687028
22.64 -0.122101
22.66 -0.279334
22.68 -0.457024
22.7 -0.553193
22.72 -0.441143
22.74 -0.13813
22.76 0.198748
22.78 0.400544
22.8 0.449943
22.82 0.431659
22.84 0.40969
22.86 0.437626
22.88 0.480431
22.9 0.435818
22.92 0.18308
22.94 -0.175198
22.96 -0.473265
22.98 -0.597287
23 -0.600114
23.02 -0.534997
23.04 -0.400957
23.06 -0.282807
23.08 -0.128861
23.1 0.107944
23.12 0.412274
23.14 0.633894
23.16 0.646664
23.18 0.44332
23.2 0.0984283
23.22 -0.218274
23.24 -0.394991
23.26 -0.443196
23.28 -0.408678
23.3 -0.324802
23.32 -0.19512
23.34 -0.0155441
23.36 0.224908
23.38 0.422525
23.4 0.495727
23.42 0.431887
23.44 0.247834
23.46 0.0467024
23.48 -0.0791683
23.5 -0.110165
23.52 -0.132929
23.54 -0.174412
23.56 -0.259761
23.58 -0.326565
23.6 -0.323417
23.62 -0.22476
23.64 -0.0605766
23.66 0.0887123
23.68 0.209854
23.7 0.291884
23.72 0.346434
23.74 0.354099
23.76 0.308591
23.78 0.223704
23.8 0.0835897
23.82 -0.0756485
23.84 -0.236087
23.86 -0.358239
23.88 -0.433245
23.9 -0.422148
23.92 -0.331325
23.94 -0.196113
23.96 -0.0967166
23.98 -0.128683
24 -0.203056
24.02 -0.101851
24.04 0.257136
24.06 0.639793
24.08 0.861199
24.1 0.810058
24.12 0.486243
24.14 0.0301322
24.16 -0.254518
24.18 -0.270891
24.2 -0.163515
24.22 -0.0872258
24.24 -0.18063
24.26 -0.45691
24.28 -0.673218
24.3 -0.570719
24.32 -0.219738
24.34 0.153011
24.36 0.405612
24.38 0.476548
24.4 0.438724
24.42 0.370748
24.44 0.313192
24.46 0.196146
24.48 -0.0126357
24.5 -0.219085
24.52 -0.355634
24.54 -0.360983
24.56 -0.280649
24.58 -0.225879
24.6 -0.230339
24.62 -0.275046
24.64 -0.275169
24.66 -0.166367
24.68 0.0593641
24.7 0.299729
24.72 0.372781
24.74 0.322469
24.76 0.270301
24.78 0.33252
24.8 0.462823
24.82 0.570621
24.84 0.487475
24.86 0.183246
24.88 -0.198031
24.9 -0.477683
24.92 -0.525071
24.94 -0.439887
24.96 -0.347747
24.98 -0.330555
25 -0.398844
25.02 -0.456727
25.04 -0.358212
25.06 -0.147115
25.08 0.0787937
25.1 0.227971
25.12 0.288487
25.14 0.303325
25.16 0.336851
25.18 0.453021
25.2 0.557535
25.22 0.512076
25.24 0.311961
25.26 0.0524026
25.28 -0.200332
25.3 -0.311135
25.32 -0.320331
25.34 -0.288365
25.36 -0.256499
25.38 -0.253674
25.4 -0.241518
25.42 -0.182538
25.44 -0.0790874
25.46 0.012406
25.48 0.0531084
25.5 0.0564048
25.52 0.0721711
25.54 0.0556018
25.56 0.0377774
25.58 0.0462552
25.6 0.069323
25.62 0.114577
25.64 0.202029
25.66 0.297325
25.68 0.343688
25.7 0.301327
25.72 0.13107
25.74 -0.0852766
25.76 -0.268906
25.78 -0.358698
25.8 -0.386627
25.82 -0.38648
25.84 -0.344794
25.86 -0.256777
25.88 -0.109886
25.9 0.0730637
25.92 0.204109
25.94 0.241366
25.96 0.204197
25.98 0.145384
26 0.154142
26.02 0.256443
26.04 0.374516
26.06 0.401305
26.08 0.304867
26.1 0.144782
26.12 -0.0189163
26.14 -0.153221
26.16 -0.236516
26.18 -0.314029
26.2 -0.410249
26.22 -0.495065
26.24 -0.488549
26.26 -0.354404
26.28 -0.164816
26.3 0.00922339
26.32 0.098926
26.34 0.0946384
26.36 0.0859429
26.38 0.139743
26.4 0.240953
26.42 0.318752
26.44 0.35356
26.46 0.312646
26.48 0.262892
26.5 0.212755
26.52 0.197158
26.54 0.153282
26.56 0.00957955
26.58 -0.167601
26.6 -0.329249
26.62 -0.386341
26.64 -0.351195
26.66 -0.273419
26.68 -0.220389
26.7 -0.21717
26.72 -0.211096
26.74 -0.16223
26.76 -0.0491688
26.78 0.101342
26.8 0.196518
26.82 0.206633
26.84 0.14352
26.86 0.114573
26.88 0.166124
26.9 0.262803
26.92 0.322727
26.94 0.266876
26.96 0.119125
26.98 -0.059883
27 -0.167053
27.02 -0.146113
27.04 -0.0679441
27.06 -0.0458402
27.08 -0.114761
27.1 -0.245791
27.12 -0.34369
27.14 -0.317774
27.16 -0.176696
27.18 0.00505747
27.2 0.139636
27.22 0.196132
27.24 0.232511
27.26 0.25114
27.28 0.322005
27.3 0.383309
27.32 0.344698
27.34 0.201653
27.36 0.00108945
27.38 -0.180049
27.4 -0.289228
27.42 -0.309956
27.44 -0.310779
27.46 -0.337149
27.48 -0.380353
27.5 -0.382728
27.52 -0.283253
27.54 -0.106774
27.56 0.0875645
27.58 0.243231
27.6 0.317428
27.62 0.358752
27.64 0.377947
27.66 0.406266
27.68 0.44823
27.7 0.430505
27.72 0.311372
27.74 0.111493
27.76 -0.0938217
27.78 -0.248046
27.8 -0.341156
27.82 -0.400093
27.84 -0.463922
27.86 -0.549278
27.88 -0.608693
27.9 -0.576648
27.92 -0.419957
27.94 -0.15376
27.96 0.126475
27.98 0.353241
28 0.477176
28.02 0.525
28.04 0.548369
28.06 0.528949
28.08 0.493175
28.1 0.387283
28.12 0.238755
28.14 0.0438067
28.16 -0.127005
28.18 -0.239186
28.2 -0.344965
28.22 -0.420227
28.24 -0.484743
28.26 -0.50432
28.28 -0.433204
28.3 -0.248886
28.32 -0.016471
28.34 0.197034
28.36 0.341465
28.38 0.397534
28.4 0.400141
28.42 0.405871
28.44 0.390848
28.46 0.324107
28.48 0.183867
28.5 -0.0282115
28.52 -0.236993
28.54 -0.357066
28.56 -0.42278
28.58 -0.419161
28.6 -0.379731
28.62 -0.351953
28.64 -0.338196
28.66 -0.289486
28.68 -0.181384
28.7 -0.00166954
28.72 0.196962
28.74 0.349286
28.76 0.450423
28.78 0.464624
28.8 0.448478
28.82 0.395364
28.84 0.33637
28.86 0.264185
28.88 0.163694
28.9 0.0445176
28.92 -0.0935384
28.94 -0.206868
28.96 -0.309483
28.98 -0.392362
29 -0.449301
29.02 -0.498598
29.04 -0.495715
29.06 -0.416733
29.08 -0.241122
29.1 0.000149549
29.12 0.238718
29.14 0.402927
29.16 0.46091
29.18 0.460619
29.2 0.417037
29.22 0.354663
29.24 0.276529
29.26 0.158565
29.28 0.00884223
29.3 -0.161723
29.32 -0.278835
29.34 -0.342453
29.36 -0.341368
29.38 -0.321569
29.4 -0.291191
29.42 -0.219007
29.44 -0.126226
29.46 0.0199047
29.48 0.170813
29.5 0.272745
29.52 0.272623
29.54 0.208291
29.56 0.109327
29.58 0.0436825
29.6 0.0155985
29.62 0.0015093
29.64 -0.0246662
29.66 -0.0669678
29.68 -0.0855016
29.7 -0.0698651
29.72 -0.0303543
29.74 0.0117116
29.76 0.0349516
29.78 0.0448487
29.8 0.0706043
29.82 0.118375
29.84 0.163518
29.86 0.142872
29.88 0.0380602
29.9 -0.100039
29.92 -0.198329
29.94 -0.221967
29.96 -0.149347
29.98 -0.0640638
30 -0.0411727
30.02 -0.0700366
30.04 -0.0875786
30.06 -0.069008
30.08 0.0210993
30.1 0.139487
30.12 0.201421
30.14 0.202607
30.16 0.14611
30.18 0.109288
30.2 0.109444
30.22 0.103047
30.24 0.050356
30.26 -0.0524491
30.28 -0.172927
30.3 -0.275538
30.32 -0.316742
30.34 -0.312966
30.36 -0.291321
30.38 -0.241577
30.4 -0.157528
30.42 -0.0289244
30.44 0.146192
30.46 0.299357
30.48 0.369964
30.5 0.374494
30.52 0.338763
30.54 0.293951
30.56 0.260616
30.58 0.220104
30.6 0.119544
30.62 -0.03762
30.64 -0.204913
30.66 -0.354962
30.68 -0.38687
30.7 -0.340731
30.72 -0.269711
30.74 -0.187969
30.76 -0.126838
30.78 -0.0636461
30.8 0.00123151
30.82 0.0656163
30.84 0.138412
30.86 0.203605
30.88 0.237345
30.9 0.24419
30.92 0.236828
30.94 0.219744
30.96 0.168488
30.98 0.0879291
31 0.0134997
31.02 -0.066679
31.04 -0.167452
31.06 -0.274451
31.08 -0.374958
31.1 -0.418721
31.12 -0.396277
31.14 -0.304887
31.16 -0.165001
31.18 -0.00524505
31.2 0.119765
31.22 0.19879
31.24 0.27059
31.26 0.359641
31.28 0.440781
31.3 0.457339
31.32 0.425286
31.34 0.329124
31.36 0.188029
31.38 0.0370533
31.4 -0.0901992
31.42 -0.178381
31.44 -0.259268
31.46 -0.324145
31.48 -0.383669
31.5 -0.420652
31.52 -0.421543
31.54 -0.385402
31.56 -0.314531
31.58 -0.21865
31.6 -0.093037
31.62 0.0408957
31.64 0.172048
31.66 0.304661
31.68 0.419847
31.7 0.486424
31.72 0.492667
31.74 0.442269
31.76 0.348588
31.78 0.209402
31.8 0.0714186
31.82 -0.0654728
31.84 -0.184274
31.86 -0.267017
31.88 -0.329051
31.9 -0.367936
31.92 -0.390858
31.94 -0.36979
31.96 -0.312948
31.98 -0.240394
32 -0.152321
32.02 -0.0282594
32.04 0.104878
32.06 0.2148
32.08 0.318686
32.1 0.398632
32.12 0.445552
32.14 0.426864
32.16 0.335033
32.18 0.218442
32.2 0.0753284
32.22 -0.0677282
32.24 -0.188806
32.26 -0.277174
32.28 -0.31363
32.3 -0.348683
32.32 -0.349068
32.34 -0.318902
32.36 -0.242574
32.38 -0.130481
32.4 -0.0149388
32.42 0.0980996
32.44 0.17191
32.46 0.210353
32.48 0.240012
32.5 0.25331
32.52 0.251725
32.54 0.246084
32.56 0.207798
32.58 0.147658
32.6 0.0863757
32.62 -0.00419534
32.64 -0.111544
32.66 -0.21268
32.68 -0.253959
32.7 -0.25374
32.72 -0.215787
32.74 -0.157343
32.76 -0.0914868
32.78 -0.044314
32.8 -0.0287247
32.82 0.00458737
32.84 0.0226803
32.86 0.0519942
32.88 0.0810115
32.9 0.114228
32.92 0.121263
32.94 0.133396
32.96 0.115921
32.98 0.0967355
33 0.0843043
33.02 0.056984
33.04 0.0475874
33.06 -0.00153618
33.08 -0.0626688
33.1 -0.125183
33.12 -0.173159
33.14 -0.196475
33.16 -0.159676
33.18 -0.0902134
33.2 -0.0390861
33.22 -0.00418236
33.24 0.0204176
33.26 0.0617214
33.28 0.118318
33.3 0.164684
33.32 0.184027
33.34 0.172857
33.36 0.137012
33.38 0.0661246
33.4 0.0146706
33.42 -0.0301665
33.44 -0.102881
33.46 -0.212098
33.48 -0.297635
33.5 -0.337983
33.52 -0.291123
33.54 -0.179546
33.56 -0.0534677
33.58 0.0655734
33.6 0.113664
33.62 0.166462
33.64 0.233214
33.66 0.322838
33.68 0.401047
33.7 0.402873
33.72 0.336959
33.74 0.189594
33.76 0.0204624
33.78 -0.120879
33.8 -0.242238
33.82 -0.34035
33.84 -0.447745
33.86 -0.52478
33.88 -0.517144
33.9 -0.428153
33.92 -0.258287
33.94 -0.0563742
33.96 0.140383
33.98 0.317604
34 0.441228
34.02 0.54222
34.04 0.634063
34.06 0.642748
34.08 0.54437
34.1 0.329911
34.12 0.0662466
34.14 -0.181199
34.16 -0.373434
34.18 -0.4766
34.2 -0.550059
34.22 -0.607976
34.24 -0.634859
34.26 -0.575664
34.28 -0.421938
34.3 -0.196113
34.32 0.0560035
34.34 0.27482
34.36 0.416902
34.38 0.482343
34.4 0.524256
34.42 0.553126
34.44 0.524976
34.46 0.440477
34.48 0.284965
34.5 0.0797236
34.52 -0.109144
34.54 -0.266823
34.56 -0.368644
34.58 -0.421651
34.6 -0.457152
34.62 -0.470392
34.64 -0.440836
34.66 -0.368403
34.68 -0.213884
34.7 -0.0211194
34.72 0.17067
34.74 0.324312
34.76 0.401182
34.78 0.442813
34.8 0.438593
34.82 0.419341
34.84 0.35876
34.86 0.245869
34.88 0.13609
34.9 -0.00634992
34.92 -0.156638
34.94 -0.282088
34.96 -0.349411
34.98 -0.390551
35 -0.431437
35.02 -0.443546
35.04 -0.403597
35.06 -0.319436
35.08 -0.193615
35.1 -0.0298412
35.12 0.154303
35.14 0.326862
35.16 0.460783
35.18 0.560681
35.2 0.545507
35.22 0.445656
35.24 0.292471
35.26 0.154835
35.28 0.0449127
35.3 -0.0614979
35.32 -0.163612
35.34 -0.294763
35.36 -0.424485
35.38 -0.499897
35.4 -0.496627
35.42 -0.399974
35.44 -0.254016
35.46 -0.122507
35.48 -0.0131612
35.5 0.0887889
35.52 0.245056
35.54 0.39961
35.56 0.499842
35.58 0.493966
35.6 0.371314
35.62 0.201062
35.64 0.0550808
35.66 -0.0521597
35.68 -0.104272
35.7 -0.17465
35.72 -0.26763
35.74 -0.338414
35.76 -0.335021
35.78 -0.248184
35.8 -0.123184
35.82 -0.0278482
35.84 0.00928626
35.86 0.0133695
35.88 0.01706
35.9 0.0933832
35.92 0.195073
35.94 0.260896
35.96 0.243037
35.98 0.155085
36 0.0786583
36.02 0.0549957
36.04 0.0418041
36.06 0.0210435
36.08 -0.0522482
36.1 -0.143255
36.12 -0.204231
36.14 -0.193661
36.16 -0.134045
36.18 -0.0751641
36.2 -0.0647605
36.22 -0.084215
36.24 -0.0731442
36.26 0.00373134
36.28 0.125881
36.3 0.219862
36.32 0.233451
36.34 0.14186
36.36 0.038647
36.38 -0.0318156
36.4 -0.0304544
36.42 0.00231469
36.44 -0.00186032
36.46 -0.0797699
36.48 -0.161494
36.5 -0.185708
36.52 -0.133888
36.54 -0.0393254
36.56 0.0304092
36.58 0.0457644
36.6 0.019838
36.62 0.0175128
36.64 0.0461614
36.66 0.100986
36.68 0.13299
36.7 0.107035
36.72 0.0351112
36.74 -0.0186824
36.76 -0.0253655
36.78 0.00270977
36.8 0.0244136
36.82 0.00183341
36.84 -0.033182
36.86 -0.0569791
36.88 -0.0382496
36.9 0.0252191
36.92 0.0698487
36.94 0.0662403
36.96 0.00710506
36.98 -0.0513705
37 -0.0638907
37.02 -0.0342609
37.04 0.00624074
37.06 0.0266118
37.08 0.0225731
37.1 0.00390334
37.12 -0.00817785
37.14 0.000750794
37.16 -0.00658092
37.18 -0.0365236
37.2 -0.0777485
37.22 -0.118822
37.24 -0.108822
37.26 -0.0445546
37.28 0.0184538
37.3 0.0545099
37.32 0.0666396
37.34 0.0422915
37.36 0.0248929
37.38 0.0255746
37.4 0.0346084
37.42 0.0437378
37.44 0.0281175
37.46 0.00721296
37.48 -0.00784526
37.5 0.00201955
37.52 0.0190659
37.54 0.0172411
37.56 -0.000463523
37.58 -0.0313562
37.6 -0.0578673
37.62 -0.039566
37.64 -0.0171688
37.66 -0.00197776
37.68 0.0154521
37.7 0.012142
37.72 0.00502154
37.74 0.00128893
37.76 0.0234989
37.78 0.0354257
37.8 0.0372336
37.82 0.0187307
37.84 -0.00898535
37.86 -0.0216762
37.88 -0.0158683
37.9 -0.000867338
37.92 0.00712725
37.94 0.00870314
37.96 0.00172212
37.98 -0.00640562
38 -0.00632719
38.02 -0.000252046
38.04 -0.000602623
38.06 -0.0126714
38.08 -0.0233697
38.1 -0.0255134
38.12 -0.0169867
38.14 -0.000817823
38.16 0.0114516
38.18 0.0170012
38.2 0.00794656
38.22 -0.000604713
38.24 0.00148048
38.26 0.0119154
38.28 0.0218493
38.3 0.0238977
38.32 0.0169735
38.34 -0.000337723
38.36 -0.0149477
38.38 -0.0203394
38.4 -0.0194482
38.42 -0.023434
38.44 -0.0269193
38.46 -0.0194513
38.48 -0.00957592
38.5 0.0010724
38.52 0.0135071
38.54 0.0264241
38.56 0.0288744
38.58 0.0265252
38.6 0.0187808
38.62 0.0126018
38.64 -0.000700463
38.66 -0.0218974
38.68 -0.0287276
38.7 -0.0305866
38.72 -0.0224972
38.74 -0.00753138
38.76 0.00434903
38.78 0.0117973
38.8 0.0110893
38.82 0.0112338
38.84 0.0148889
38.86 0.0189804
38.88 0.0169555
38.9 0.00980588
38.92 0.0024302
38.94 -0.00554132
38.96 -0.00934378
38.98 -0.0058465
39 -0.00334258
39.02 -0.00485676
39.04 -0.00940325
39.06 -0.0115373
39.08 -0.00672093
39.1 -0.000962703
39.12 0.00374666
39.14 0.00412794
39.16 0.00144954
39.18 -0.00018331
39.2 0.00217995
39.22 0.00789583
39.24 0.0106811
39.26 0.00930962
39.28 0.000527703
39.3 -0.00950425
39.32 -0.0143756
39.34 -0.0127452
39.36 -0.00955396
39.38 -0.00757264
39.4 -0.00671682
39.42 -0.00644883
39.44 -0.00323853
39.46 0.00323458
39.48 0.0105145
39.5 0.0134949
39.52 0.012692
39.54 0.00957303
39.56 0.00723424
39.58 0.00713617
39.6 0.00710418
39.62 0.00440254
39.64 -0.00186566
39.66 -0.00882548
39.68 -0.0128337
39.7 -0.0123817
39.72 -0.00943536
39.74 -0.00688549
39.76 -0.00650754
39.78 -0.00674187
39.8 -0.00495221
39.82 4.06273e-05
39.84 0.00649276
39.86 0.0109925
39.88 0.0116611
39.9 0.00941449
39.92 0.00712825
39.94 0.00660696
39.96 0.00707361
39.98 0.0061196
40 -0.000276928
40.02 -0.00633319
40.04 -0.011151
40.06 -0.0120535
40.08 -0.00938605
40.1 -0.0059847
40.12 -0.00441211
40.14 -0.0046381
40.16 -0.00432227
40.18 -0.00132529
40.2 0.00401427
40.22 0.00900192
40.24 0.0109439
40.26 0.00947292
40.28 0.00667643
40.3 0.00499641
40.32 0.00495544
40.34 0.00484982
40.36 0.00261864
40.38 -0.00196461
40.4 -0.0068784
40.42 -0.00957522
40.44 -0.00917435
40.46 -0.00707012
40.48 -0.00545346
40.5 -0.00521641
40.52 -0.00523248
40.54 -0.00363457
40.56 0.000196915
40.58 0.00485322
40.6 0.00804412
40.62 0.00855565
40.64 0.00717328
40.66 0.00575552
40.68 0.00540429
40.7 0.00548818
40.72 0.00440392
40.74 0.00128846
40.76 -0.00298033
40.78 -0.00643633
40.8 -0.00768652
40.82 -0.00700779
40.84 -0.00588703
40.86 -0.0055043
40.88 -0.00562937
40.9 -0.00495563
40.92 -0.00250047
40.94 0.00129716
40.96 0.0048251
40.98 0.00663653
41 0.00660629
41.02 0.00584416
41.04 0.00550528
41.06 0.00566471
41.08 0.00531627
41.1 0.0034544
41.12 0.000173
41.14 -0.00327042
41.16 -0.00547196
41.18 -0.00600876
41.2 -0.00563324
41.22 -0.00540082
41.24 -0.00560089
41.26 -0.00550972
41.28 -0.00416963
41.3 -0.00141883
41.32 0.00181932
41.34 0.0042534
41.36 0.00525917
41.38 0.00526907
41.4 0.00518989
41.42 0.00544388
41.44 0.0055573
41.46 0.00466794
41.48 0.00243866
41.5 -0.000506624
41.52 -0.00303409
41.54 -0.00440262
41.56 -0.00477302
41.58 -0.00487676
41.6 -0.00519997
41.62 -0.00547819
41.64 -0.00497223
41.66 -0.00323828
41.68 -0.000644017
41.7 0.00185889
41.72 0.00348303
41.74 0.00417097
41.76 0.00447047
41.78 0.00487653
41.8 0.00528987
41.82 0.00510561
41.84 0.00382923
41.86 0.00161879
41.88 -0.00076396
41.9 -0.00254129
41.92 -0.00349135
41.94 -0.00398418
41.96 -0.00448241
41.98 -0.00500852
42 -0.00509074
42.02 -0.0042271
42.04 -0.00241228
42.06 -0.000223156
42.08 0.00161384
42.1 0.00276346
42.12 0.00343414
42.14 0.00402806
42.16 0.0046494
42.18 0.00494955
42.2 0.00445024
42.22 0.00302602
42.24 0.00108315
42.26 -0.00073182
42.28 -0.00201587
42.3 -0.00283867
42.32 -0.00352538
42.34 -0.00422719
42.36 -0.00470293
42.38 -0.00451864
42.4 -0.00346714
42.42 -0.0018042
42.44 -7.94455e-05
42.46 0.00127522
42.48 0.00221708
42.5 0.00298747
42.52 0.00375614
42.54 0.00437064
42.56 0.00445309
42.58 0.00374705
42.6 0.00238115
42.62 0.000800606
42.64 -0.00056526
42.66 -0.00158871
42.68 -0.00242819
42.7 -0.0032501
42.72 -0.00397128
42.74 -0.00427448
42.76 -0.0038803
42.78 -0.00281455
42.8 -0.00141814
42.82 -9.3836e-05
42.84 0.000972054
42.86 0.00186165
42.88 0.00272256
42.9 0.00352223
42.92 0.00400325
42.94 0.00388354
42.96 0.00310964
42.98 0.00192398
43 0.000685842
43.02 -0.000383974
43.04 -0.00130171
43.06 -0.00218651
43.08 -0.00303962
43.1 -0.00365906
43.12 -0.00377465
43.14 -0.00327545
43.16 -0.00231504
43.18 -0.00119866
43.2 -0.000160821
43.22 0.000761508
43.24 0.00165425
43.26 0.00253836
43.28 0.00326045
43.3 0.00357203
43.32 0.00332379
43.34 0.00259254
43.36 0.00162427
43.38 0.000650206
43.4 -0.000252959
43.42 -0.00113723
43.44 -0.00203202
43.46 -0.00282465
43.48 -0.00329399
43.5 -0.00326849
43.52 -0.00276134
43.54 -0.00195853
43.56 -0.00107487
43.58 -0.000213553
43.6 0.000645814
43.62 0.00153284
43.64 0.00236744
43.66 0.00295826
43.68 0.00312457
43.7 0.00282923
43.72 0.00220081
43.74 0.00142839
43.76 0.000629489
43.78 -0.000189112
43.8 -0.00105167
43.82 -0.00190301
43.84 -0.00258162
43.86 -0.00290766
43.88 -0.00280625
43.9 -0.00235363
43.92 -0.00170723
43.94 -0.000988321
43.96 -0.000225213
43.98 0.000597889
44 0.00144392
44.02 0.00217961
44.04 0.00263336
44.06 0.00270402
44.08 0.00242208
44.1 0.00191051
44.12 0.00128563
44.14 0.000591064
44.16 -0.00017937
44.18 -0.00100108
44.2 -0.00176636
44.22 -0.00231684
44.24 -0.00253511
44.26 -0.00241341
44.28 -0.00203981
44.3 -0.00151909
44.32 -0.000903982
44.34 -0.000197541
44.36 0.000583698
44.38 0.00135438
44.4 0.00197243
44.42 0.00231253
44.44 0.00233643
44.46 0.00209887
44.48 0.00168839
44.5 0.00116118
44.52 0.000528043
44.54 -0.000199315
44.56 -0.000954555
44.58 -0.00161335
44.6 -0.00204926
44.62 -0.00220107
44.64 -0.00209317
44.66 -0.00179509
44.68 -0.00136149
44.7 -0.000808858
44.72 -0.000146167
44.74 0.000576044
44.76 0.00125149
44.78 0.00175784
44.8 0.00201787
44.82 0.00202961
44.84 0.00184237
44.86 0.00150534
44.88 0.00103819
44.9 0.000448431
44.92 -0.000226331
44.94 -0.000897294
44.96 -0.00145004
44.98 -0.0017976
45 -0.00191612
45.02 -0.00183484
45.04 -0.00159455
45.06 -0.00121565
45.08 -0.00070467
45.1 -8.87581e-05
45.12 0.000559652
45.14 0.00113665
45.16 0.00155087
45.18 0.00176125
45.2 0.00177822
45.22 0.00163223
45.24 0.00134215
45.26 0.000913497
45.28 0.000364984
45.3 -0.00024588
45.32 -0.000827257
45.34 -0.00128782
45.36 -0.00157389
45.38 -0.0016791
45.4 -0.00162257
45.42 -0.00141978
45.44 -0.00107483
45.46 -0.0005996
45.48 -3.82638e-05
45.5 0.000530155
45.52 0.00101786
45.54 0.00136288
45.56 0.00154461
45.58 0.00157065
45.6 0.00145164
45.62 0.00118976
45.64 0.000791243
45.66 0.000288529
45.68 -0.000252262
45.7 -0.000749502
45.72 -0.00113682
45.74 -0.00138215
45.76 -0.00148217
45.78 -0.0014417
45.8 -0.00126043
45.82 -0.000939802
45.84 -0.000502093
45.86 -8.90235e-07
45.88 0.000490206
45.9 0.00090376
45.92 0.00119919
45.94 0.00136328
45.96 0.0013946
45.98 0.00128984
46 0.00104628
46.02 0.000677454
46.04 0.000225136
46.06 -0.000246278
46.08 -0.000671073
46.1 -0.00100298
46.12 -0.00122037
46.14 -0.0013155
46.16 -0.00128173
46.18 -0.00111265
46.2 -0.000814307
46.22 -0.000417615
46.24 2.28443e-05
46.26 0.000445282
46.28 0.000800384
46.3 0.0010598
46.32 0.00120987
46.34 0.0012404
46.36 0.00114168
46.38 0.000913407
46.4 0.00057669
46.42 0.000176158
46.44 -0.000231982
46.46 -0.000597719
46.48 -0.000887796
46.5 -0.00108331
46.52 -0.00117055
46.54 -0.0011368
46.56 -0.000976426
46.58 -0.000701836
46.6 -0.000347945
46.62 3.57732e-05
46.64 0.000400625
46.66 0.000710253
46.68 0.000941412
46.7 0.00107713
46.72 0.00110195
46.74 0.0010058
46.76 0.000793523
46.78 0.000490827
46.8 0.000139751
46.82 -0.00021397
46.84 -0.000532601
46.86 -0.000789612
46.88 -0.000965147
46.9 -0.00104138
46.92 -0.00100456
46.94 -0.000853079
46.96 -0.00060412
46.98 -0.000291994
47 4.17991e-05
47.02 0.000359703
47.04 0.000633037
47.06 0.000839601
47.08 0.000959568
47.1 0.00097623
47.12 0.000882552
47.14 0.000688048
47.16 0.000419311
47.18 0.000112695
47.2 -0.000195777
47.22 -0.00047641
47.24 -0.0007053
47.26 -0.000861048
47.28 -0.00092463
47.3 -0.00088457
47.32 -0.000743624
47.34 -0.000520947
47.36 -0.000247166
47.38 4.43442e-05
47.4 0.000323958
47.42 0.00056678
47.44 0.000750295
47.46 0.000853772
47.48 0.000862202
47.5 0.00077253
47.52 0.000596954
47.54 0.000360093
47.56 9.17983e-05
47.58 -0.000179354
47.6 -0.000428202
47.62 -0.000631618
47.64 -0.000767725
47.66 -0.000818822
47.68 -0.000776989
47.7 -0.000648093
47.72 -0.000450722
47.74 -0.000210578
47.76 4.56639e-05
47.78 0.000293288
47.8 0.000509065
47.82 0.000670508
47.84 0.000757989
47.86 0.000759645
47.88 0.000675736
47.9 0.000519009
47.92 0.000310626
47.94 7.46667e-05
47.96 -0.000165263
47.98 -0.000386345
48 -0.000565985
48.02 -0.000683325
48.04 -0.000723433
48.06 -0.00068175
48.08 -0.000565536
48.1 -0.000391242
48.12 -0.000179819
48.14 4.6825e-05
48.16 0.000266769
48.18 0.000457786
48.2 0.000598415
48.22 0.000671475
48.24 0.00066839
48.26 0.000591428
48.28 0.000452339
48.3 0.000268584
48.32 5.9879e-05
48.34 -0.000153203
48.36 -0.000349234
48.38 -0.000506714
48.4 -0.000606965
48.42 -0.000638193
48.44 -0.000598255
48.46 -0.000494378
48.48 -0.00034033
48.5 -0.000153247
48.52 4.80406e-05
48.54 0.000243294
48.56 0.000411471
48.58 0.000533076
48.6 0.000593872
48.62 0.000587944
48.64 0.000518299
48.66 0.000394959
48.68 0.00023221
48.7 4.68103e-05
48.72 -0.000142532
48.74 -0.000315664
48.76 -0.00045288
48.78 -0.000538225
48.8 -0.000562679
48.82 -0.000525435
48.84 -0.000432851
48.86 -0.000296204
48.88 -0.000129925
48.9 4.90921e-05
48.92 0.000221954
48.94 0.000369271
48.96 0.000474044
48.98 0.000524813
49 0.000517439
49.02 0.000454805
49.04 0.000345132
49.06 0.000200351
49.08 3.53149e-05
49.1 -0.000132646
49.12 -0.00028491
49.14 -0.000404041
49.16 -0.000476785
49.18 -0.000496196
49.2 -0.000461967
49.22 -0.000379315
49.24 -0.00025758
49.26 -0.000109409
49.28 4.96688e-05
49.3 0.000202181
49.32 0.000330782
49.34 0.000421041
49.36 0.000463748
49.38 0.000455764
49.4 0.00039944
49.42 0.000301514
49.44 0.000172329
49.46 2.54328e-05
49.48 -0.000123152
49.5 -0.000256633
49.52 -0.000359966
49.54 -0.000422222
49.56 -0.000437832
49.58 -0.000406502
49.6 -0.000332427
49.62 -0.000223609
49.64 -9.14998e-05
49.66 4.95619e-05
49.68 0.000183721
49.7 0.000295825
49.72 0.000373756
49.74 0.00040995
49.76 0.000401742
49.78 0.000350911
49.8 0.000263148
49.82 0.000147746
49.84 1.71945e-05
49.86 -0.000113898
49.88 -0.000230715
49.9 -0.000320443
49.92 -0.000373974
49.94 -0.000386587
49.96 -0.000357834
49.98 -0.000291172
50 -0.000193736
