0 0
0 0
0 0
0 0
0 0
0 0
0 0
0 0
0 0
0 0
-4.18784e-24 -9.92761e-07
6.55772e-14 -4.7077e-06
8.08983e-13 -1.12661e-05
3.15881e-12 -1.923e-05
5.6198e-12 -2.71182e-05
6.25796e-12 -3.48064e-05
1.11172e-11 -4.4263e-05
2.71373e-11 -5.73964e-05
4.80376e-11 -7.29722e-05
6.09168e-11 -8.58819e-05
4.52986e-11 -8.89855e-05
-4.87151e-12 -7.73626e-05
-2.26546e-11 -5.28666e-05
1.22622e-11 -2.17641e-05
-6.74275e-13 1.10083e-05
-3.03723e-11 4.11258e-05
1.7531e-11 6.37899e-05
5.87742e-11 7.69993e-05
5.10472e-11 8.05513e-05
3.77383e-11 7.20871e-05
-9.33046e-12 4.99038e-05
-3.87804e-11 1.96713e-05
7.01232e-12 -8.04648e-06
-6.05915e-12 -2.81322e-05
-6.16884e-11 -4.11119e-05
1.61703e-11 -4.82998e-05
6.81175e-11 -5.24579e-05
3.88637e-12 -5.52549e-05
3.61124e-11 -5.3307e-05
1.40002e-11 -3.8849e-05
-1.07546e-10 -6.72028e-06
6.85985e-12 3.70671e-05
7.74823e-11 7.83154e-05
-1.37213e-10 0.000105263
-1.13512e-10 0.000108153
8.71846e-11 8.00101e-05
-3.37197e-12 2.92104e-05
-7.12489e-11 -2.35879e-05
2.93636e-11 -6.06835e-05
8.84641e-12 -7.74449e-05
3.89343e-11 -8.6617e-05
1.5089e-10 -0.000100073
1.00807e-10 -0.000108353
9.55576e-12 -9.76005e-05
-5.40292e-11 -7.08413e-05
-6.43932e-11 -3.93791e-05
2.73396e-11 -1.17403e-05
-4.12061e-11 4.63906e-06
-1.16441e-10 8.76764e-06
4.73068e-11 1.56794e-05
7.91441e-12 3.7393e-05
-7.45217e-11 6.05668e-05
8.30519e-11 6.52665e-05
-1.82336e-10 4.56442e-05
-3.59263e-10 5.08517e-06
1.45458e-10 -4.42772e-05
-9.39432e-11 -7.94053e-05
-6.83514e-10 -8.13977e-05
-2.95177e-11 -4.84798e-05
2.30737e-10 8.18171e-06
-4.99398e-10 6.60187e-05
-1.8646e-10 9.68234e-05
2.9929e-10 8.45472e-05
-1.70093e-10 3.23978e-05
-7.1099e-11 -3.63613e-05
2.56084e-10 -9.34164e-05
-2.50483e-11 -0.000130612
1.44764e-10 -0.000152666
3.26321e-10 -0.000161704
-1.33168e-11 -0.000161508
1.66616e-10 -0.000159423
3.88303e-10 -0.000162234
1.57453e-10 -0.000173388
3.33159e-10 -0.000190641
4.04672e-10 -0.000204036
-2.50619e-11 -0.000193238
-9.27691e-11 -0.000140022
-1.14497e-11 -4.58315e-05
-5.17139e-11 6.93657e-05
8.44761e-11 0.000174715
-2.24847e-11 0.000239462
-1.0245e-10 0.00025122
3.53711e-10 0.000224348
4.20836e-10 0.000171892
-2.7769e-11 8.4814e-05
-5.50878e-12 -3.82961e-05
3.63751e-10 -0.000172229
7.17851e-10 -0.000292792
8.49536e-10 -0.00039297
5.55991e-10 -0.000463101
7.93249e-10 -0.000484892
1.49968e-09 -0.00044909
1.17926e-09 -0.000364874
3.97912e-10 -0.000248226
1.38222e-10 -0.000105676
-2.87694e-11 6.10345e-05
4.08354e-10 0.000238815
1.37154e-09 0.000410712
1.64681e-09 0.000564188
2.07094e-09 0.000674117
2.87646e-09 0.000703312
2.29346e-09 0.00063525
1.19225e-09 0.000495956
9.45731e-10 0.000324089
2.71204e-10 0.000129991
-2.6647e-10 -9.3018e-05
9.81439e-10 -0.000331332
2.59325e-09 -0.000546837
3.15266e-09 -0.000710634
3.19976e-09 -0.000815622
3.42147e-09 -0.000850524
3.68993e-09 -0.000789945
2.76985e-09 -0.000629943
1.01362e-09 -0.00041284
2.81981e-10 -0.000182314
1.16584e-10 5.86889e-05
4.00888e-10 0.000307027
1.98962e-09 0.000509634
2.01932e-09 0.000596086
-6.0416e-10 0.000546885
-1.0179e-09 0.000403666
9.06648e-10 0.000222273
-4.96773e-11 4.93872e-05
-1.70478e-09 -7.47035e-05
-2.3986e-11 -0.000144507
9.49824e-10 -0.000201381
2.52898e-10 -0.00028382
1.69989e-09 -0.00038346
1.594e-09 -0.000461098
-2.0317e-09 -0.000486869
-1.63853e-09 -0.000443657
1.69085e-09 -0.000320348
2.06446e-10 -0.000132398
-1.38857e-09 7.6682e-05
1.01418e-09 0.00026453
1.73255e-09 0.000402028
1.39054e-09 0.00047041
1.71738e-09 0.000475964
-1.04055e-10 0.000443442
-3.22136e-10 0.000379049
1.57732e-09 0.00027903
2.19923e-10 0.000162534
-7.2172e-10 5.79685e-05
7.45351e-10 -2.37796e-05
-2.63231e-11 -8.79841e-05
-3.51836e-10 -0.000142812
1.01324e-09 -0.00019815
1.43852e-10 -0.00026365
4.87529e-11 -0.000335887
1.84222e-09 -0.000402197
1.6627e-09 -0.000458753
1.6856e-09 -0.000501529
2.33175e-09 -0.00051044
6.64948e-10 -0.000474782
1.00845e-10 -0.000406647
1.28838e-09 -0.000312966
3.1221e-10 -0.000192437
-4.13533e-10 -5.5917e-05
5.03231e-10 8.12173e-05
2.91922e-10 0.000209366
5.14435e-10 0.000312452
1.1692e-09 0.000366881
-1.3036e-10 0.000361743
-3.85386e-10 0.000310462
9.72208e-10 0.000243615
4.40915e-10 0.000200004
5.48218e-11 0.000217907
1.49232e-09 0.000323026
2.30552e-09 0.000524447
4.45137e-09 0.000821245
1.13504e-08 0.00120606
2.27795e-08 0.00166291
3.81746e-08 0.00216334
5.44465e-08 0.00266525
6.72219e-08 0.00311851
7.87249e-08 0.00347595
9.24222e-08 0.00370567
1.03821e-07 0.00379417
1.05774e-07 0.00374576
9.70274e-08 0.00358695
8.30165e-08 0.00336083
7.05922e-08 0.00310655
6.16701e-08 0.00284901
5.42138e-08 0.00260847
4.7365e-08 0.00240507
4.06263e-08 0.00223772
3.1326e-08 0.0020504
1.70215e-08 0.00173169
6.58833e-10 0.00116099
-6.60947e-09 0.000260087
7.93886e-09 -0.000977981
4.96407e-08 -0.00248978
1.22104e-07 -0.00415538
2.29807e-07 -0.00580297
3.56837e-07 -0.00723402
4.60679e-07 -0.00826363
5.05256e-07 -0.00876152
4.76743e-07 -0.00862219
3.52639e-07 -0.00764673
1.37977e-07 -0.00564366
-2.98828e-08 -0.00268443
-5.7299e-09 0.000893339
1.44736e-07 0.00463855
3.24255e-07 0.00807755
5.86856e-07 0.0107494
8.70448e-07 0.0122421
9.27985e-07 0.0122672
6.72664e-07 0.0107305
2.73433e-07 0.00772516
-1.9902e-08 0.00347557
-5.42027e-09 -0.00165121
3.41492e-07 -0.0070963
8.80102e-07 -0.0121816
1.49919e-06 -0.0162815
2.11319e-06 -0.0189256
2.48183e-06 -0.0198171
2.3253e-06 -0.018854
1.65996e-06 -0.0161296
8.13523e-07 -0.0118686
1.57861e-07 -0.00638722
-5.21773e-08 -0.000143372
2.22829e-07 0.00622763
7.92423e-07 0.011984
1.43874e-06 0.0164154
1.98915e-06 0.0189783
2.19702e-06 0.0193712
1.86838e-06 0.0175468
1.11574e-06 0.0137045
3.41748e-07 0.0082934
-3.67144e-08 0.00197597
9.41066e-08 -0.00449054
5.54562e-07 -0.0103725
1.17666e-06 -0.015026
1.80489e-06 -0.0179477
2.12529e-06 -0.0188249
1.89314e-06 -0.0175709
1.21995e-06 -0.0143524
4.85159e-07 -0.00959617
4.66768e-08 -0.0039153
-2.59513e-09 0.00200923
2.40361e-07 0.00752382
7.2591e-07 0.0120673
1.33468e-06 0.0152011
1.73443e-06 0.0166421
1.67724e-06 0.0162984
1.22857e-06 0.0142613
6.39663e-07 0.0107801
1.83703e-07 0.00625145
-4.03133e-09 0.00119695
3.7556e-08 -0.0037903
2.7637e-07 -0.00812955
6.67883e-07 -0.0113372
1.00185e-06 -0.0130827
1.05912e-06 -0.0132136
8.17826e-07 -0.011767
4.32104e-07 -0.00897213
1.2075e-07 -0.00521053
-3.2592e-09 -0.00094405
3.50197e-08 0.00334326
2.37331e-07 0.00719263
5.89202e-07 0.0102197
9.22596e-07 0.0121472
1.05366e-06 0.0128198
9.31356e-07 0.0122086
6.30698e-07 0.0104079
3.14487e-07 0.00762604
9.88885e-08 0.00415478
-6.8251e-09 0.000335638
3.3382e-08 -0.0034536
2.54073e-07 -0.00682801
5.49387e-07 -0.0094466
7.64389e-07 -0.0110648
8.16689e-07 -0.0115519
6.92166e-07 -0.0108616
4.55128e-07 -0.00903695
2.12521e-07 -0.00625003
3.85711e-08 -0.00279344
-1.11187e-08 0.000975908
1.08789e-07 0.00467108
3.67197e-07 0.0078833
6.36131e-07 0.010235
7.76908e-07 0.0114603
7.47137e-07 0.0114464
5.99678e-07 0.0102395
3.94189e-07 0.00802144
1.73864e-07 0.00506304
1.2806e-08 0.00168093
-7.62164e-10 -0.00178134
1.45908e-07 -0.00497654
3.61491e-07 -0.00759691
5.31413e-07 -0.00940168
5.99029e-07 -0.0102223
5.65093e-07 -0.00998041
4.49125e-07 -0.00871385
2.75928e-07 -0.00657891
9.62708e-08 -0.00381847
-7.4224e-09 -0.000723737
2.36839e-08 0.00238668
1.65087e-07 0.00519375
3.31575e-07 0.0074211
4.53088e-07 0.00886363
5.05257e-07 0.00939278
4.79078e-07 0.00896804
3.69784e-07 0.00765734
2.08337e-07 0.0056328
6.28381e-08 0.00313832
-6.07494e-09 0.000454343
1.83545e-08 -0.00213118
1.03092e-07 -0.00435108
1.95199e-07 -0.00599112
2.64013e-07 -0.00692357
2.9929e-07 -0.00711947
2.85129e-07 -0.00662914
2.13201e-07 -0.00555285
1.10118e-07 -0.00401775
2.50438e-08 -0.0021698
-5.6132e-09 -0.000175875
1.89084e-08 0.00178133
7.02809e-08 0.00351882
1.26005e-07 0.00487411
1.82079e-07 0.00572543
2.22762e-07 0.00600719
2.17637e-07 0.00571464
1.60691e-07 0.00489244
8.00448e-08 0.0036163
1.48864e-08 0.0019885
-5.44581e-09 0.000147581
1.86214e-08 -0.00173034
6.48417e-08 -0.00344877
1.22461e-07 -0.0048194
1.83986e-07 -0.0056875
2.17869e-07 -0.00594668
1.9307e-07 -0.00554661
1.16858e-07 -0.00449553
3.21762e-08 -0.00286118
-9.66144e-09 -0.000775781
1.55789e-08 0.00154904
8.79232e-08 0.00381532
1.6921e-07 0.00568553
2.34736e-07 0.00686989
2.69456e-07 0.00719223
2.51557e-07 0.00661673
1.71658e-07 0.00524569
6.74501e-08 0.00328977
1.32881e-09 0.00101299
4.99593e-09 -0.00132215
6.96796e-08 -0.00348193
1.65167e-07 -0.00527022
2.54953e-07 -0.00653735
3.13708e-07 -0.00719012
3.27177e-07 -0.00719927
2.85336e-07 -0.00659545
1.98096e-07 -0.00545785
9.92927e-08 -0.00390406
2.48289e-08 -0.00208302
-3.74748e-09 -0.00017397
1.09324e-08 0.00162087
4.55287e-08 0.00310311
8.08296e-08 0.00411521
1.08006e-07 0.00456355
1.12726e-07 0.00442
8.4738e-08 0.0037226
3.88222e-08 0.00257206
3.62485e-09 0.00110394
-7.11322e-10 -0.00053779
3.0931e-08 -0.00219566
8.55713e-08 -0.00368991
1.38301e-07 -0.00484335
1.72933e-07 -0.00551781
1.83583e-07 -0.00562901
1.61062e-07 -0.00515183
1.05704e-07 -0.00413322
4.3279e-08 -0.0026985
4.16774e-09 -0.00102802
-3.4525e-10 0.000686631
2.57987e-08 0.00227643
7.27726e-08 0.00360601
1.25859e-07 0.00457111
1.64752e-07 0.0050973
1.70257e-07 0.00514612
1.40025e-07 0.00472609
9.23278e-08 0.00390033
4.81628e-08 0.00278137
1.67915e-08 0.00151299
-2.88935e-10 0.000250141
-1.6564e-09 -0.000871192
1.29717e-08 -0.00177888
3.90163e-08 -0.00247474
6.73684e-08 -0.00299377
8.77018e-08 -0.00336431
9.4019e-08 -0.00359216
8.81984e-08 -0.00366117
7.646e-08 -0.00353355
6.06943e-08 -0.00315258
3.71472e-08 -0.00247045
9.99915e-09 -0.00148033
-3.51889e-09 -0.000233513
9.57519e-09 0.00116179
4.56102e-08 0.00256623
9.26839e-08 0.00384039
1.43427e-07 0.00486282
1.92129e-07 0.00553476
2.21118e-07 0.00578344
2.09304e-07 0.0055765
1.59139e-07 0.00493349
9.52791e-08 0.00391706
4.09026e-08 0.00262518
8.40988e-09 0.00119403
-1.72979e-09 -0.00021566
4.14088e-09 -0.00145382
2.41662e-08 -0.00241053
5.22589e-08 -0.00302105
6.94063e-08 -0.00325943
6.41342e-08 -0.00313445
4.34996e-08 -0.00268553
2.01749e-08 -0.00197537
4.60549e-09 -0.00108071
-1.67652e-10 -9.45547e-05
2.07575e-09 0.000863893
1.0602e-08 0.00166301
2.32126e-08 0.00219543
3.09058e-08 0.00239906
2.83284e-08 0.00225284
1.67398e-08 0.00176998
2.75667e-09 0.00100591
-1.89646e-09 6.90531e-05
5.23476e-09 -0.000897047
1.48747e-08 -0.00175098
2.4582e-08 -0.00237442
3.56328e-08 -0.00268048
3.94378e-08 -0.00262562
2.96347e-08 -0.00221642
1.27402e-08 -0.00150675
1.32368e-10 -0.000592742
1.02912e-11 0.00039407
9.50255e-09 0.00130145
1.69383e-08 0.00198514
1.96049e-08 0.00234162
2.22508e-08 0.00232289
2.02379e-08 0.00193244
8.79112e-09 0.00121661
-1.33611e-09 0.000257276
4.13287e-09 -0.000836124
2.71625e-08 -0.00193463
5.65553e-08 -0.00290032
7.61893e-08 -0.00360235
8.08612e-08 -0.00393521
7.7066e-08 -0.00383758
6.41169e-08 -0.00330771
3.75824e-08 -0.00240262
8.85803e-09 -0.00122211
-2.23673e-09 0.000109641
1.31846e-08 0.00145766
4.77292e-08 0.00268266
8.18207e-08 0.00364788
9.98393e-08 0.00423718
1.02858e-07 0.00437805
9.43029e-08 0.00405251
6.91875e-08 0.00329608
3.17777e-08 0.00219294
2.88712e-09 0.000867102
-3.37197e-10 -0.000532205
2.0928e-08 -0.00185085
5.14996e-08 -0.00295028
7.63189e-08 -0.00371919
9.06977e-08 -0.00407944
9.26511e-08 -0.00399651
7.65674e-08 -0.00349126
4.57745e-08 -0.0026399
1.56701e-08 -0.00155529
-4.56853e-10 -0.000361195
2.41726e-09 0.000824781
2.11499e-08 0.00189877
4.57614e-08 0.00277128
6.72296e-08 0.00336648
7.93847e-08 0.00362927
7.67327e-08 0.00353756
5.97662e-08 0.00310588
3.49327e-08 0.00237166
1.02851e-08 0.00138562
-2.28111e-09 0.000224449
6.05937e-09 -0.00100165
2.97453e-08 -0.00216152
5.65733e-08 -0.00311882
7.83241e-08 -0.00375389
8.94694e-08 -0.00399107
8.62607e-08 -0.00380817
6.63019e-08 -0.00322456
3.30189e-08 -0.00229176
4.05557e-09 -0.00109772
-1.63922e-09 0.000237654
1.64269e-08 0.00158069
4.71637e-08 0.00279607
8.07778e-08 0.00375351
1.08199e-07 0.00434348
1.20786e-07 0.00449984
1.11658e-07 0.00421142
7.99822e-08 0.00351733
3.87646e-08 0.00249743
7.93276e-09 0.00126066
-1.66099e-09 -7.10494e-05
9.69237e-09 -0.00137077
3.50992e-08 -0.00250594
6.26611e-08 -0.00334982
8.10607e-08 -0.00380532
8.3603e-08 -0.00382124
6.74837e-08 -0.00339419
3.77808e-08 -0.00256695
9.48882e-09 -0.00142779
-2.07414e-09 -0.000107012
7.9993e-09 0.00123437
3.23848e-08 0.00242741
5.83855e-08 0.00332079
7.63844e-08 0.00380139
8.00431e-08 0.00381056
6.53697e-08 0.00335496
3.75448e-08 0.00250645
1.10992e-08 0.0013869
-1.2695e-09 0.000146525
4.21287e-09 -0.00105785
2.23561e-08 -0.00208747
4.36138e-08 -0.00284259
6.08198e-08 -0.00326585
6.79354e-08 -0.00333326
5.91525e-08 -0.0030527
3.7823e-08 -0.00246707
1.5836e-08 -0.00164938
2.01497e-09 -0.000693043
-5.88612e-10 0.000296069
6.71338e-09 0.00120862
1.88955e-08 0.00194596
3.16043e-08 0.00243355
4.03311e-08 0.00262753
3.89631e-08 0.00251707
2.7434e-08 0.00212585
1.30773e-08 0.00150958
2.63003e-09 0.000748083
-6.66178e-10 -6.36777e-05
2.70947e-09 -0.000824254
9.17322e-09 -0.00143889
1.60749e-08 -0.00183582
2.11877e-08 -0.00197912
2.12067e-08 -0.00187617
1.61532e-08 -0.00157405
9.39695e-09 -0.00114285
3.42433e-09 -0.00065782
6.77164e-11 -0.000187734
-1.77806e-10 0.000213904
8.46767e-10 0.000515194
2.13226e-09 0.000702393
3.34836e-09 0.000772062
3.23664e-09 0.00073282
2.18405e-09 0.000611319
1.51619e-09 0.000450324
9.02637e-10 0.000295735
2.75341e-10 0.000180608
1.72484e-10 0.000115243
1.26287e-10 8.4448e-05
-1.03103e-10 5.65951e-05
-1.54056e-10 -2.34301e-07
5.42689e-11 -0.000104911
5.77499e-10 -0.000255693
1.17245e-09 -0.000428558
1.60694e-09 -0.000580297
2.02349e-09 -0.000659869
1.79158e-09 -0.000627958
5.91831e-10 -0.000473192
-2.28893e-10 -0.000212622
1.19487e-10 0.000117098
1.29075e-09 0.000467395
3.33467e-09 0.000787486
5.97302e-09 0.00103486
8.23877e-09 0.00117923
9.11036e-09 0.0012018
7.61664e-09 0.0010968
4.34199e-09 0.000875184
1.5242e-09 0.000565659
2.0939e-10 0.000209138
-4.20924e-11 -0.000151386
7.30624e-10 -0.000477387
2.61702e-09 -0.000736227
4.83672e-09 -0.000902964
6.00193e-09 -0.000962473
5.18936e-09 -0.000909787
2.9725e-09 -0.000750342
9.40422e-10 -0.000502191
4.25649e-11 -0.000196587
4.07441e-11 0.000127559
6.14266e-10 0.000432222
2.149e-09 0.000686175
4.53462e-09 0.000865167
6.13644e-09 0.000948826
5.45317e-09 0.000920373
2.89579e-09 0.000771208
3.50773e-10 0.000507532
-4.3652e-10 0.000152222
5.35259e-10 -0.000260311
2.57642e-09 -0.000689643
6.67782e-09 -0.00109226
1.31659e-08 -0.00142513
1.88848e-08 -0.00165125
2.05121e-08 -0.00174343
1.76054e-08 -0.00168531
1.19445e-08 -0.0014745
6.54003e-09 -0.00112815
2.9359e-09 -0.000683104
3.5981e-10 -0.000188139
-3.43506e-10 0.000305146
2.68632e-09 0.000747788
7.78487e-09 0.0010972
1.14934e-08 0.00132232
1.22479e-08 0.00140897
1.05322e-08 0.00136212
8.30751e-09 0.00120274
6.53525e-09 0.000962547
4.07909e-09 0.000679508
1.35375e-09 0.000390821
1.00426e-10 0.000119951
1.19465e-10 -0.000128852
9.57791e-10 -0.00035655
2.48643e-09 -0.000555679
3.27805e-09 -0.000713014
3.25323e-09 -0.000816885
3.99304e-09 -0.000860124
4.9407e-09 -0.000839061
4.41962e-09 -0.000752584
2.68759e-09 -0.000604039
8.74562e-10 -0.000402512
-2.25469e-10 -0.000163571
-1.07952e-11 8.87711e-05
6.58992e-10 0.000323408
6.82738e-10 0.000509129
1.13951e-09 0.000622491
2.40881e-09 0.000652139
2.69683e-09 0.000599734
1.70201e-09 0.000477914
6.17341e-10 0.000304904
-1.014e-10 0.000100212
-1.08994e-12 -0.000113504
6.80904e-10 -0.000306091
6.31322e-10 -0.000443154
2.18573e-10 -0.000499011
6.37019e-10 -0.000469358
1.03894e-09 -0.00037152
5.36915e-10 -0.000231212
-8.15451e-12 -7.14849e-05
3.35848e-11 8.7979e-05
4.56697e-10 0.000230415
1.00287e-09 0.000344693
1.16961e-09 0.00042739
9.79909e-10 0.000481076
1.34319e-09 0.000510023
2.12503e-09 0.000516771
2.25344e-09 0.000501353
1.75381e-09 0.000463017
1.04342e-09 0.000401815
2.5932e-10 0.000318569
3.10938e-11 0.000215889
2.0662e-10 0.000101389
-6.24181e-11 -1.03588e-05
-2.339e-10 -0.000101666
1.48979e-10 -0.000159632
2.80086e-10 -0.000179681
1.45828e-10 -0.000162461
1.09349e-10 -0.000111152
-7.04718e-11 -3.41474e-05
-5.46925e-11 5.36326e-05
2.05464e-10 0.000137347
7.729e-11 0.000207956
8.23236e-11 0.000259966
6.08569e-10 0.000287744
7.48285e-10 0.000285604
4.33569e-10 0.000249132
1.60337e-10 0.000177008
-1.31391e-10 7.52321e-05
-8.11068e-11 -4.05344e-05
2.09854e-10 -0.000149158
-3.12649e-11 -0.000231577
-1.19859e-10 -0.000276644
5.25316e-10 -0.000285357
7.8353e-10 -0.000272007
5.83777e-10 -0.000255354
6.52622e-10 -0.000246043
4.46688e-10 -0.000244446
8.28802e-11 -0.000247938
3.81631e-10 -0.000256442
7.48792e-10 -0.000270972
7.7904e-10 -0.000290433
9.1815e-10 -0.00031196
7.78135e-10 -0.000331099
3.54146e-10 -0.000339898
4.50653e-10 -0.000328343
6.65122e-10 -0.000289301
3.92613e-10 -0.000221746
1.27392e-10 -0.000130374
2.71344e-11 -2.22478e-05
2.95149e-11 9.75539e-05
4.51331e-10 0.000226921
1.01828e-09 0.000362423
1.50927e-09 0.000494857
2.32907e-09 0.000608767
3.15722e-09 0.000684794
3.25783e-09 0.000704009
2.59376e-09 0.000654177
1.47139e-09 0.000534685
4.65389e-10 0.000356007
5.8443e-11 0.000134636
5.3907e-11 -0.000110973
6.03974e-10 -0.000359651
2.14434e-09 -0.000585565
3.89565e-09 -0.000760737
4.67929e-09 -0.000860248
4.22983e-09 -0.000865926
2.88645e-09 -0.000770499
1.48689e-09 -0.000583715
6.61453e-10 -0.000333771
7.64824e-11 -5.89883e-05
-1.71029e-10 0.000203333
6.56368e-10 0.00042274
2.06344e-09 0.000577191
2.83337e-09 0.000653862
2.61752e-09 0.000649235
1.6833e-09 0.000568792
7.14735e-10 0.000426641
3.16717e-10 0.000244662
9.39993e-11 5.05013e-05
-1.77313e-10 -0.000128047
1.04422e-10 -0.000270157
7.92953e-10 -0.00036375
1.13767e-09 -0.000402213
9.89849e-10 -0.00038368
4.81885e-10 -0.000313007
-1.83999e-11 -0.000201018
-4.57527e-11 -6.15067e-05
9.30066e-11 9.02226e-05
1.31899e-10 0.000236766
5.6568e-10 0.000361133
1.33702e-09 0.000451115
1.8006e-09 0.000499253
1.77533e-09 0.000501153
1.28205e-09 0.000456839
6.03771e-10 0.000372637
3.06103e-10 0.000260323
2.16645e-10 0.000134537
-4.74866e-11 9.46371e-06
-8.58991e-11 -0.000104273
2.69518e-10 -0.000200907
6.38519e-10 -0.000279738
9.65878e-10 -0.000343646
1.19789e-09 -0.000395159
1.17628e-09 -0.000433252
1.19759e-09 -0.000453618
1.38127e-09 -0.00045162
1.33677e-09 -0.000423668
9.7984e-10 -0.000365855
4.72528e-10 -0.000273908
-2.61603e-11 -0.000146626
-9.99719e-11 1.04304e-05
3.10313e-10 0.000184948
7.90652e-10 0.000360536
1.4425e-09 0.000519572
2.52774e-09 0.000644929
3.5251e-09 0.000720415
3.67257e-09 0.000731448
2.75809e-09 0.000668254
1.29793e-09 0.000531676
2.87956e-10 0.000336402
6.0637e-11 0.000107374
2.24432e-11 -0.000127897
2.51606e-10 -0.000345252
1.43125e-09 -0.0005264
3.07379e-09 -0.000659347
4.03936e-09 -0.000735906
3.86956e-09 -0.000748308
2.63991e-09 -0.000690171
1.1782e-09 -0.000561785
5.11082e-10 -0.000374118
2.60936e-10 -0.000148793
-1.43096e-10 8.54202e-05
8.34094e-11 0.000298479
1.18988e-09 0.00046387
2.0883e-09 0.00056067
2.08103e-09 0.000575857
1.25573e-09 0.000508143
2.82022e-10 0.000369735
1.99337e-12 0.00018269
8.65505e-11 -2.78997e-05
3.36904e-11 -0.000237922
6.71658e-10 -0.000423737
2.06374e-09 -0.000561995
2.81798e-09 -0.000633346
2.4403e-09 -0.000626574
1.3847e-09 -0.000540072
2.97987e-10 -0.000383031
-1.88713e-11 -0.000176443
9.65625e-11 5.0097e-05
1.95614e-11 0.000266383
6.47726e-10 0.000448626
2.17317e-09 0.000579767
3.08397e-09 0.000645725
2.72735e-09 0.000635467
1.49311e-09 0.000545069
1.22692e-10 0.000380029
-2.31834e-10 0.000155938
1.87633e-10 -0.000100995
3.77337e-10 -0.000355776
1.12391e-09 -0.000570428
2.79785e-09 -0.000712754
3.76195e-09 -0.000763429
3.29378e-09 -0.000718084
2.00502e-09 -0.000586085
5.75777e-10 -0.000388129
-5.12039e-11 -0.000152738
9.70501e-11 8.91785e-05
2.38531e-10 0.000311955
9.87323e-10 0.000499843
2.73156e-09 0.000643827
4.13195e-09 0.000736576
4.38553e-09 0.000771923
3.62366e-09 0.000746366
2.16884e-09 0.00065965
1.08871e-09 0.000515484
6.91872e-10 0.000322821
1.14797e-10 9.55328e-05
-1.34086e-10 -0.000148805
9.4459e-10 -0.000388571
2.65383e-09 -0.000598916
3.96253e-09 -0.000756001
4.32221e-09 -0.000841615
3.659e-09 -0.000846568
3.01215e-09 -0.0007728
2.70409e-09 -0.000632433
1.70212e-09 -0.000444466
3.90104e-10 -0.00023166
-2.89003e-11 -1.79925e-05
2.20532e-10 0.000174104
6.70504e-10 0.000326173
1.03026e-09 0.000425246
8.56128e-10 0.000465036
7.16121e-10 0.000447426
9.86413e-10 0.000383233
8.0784e-10 0.000289405
2.63547e-10 0.00018377
9.62583e-11 8.19384e-05
2.62779e-11 -3.82761e-06
-3.04194e-11 -6.658e-05
1.06509e-10 -0.000104823
2.36161e-11 -0.000119334
-1.05024e-10 -0.000112488
7.95968e-11 -9.04955e-05
8.83908e-11 -6.26854e-05
-6.26777e-11 -3.72952e-05
3.06512e-11 -1.87092e-05
3.45611e-11 -8.64951e-06
-7.09311e-11 -8.11058e-06
2.67287e-11 -1.75767e-05
4.32864e-11 -3.55254e-05
-1.81316e-11 -5.78361e-05
8.99451e-11 -8.00126e-05
5.68892e-11 -9.80653e-05
-7.37466e-11 -0.000107331
3.85252e-11 -0.000103078
9.33832e-11 -8.27756e-05
-1.82638e-11 -4.70449e-05
6.17847e-12 1.07579e-06
5.40129e-11 5.66607e-05
8.59758e-11 0.00011342
2.2778e-10 0.000164256
2.26024e-10 0.000201607
1.14829e-10 0.00021851
1.94051e-10 0.000209839
2.24726e-10 0.000173037
5.99726e-11 0.00010849
-9.48027e-12 1.90166e-05
8.04645e-11 -9.06481e-05
3.66302e-10 -0.000212643
8.76843e-10 -0.00033402
1.22114e-09 -0.000437012
1.26347e-09 -0.000503077
1.31982e-09 -0.00051826
1.30791e-09 -0.000476296
9.34612e-10 -0.000378383
3.43981e-10 -0.000231516
-5.01887e-11 -4.73928e-05
1.51587e-10 0.000157461
9.82342e-10 0.000361179
1.8751e-09 0.000538352
2.36177e-09 0.000664501
2.59548e-09 0.000720801
2.68201e-09 0.000698106
2.30257e-09 0.000599802
1.37949e-09 0.000440719
4.02815e-10 0.000242104
-5.81884e-11 2.6809e-05
1.87133e-10 -0.000183263
8.59714e-10 -0.000368227
1.49846e-09 -0.00051111
1.91448e-09 -0.000598342
2.12116e-09 -0.000620191
1.95514e-09 -0.000572369
1.29532e-09 -0.000458121
4.66038e-10 -0.000289886
-1.74349e-11 -8.8996e-05
5.47056e-11 0.000117888
4.83969e-10 0.000304
9.68219e-10 0.000447491
1.4219e-09 0.000534433
1.78319e-09 0.000558173
1.73343e-09 0.000517656
1.13684e-09 0.000418425
4.12682e-10 0.000274545
2.22675e-11 0.000107271
4.16852e-12 -5.98716e-05
1.5562e-10 -0.000206092
3.68956e-10 -0.000316961
7.13018e-10 -0.000385888
1.10393e-09 -0.000412016
1.17969e-09 -0.000396473
8.14345e-10 -0.000340549
2.98675e-10 -0.000247526
-3.41755e-11 -0.000125732
-3.056e-11 1.18571e-05
1.45279e-10 0.00015107
3.07989e-10 0.000279206
7.27592e-10 0.000386583
1.49285e-09 0.000466447
2.02637e-09 0.000512094
1.90677e-09 0.000514106
1.19626e-09 0.000462599
2.93985e-10 0.000354714
-8.33912e-11 0.000200593
6.30198e-11 2.27408e-05
-1.95125e-11 -0.000150252
-5.94579e-11 -0.000292257
6.13802e-10 -0.000386012
1.30659e-09 -0.00042468
1.29271e-09 -0.000409379
8.34782e-10 -0.000345341
2.03322e-10 -0.000240546
-1.63658e-10 -0.000107437
3.30521e-11 3.62663e-05
1.31586e-10 0.000169847
-1.97312e-11 0.000273209
2.81316e-10 0.000330124
7.02029e-10 0.0003312
5.35377e-10 0.000275343
1.47963e-10 0.000169135
-3.01005e-11 2.58465e-05
1.21402e-10 -0.000136032
6.69543e-10 -0.000295881
1.10531e-09 -0.000434582
1.29544e-09 -0.000536471
1.85386e-09 -0.000590084
2.3977e-09 -0.000589087
2.08629e-09 -0.000532602
1.22737e-09 -0.000425198
3.84567e-10 -0.000276908
-1.091e-10 -0.000102587
3.15793e-11 7.95989e-05
3.52076e-10 0.000250794
5.62334e-10 0.000394328
1.23089e-09 0.000497831
2.11775e-09 0.000554559
2.36794e-09 0.000563647
2.0224e-09 0.000528586
1.33711e-09 0.000454268
5.26285e-10 0.000345889
1.42788e-10 0.000211197
8.78932e-11 6.24253e-05
-5.03365e-11 -8.53296e-05
8.44742e-11 -0.000217474
6.14988e-10 -0.000321638
1.04229e-09 -0.000388491
1.17978e-09 -0.000412993
9.86024e-10 -0.00039517
5.42899e-10 -0.000339695
2.81278e-10 -0.000253806
1.85359e-10 -0.000146089
-1.07282e-11 -2.74679e-05
-3.73415e-11 8.96903e-05
2.34624e-10 0.000194919
5.50557e-10 0.000280796
8.29243e-10 0.00034088
9.00258e-10 0.000368377
6.3966e-10 0.000357951
3.87215e-10 0.000309085
2.88064e-10 0.000227709
1.29625e-10 0.000124787
-2.55705e-11 1.42964e-05
-3.53007e-12 -8.80868e-05
1.38293e-10 -0.000167242
2.64442e-10 -0.000211241
2.32712e-10 -0.000212827
4.16806e-11 -0.000170906
-6.39666e-11 -9.1651e-05
6.68458e-12 1.30687e-05
8.97823e-11 0.00012832
2.23488e-10 0.00023726
5.39688e-10 0.000322805
8.46314e-10 0.000370826
8.69336e-10 0.000371987
5.76185e-10 0.000322205
1.54556e-10 0.000223945
-6.9189e-11 8.75913e-05
3.85394e-11 -6.94797e-05
2.77429e-10 -0.000226858
6.1533e-10 -0.000365919
1.23552e-09 -0.000472935
1.94824e-09 -0.000540053
2.30359e-09 -0.00056461
2.13239e-09 -0.000547551
1.56378e-09 -0.000491835
8.98807e-10 -0.000401928
4.41603e-10 -0.000285446
1.91821e-10 -0.000155086
2.30926e-14 -2.73061e-05
-6.93056e-11 8.21074e-05
6.59279e-11 0.000162354
2.61145e-10 0.000209249
3.55005e-10 0.000224128
3.09341e-10 0.000211198
1.69721e-10 0.000175966
5.88996e-11 0.000126499
3.79782e-11 7.38579e-05
1.90307e-11 2.93809e-05
-3.19494e-11 1.02618e-06
-2.94452e-11 -9.09199e-06
9.92939e-12 -4.63724e-06
-5.1088e-12 7.4107e-06
-2.50918e-11 2.05308e-05
9.13802e-12 3.24087e-05
2.87921e-11 4.52727e-05
3.3803e-11 6.23063e-05
7.47438e-11 8.50989e-05
9.19396e-11 0.00011366
9.79018e-11 0.000145478
1.89479e-10 0.000174605
2.87657e-10 0.000194042
2.87917e-10 0.000198707
2.23577e-10 0.000186086
1.1478e-10 0.000155929
2.5633e-11 0.000110719
2.01876e-11 5.5611e-05
7.15191e-12 -3.15041e-06
-1.93219e-11 -5.88841e-05
4.56857e-11 -0.000104762
1.33395e-10 -0.00013584
1.54513e-10 -0.000150678
1.53266e-10 -0.000151005
1.24558e-10 -0.000140289
7.75115e-11 -0.000121848
7.14614e-11 -9.77556e-05
5.098e-11 -6.94419e-05
-2.83285e-12 -3.81984e-05
-4.76049e-12 -4.70175e-06
1.91028e-11 3.04961e-05
2.88944e-11 6.63503e-05
7.34251e-11 0.00010078
1.11005e-10 0.000129999
1.11049e-10 0.000149635
1.38926e-10 0.000156474
1.55848e-10 0.000149459
1.14231e-10 0.00013003
7.3802e-11 0.000101404
3.14165e-11 6.68949e-05
-1.0209e-11 2.93408e-05
-1.84756e-12 -7.90954e-06
8.75255e-12 -4.04516e-05
7.0665e-12 -6.31903e-05
1.60694e-11 -7.20804e-05
8.71495e-12 -6.59566e-05
4.62001e-12 -4.694e-05
1.03482e-11 -1.95619e-05
-6.40954e-12 1.11768e-05
-1.3558e-12 4.12387e-05
3.88057e-11 6.70701e-05
4.96523e-11 8.44092e-05
4.0016e-11 8.85662e-05
1.90129e-11 7.61247e-05
-1.88343e-11 4.69679e-05
-1.02494e-11 5.25913e-06
2.05886e-11 -4.16601e-05
1.56365e-11 -8.62304e-05
5.31917e-11 -0.000122726
1.43257e-10 -0.000146689
1.76904e-10 -0.000154842
1.42413e-10 -0.000145326
7.28444e-11 -0.000117552
-5.78219e-12 -7.36559e-05
-1.57566e-11 -1.93329e-05
1.91028e-11 3.79968e-05
1.61797e-11 9.14973e-05
5.77205e-11 0.000136041
1.88529e-10 0.000168525
2.76301e-10 0.000187351
2.77794e-10 0.000191408
2.1991e-10 0.000180125
1.04813e-10 0.000155005
4.74437e-11 0.00012044
6.78497e-11 8.13867e-05
2.42656e-11 3.98095e-05
-2.47105e-11 -4.7908e-06
2.84716e-11 -5.15452e-05
9.54993e-11 -9.65213e-05
1.40473e-10 -0.000133417
1.36859e-10 -0.000154593
2.43885e-11 -0.000153885
-2.15733e-11 -0.000130465
6.4975e-11 -8.91978e-05
3.60923e-11 -3.78904e-05
-5.44556e-11 1.59007e-05
2.06441e-11 6.64594e-05
1.25381e-10 0.000109545
1.64856e-10 0.000142135
1.95497e-10 0.00016152
1.09838e-10 0.000164581
3.83515e-12 0.000149451
6.62186e-11 0.000117864
8.55659e-11 7.59675e-05
-1.67052e-11 3.19795e-05
-1.39733e-11 -7.76781e-06
3.1614e-11 -3.95316e-05
1.54793e-11 -6.03126e-05
3.84522e-11 -6.81473e-05
2.60174e-11 -6.36322e-05
-4.60919e-11 -4.86474e-05
-1.06641e-11 -2.49036e-05
2.6864e-11 4.75251e-06
-3.13681e-11 3.67331e-05
3.96823e-12 6.86964e-05
1.01502e-10 9.82914e-05
1.24174e-10 0.000121157
1.32881e-10 0.000131556
7.69766e-11 0.000124069
-5.40082e-11 9.4843e-05
-5.02672e-11 4.30249e-05
3.58241e-11 -2.67825e-05
2.74416e-11 -0.000103904
9.69229e-11 -0.000175236
3.17502e-10 -0.000230078
4.76e-10 -0.000262057
5.11696e-10 -0.000268644
4.20584e-10 -0.000249926
2.05574e-10 -0.000206753
4.81779e-11 -0.000140377
1.19003e-11 -5.57353e-05
-1.25899e-12 3.55597e-05
2.64066e-11 0.000118253
1.07364e-10 0.000179845
2.03523e-10 0.000213498
2.93881e-10 0.000216608
2.63983e-10 0.000190335
1.08093e-10 0.000140224
1.34423e-11 7.49765e-05
6.29985e-12 5.66704e-06
9.32439e-13 -5.44822e-05
-8.9635e-12 -9.27483e-05
-3.36609e-11 -0.000101796
-2.25526e-11 -8.27285e-05
2.95984e-11 -4.42666e-05
-1.52811e-12 5.57757e-07
-4.65442e-11 3.87499e-05
6.07396e-12 6.03176e-05
2.9641e-11 5.92874e-05
-8.21787e-12 3.47392e-05
-1.29689e-12 -8.36239e-06
3.84078e-11 -6.03478e-05
8.21059e-11 -0.000109572
1.05156e-10 -0.000145563
7.23593e-11 -0.000161939
7.65632e-11 -0.000157025
1.29153e-10 -0.000132871
9.09182e-11 -9.47927e-05
1.12486e-11 -5.02198e-05
4.94419e-12 -6.35436e-06
1.20092e-11 3.13438e-05
1.41485e-11 5.92994e-05
3.25692e-11 7.53855e-05
1.18422e-11 7.80197e-05
-1.26488e-11 6.59598e-05
1.01819e-11 3.94399e-05
7.1864e-12 1.75828e-06
-8.91124e-12 -4.05657e-05
3.67022e-11 -7.95221e-05
7.33211e-11 -0.000107599
6.88159e-11 -0.000119401
6.41996e-11 -0.000112616
2.47922e-11 -8.80474e-05
-8.76203e-12 -4.85711e-05
7.98783e-12 1.58981e-06
1.57092e-11 5.637e-05
5.12633e-11 0.00010776
1.35798e-10 0.000147104
1.62415e-10 0.000167326
1.31901e-10 0.000165086
1.02715e-10 0.000141789
5.62372e-11 0.0001024
1.50235e-11 5.23654e-05
3.21239e-12 -6.05513e-06
3.11386e-11 -7.45417e-05
1.89368e-10 -0.000152563
4.52002e-10 -0.000229531
5.67102e-10 -0.000287013
3.97115e-10 -0.000310174
2.02357e-10 -0.000295004
2.62255e-10 -0.000247207
3.24994e-10 -0.000178553
1.18586e-10 -0.000102364
-3.76068e-11 -2.86299e-05
3.2694e-11 3.69116e-05
8.75877e-11 9.07698e-05
1.35127e-10 0.000130664
1.49246e-10 0.000153472
-2.10515e-11 0.000153712
-7.68043e-11 0.000127913
6.91013e-11 8.02729e-05
2.08448e-11 2.1646e-05
-9.22533e-11 -3.49466e-05
1.56136e-11 -7.72907e-05
8.29486e-11 -9.63971e-05
3.32383e-11 -8.88118e-05
2.49233e-11 -5.73988e-05
-1.44135e-11 -1.00809e-05
-1.04318e-11 4.26035e-05
7.38522e-11 9.11058e-05
3.30542e-11 0.000129624
2.59882e-11 0.00015537
2.04702e-10 0.000166509
2.50034e-10 0.00016113
1.28672e-10 0.000138049
5.68936e-11 9.84872e-05
-2.49963e-11 4.59189e-05
-3.8234e-11 -1.54729e-05
7.13771e-11 -8.09714e-05
7.8846e-11 -0.000143935
1.26313e-10 -0.000196824
3.78082e-10 -0.000234466
5.17968e-10 -0.000254428
4.74894e-10 -0.000254693
3.67023e-10 -0.000232459
1.16347e-10 -0.000185121
-5.49264e-11 -0.000112752
1.41207e-11 -2.12621e-05
3.48822e-11 7.72092e-05
4.20785e-11 0.000168269
2.67656e-10 0.000240783
5.48921e-10 0.000289705
7.35141e-10 0.000314345
7.79739e-10 0.000315669
5.78737e-10 0.000294836
3.03653e-10 0.000252532
1.68698e-10 0.000190554
8.10666e-11 0.000113963
-6.1906e-13 3.02491e-05
-8.82302e-12 -5.27512e-05
6.75032e-11 -0.000127787
2.45367e-10 -0.000188605
4.12972e-10 -0.000230557
4.12323e-10 -0.000250228
3.00976e-10 -0.000244574
1.88667e-10 -0.000212733
1.11528e-10 -0.000158643
7.07242e-11 -9.03628e-05
8.36738e-12 -1.79591e-05
-3.09382e-11 4.85619e-05
5.0131e-11 0.000101821
1.48161e-10 0.000137964
1.66889e-10 0.000156382
1.58037e-10 0.000158976
1.21546e-10 0.000148445
7.77682e-11 0.000127272
7.58201e-11 9.80453e-05
4.70572e-11 6.38542e-05
-1.16106e-11 2.79221e-05
-5.02013e-12 -6.91913e-06
1.80999e-11 -3.81739e-05
1.59746e-11 -6.45163e-05
5.39973e-11 -8.71499e-05
8.20051e-11 -0.000108177
9.91916e-11 -0.000127628
1.63826e-10 -0.000142931
1.75909e-10 -0.000149977
1.16547e-10 -0.000144482
6.25628e-11 -0.000123601
1.23325e-11 -8.70634e-05
-4.41454e-12 -3.80221e-05
8.42837e-12 1.66343e-05
2.6299e-12 6.79908e-05
3.24681e-11 0.000107811
9.49173e-11 0.000130181
1.02858e-10 0.000131635
6.74317e-11 0.000111511
1.94572e-11 7.28798e-05
-1.38939e-11 2.22286e-05
7.53664e-12 -3.21802e-05
3.43712e-11 -8.28472e-05
5.43928e-11 -0.000125345
1.34611e-10 -0.000158245
2.43745e-10 -0.000181363
3.04007e-10 -0.000194123
2.83531e-10 -0.000194407
1.79031e-10 -0.000178959
6.02681e-11 -0.000145632
1.6072e-11 -9.52731e-05
1.24598e-11 -3.14035e-05
-3.15066e-12 4.09542e-05
5.22752e-11 0.000115267
2.29549e-10 0.00018364
4.21095e-10 0.000238399
5.16767e-10 0.000273533
4.93089e-10 0.000285276
3.90117e-10 0.000272623
3.09002e-10 0.000238
2.62903e-10 0.000186792
1.49026e-10 0.000125676
2.25588e-11 6.12607e-05
-4.03529e-13 -1.19209e-06
2.99856e-11 -5.84086e-05
8.30287e-11 -0.00010799
1.49245e-10 -0.000147295
1.58463e-10 -0.000173793
1.61632e-10 -0.000185485
2.10404e-10 -0.000180917
1.93725e-10 -0.000159551
9.89853e-11 -0.000122223
2.79917e-11 -7.12662e-05
-7.7689e-12 -1.01094e-05
1.61333e-11 5.61426e-05
1.05514e-10 0.000120441
1.6531e-10 0.000175615
2.24392e-10 0.000216246
3.49367e-10 0.000239584
4.38871e-10 0.000245232
4.2016e-10 0.000234239
3.12282e-10 0.000208381
1.66116e-10 0.000169955
5.59042e-11 0.000122021
1.62384e-11 6.83396e-05
1.3144e-11 1.34221e-05
-9.07171e-12 -3.78911e-05
1.1317e-11 -8.18582e-05
1.02797e-10 -0.000116928
1.63735e-10 -0.000143148
1.89775e-10 -0.000160031
1.9083e-10 -0.000165532
1.21928e-10 -0.000157353
6.62698e-11 -0.000135221
7.33052e-11 -0.00010216
4.34386e-11 -6.37482e-05
-3.95491e-12 -2.61249e-05
7.20757e-13 6.62202e-06
9.01842e-12 3.36886e-05
1.73002e-11 5.55572e-05
4.66109e-11 7.12647e-05
4.17231e-11 7.78379e-05
-3.02854e-12 7.16495e-05
-1.84362e-11 5.07731e-05
3.95091e-13 1.67956e-05
3.14149e-12 -2.5449e-05
7.50851e-12 -6.96016e-05
5.06186e-11 -0.000109547
1.21286e-10 -0.000140009
1.85092e-10 -0.000156835
1.70854e-10 -0.000157341
8.21715e-11 -0.000139769
2.20381e-11 -0.000104067
6.10193e-12 -5.34703e-05
-3.4069e-12 5.82998e-06
8.30328e-12 6.61352e-05
5.86531e-11 0.000119719
1.50788e-10 0.000160377
2.41373e-10 0.000184307
2.49973e-10 0.000189477
1.74971e-10 0.000174752
8.19017e-11 0.000140095
1.6718e-11 8.77278e-05
-3.70267e-12 2.28945e-05
9.21914e-12 -4.70149e-05
5.15739e-11 -0.000113943
1.38792e-10 -0.000170544
2.79027e-10 -0.000211071
3.87218e-10 -0.000231571
3.4011e-10 -0.000230054
2.23143e-10 -0.000205786
1.26844e-10 -0.000158757
2.01078e-11 -9.11603e-05
-1.59905e-11 -8.86872e-06
4.38531e-11 7.93082e-05
1.41641e-10 0.000164006
3.37271e-10 0.000237248
5.84575e-10 0.000292908
7.20091e-10 0.000326174
7.21099e-10 0.000332816
5.81841e-10 0.000309349
3.27758e-10 0.000254702
1.26588e-10 0.000172131
2.91025e-11 6.99204e-05
-8.98999e-12 -3.99688e-05
7.92064e-11 -0.000144766
2.99388e-10 -0.00023351
5.50518e-10 -0.000298452
7.45077e-10 -0.000334913
7.74834e-10 -0.000341075
6.21713e-10 -0.000318207
4.3086e-10 -0.00027027
2.71262e-10 -0.000203297
1.13297e-10 -0.000124756
1.07181e-11 -4.29626e-05
-3.02351e-12 3.4066e-05
4.01696e-11 9.90576e-05
1.2379e-10 0.000145279
1.66658e-10 0.000167662
1.17059e-10 0.000163867
5.9174e-11 0.000134926
2.97361e-11 8.591e-05
1.4313e-12 2.53678e-05
-5.65829e-12 -3.66842e-05
8.99192e-12 -9.06851e-05
6.29015e-11 -0.000128906
1.42202e-10 -0.000146492
1.25007e-10 -0.000141293
4.50225e-11 -0.000113283
-6.1536e-12 -6.49185e-05
-2.3848e-11 -1.43389e-06
3.74964e-11 6.9461e-05
1.16332e-10 0.000138509
1.87e-10 0.000197165
3.35074e-10 0.000239026
4.54581e-10 0.000259659
4.44465e-10 0.00025726
3.64474e-10 0.000232853
2.16755e-10 0.000188694
6.31875e-11 0.000127282
9.2375e-12 5.20483e-05
7.68733e-12 -3.13362e-05
5.96361e-11 -0.000114506
2.0733e-10 -0.000188081
3.59264e-10 -0.000244027
4.67492e-10 -0.000277191
5.29607e-10 -0.000285767
4.80851e-10 -0.000270456
3.49176e-10 -0.000233583
2.09697e-10 -0.000178493
7.15654e-11 -0.000109507
-7.81612e-12 -3.21783e-05
1.34094e-11 4.69829e-05
8.44243e-11 0.00012134
1.97447e-10 0.000184926
3.41084e-10 0.000232346
4.27436e-10 0.000258847
4.21141e-10 0.000260734
3.28792e-10 0.000235982
1.76395e-10 0.000185685
5.79952e-11 0.00011516
7.9868e-12 3.36776e-05
-2.33547e-12 -4.7378e-05
4.07874e-11 -0.00011732
1.30047e-10 -0.00016848
2.13695e-10 -0.000196626
2.56226e-10 -0.000200212
2.18962e-10 -0.000180333
1.07513e-10 -0.000140727
2.71013e-11 -8.72014e-05
8.39639e-12 -2.68133e-05
-1.52367e-12 3.29808e-05
1.67518e-11 8.52792e-05
7.18421e-11 0.000124648
1.23136e-10 0.000147402
1.5143e-10 0.000151696
1.26582e-10 0.000137597
5.09822e-11 0.00010762
8.60763e-12 6.67182e-05
1.09721e-11 2.11115e-05
-3.87201e-12 -2.25618e-05
-5.37452e-12 -5.82968e-05
2.56923e-11 -8.23214e-05
4.59808e-11 -9.38471e-05
6.60213e-11 -9.46052e-05
7.282e-11 -8.78268e-05
4.02622e-11 -7.69429e-05
2.17999e-11 -6.48013e-05
2.42405e-11 -5.35949e-05
1.38067e-11 -4.49186e-05
1.54898e-11 -3.95896e-05
2.02509e-11 -3.73952e-05
8.27945e-12 -3.75336e-05
8.86224e-12 -3.91819e-05
1.21913e-11 -4.14426e-05
7.7199e-12 -4.30051e-05
1.6345e-11 -4.18427e-05
1.34814e-11 -3.53771e-05
-7.24783e-12 -2.14585e-05
-8.88815e-12 1.10512e-07
7.48053e-12 2.65104e-05
2.2284e-11 5.27682e-05
2.32265e-11 7.41473e-05
1.99779e-11 8.77269e-05
4.5739e-11 9.27713e-05
7.701e-11 9.0411e-05
6.34322e-11 8.21186e-05
3.07094e-11 6.86231e-05
1.14671e-11 5.07708e-05
-4.09258e-12 3.02429e-05
-2.29254e-12 9.26499e-06
4.56716e-12 -9.31599e-06
-1.13567e-11 -2.24162e-05
-8.90266e-12 -2.76141e-05
1.21546e-11 -2.3615e-05
2.28099e-12 -1.04305e-05
-9.57175e-12 1.10825e-05
1.56713e-11 3.93099e-05
5.12183e-11 7.13718e-05
8.19423e-11 0.000103401
1.07887e-10 0.000131333
1.15492e-10 0.000151094
1.30704e-10 0.000158595
1.51373e-10 0.000150423
1.10684e-10 0.000124727
2.92069e-11 8.22265e-05
-6.94008e-12 2.68606e-05
1.06676e-11 -3.50504e-05
5.90054e-11 -9.6182e-05
1.18885e-10 -0.000149329
1.75162e-10 -0.000188837
2.50972e-10 -0.000211197
3.19505e-10 -0.000214463
2.90138e-10 -0.00019828
1.71915e-10 -0.000164324
6.59279e-11 -0.000115956
7.91752e-12 -5.77937e-05
-6.09853e-12 4.27627e-06
1.58531e-11 6.35563e-05
4.44157e-11 0.000113004
9.4369e-11 0.000146475
1.5855e-10 0.000161038
1.70437e-10 0.000157243
1.28562e-10 0.000137993
7.56197e-11 0.000107621
2.8884e-11 7.06347e-05
3.31187e-12 3.09309e-05
4.78876e-13 -8.38158e-06
5.88729e-12 -4.44054e-05
2.48755e-11 -7.35852e-05
5.01514e-11 -9.22457e-05
5.4929e-11 -9.80768e-05
4.27491e-11 -9.06318e-05
2.31064e-11 -7.06361e-05
2.48838e-12 -3.95798e-05
-2.15013e-12 -1.10526e-07
1.31541e-11 4.41822e-05
5.02557e-11 8.94032e-05
1.13654e-10 0.000130905
1.76789e-10 0.00016293
1.98534e-10 0.000179561
1.68368e-10 0.000176445
1.08623e-10 0.000152218
5.15841e-11 0.000108622
1.20755e-11 4.98822e-05
-2.71516e-12 -1.77523e-05
3.63265e-11 -8.69552e-05
1.43447e-10 -0.000150976
2.8143e-10 -0.000204363
3.94315e-10 -0.00024221
4.33205e-10 -0.000259888
3.8145e-10 -0.000254476
2.84193e-10 -0.000225851
1.84741e-10 -0.000176179
7.99877e-11 -0.000109654
3.53051e-13 -3.25351e-05
4.9248e-12 4.76963e-05
9.57341e-11 0.000123893
2.37845e-10 0.000190253
3.8781e-10 0.000242316
4.94313e-10 0.000276722
5.37995e-10 0.000290878
5.15825e-10 0.000283066
4.15459e-10 0.000253048
2.61549e-10 0.000202528
1.11479e-10 0.000135222
1.2061e-11 5.66098e-05
-3.57862e-12 -2.66148e-05
6.6717e-11 -0.000107466
1.91804e-10 -0.00017907
3.35702e-10 -0.000234587
4.45517e-10 -0.000268087
4.67985e-10 -0.000276123
4.05692e-10 -0.000258517
2.95922e-10 -0.000217965
1.6654e-10 -0.000159451
5.30946e-11 -8.95616e-05
-2.46973e-12 -1.54766e-05
9.91103e-12 5.5628e-05
7.47626e-11 0.000117337
1.62807e-10 0.000164799
2.30931e-10 0.000194693
2.53706e-10 0.000204892
2.28596e-10 0.000194609
1.58844e-10 0.000164963
7.81018e-11 0.00011875
2.16048e-11 5.97187e-05
-4.99186e-12 -7.17266e-06
2.91811e-11 -7.53674e-05
1.23198e-10 -0.000137939
2.18126e-10 -0.000188887
2.98357e-10 -0.000223091
3.4438e-10 -0.000236392
3.10814e-10 -0.000226607
2.25878e-10 -0.000194933
1.35129e-10 -0.000145855
4.80648e-11 -8.55927e-05
-1.35092e-12 -2.11744e-05
3.46375e-12 4.02309e-05
3.8413e-11 9.22145e-05
9.17956e-11 0.000130073
1.34112e-10 0.000150948
1.34485e-10 0.000153244
1.04104e-10 0.000136978
5.67681e-11 0.000104317
1.48352e-11 5.94985e-05
-2.67786e-13 7.99489e-06
7.36803e-12 -4.45232e-05
4.3622e-11 -9.28235e-05
1.09273e-10 -0.000132819
1.68769e-10 -0.000161623
2.04166e-10 -0.00017725
2.13035e-10 -0.000178953
1.74983e-10 -0.000167101
1.20624e-10 -0.000142757
8.01378e-11 -0.000107839
2.92929e-11 -6.49463e-05
-5.0225e-12 -1.74623e-05
6.5324e-12 2.96642e-05
2.79338e-11 7.04484e-05
4.88649e-11 0.000100184
7.16149e-11 0.000117125
8.1947e-11 0.000121797
9.02638e-11 0.000115657
8.30795e-11 0.000100748
4.61823e-11 7.97257e-05
1.53119e-11 5.52625e-05
4.48708e-12 2.96622e-05
2.22489e-13 4.79412e-06
-1.07736e-12 -1.83094e-05
4.96773e-12 -3.89156e-05
1.85862e-11 -5.56248e-05
2.8294e-11 -6.66316e-05
3.19843e-11 -7.06203e-05
2.97002e-11 -6.73924e-05
1.69703e-11 -5.80252e-05
8.52044e-12 -4.37935e-05
6.0331e-12 -2.54081e-05
-2.11638e-12 -3.37961e-06
1.31969e-12 2.11322e-05
1.76235e-11 4.52813e-05
2.79183e-11 6.53158e-05
3.43075e-11 7.82656e-05
3.37915e-11 8.24932e-05
2.74641e-11 7.78492e-05
2.91275e-11 6.581e-05
2.32299e-11 4.85598e-05
2.63508e-12 2.8024e-05
-5.72239e-12 6.24873e-06
2.06738e-12 -1.40398e-05
6.76748e-12 -2.96933e-05
4.54081e-12 -3.82053e-05
9.85434e-13 -3.85079e-05
-2.70524e-12 -3.05148e-05
-3.48314e-13 -1.43585e-05
2.99864e-12 9.05938e-06
5.69056e-12 3.72861e-05
2.58892e-11 6.69378e-05
6.50033e-11 9.41034e-05
9.32438e-11 0.000114042
8.17436e-11 0.000122051
5.01585e-11 0.000115053
2.71503e-11 9.24055e-05
1.32681e-11 5.61162e-05
2.47269e-12 1.0327e-05
2.08381e-12 -3.95049e-05
2.93835e-11 -8.78273e-05
1.06968e-10 -0.000130128
1.98064e-10 -0.000162387
2.09777e-10 -0.000180578
1.73292e-10 -0.000181041
1.34349e-10 -0.000161567
6.48404e-11 -0.000122532
1.65007e-11 -6.72377e-05
6.78405e-12 -1.86447e-06
1.18884e-11 6.57758e-05
8.95675e-11 0.00012781
2.08177e-10 0.000176975
2.61926e-10 0.000206868
2.50726e-10 0.000212265
1.81546e-10 0.000190607
7.55196e-11 0.000143257
1.79514e-11 7.51283e-05
4.46917e-12 -6.18979e-06
2.95239e-11 -9.13731e-05
1.63797e-10 -0.000170175
3.46937e-10 -0.000232706
4.53974e-10 -0.000271068
4.57784e-10 -0.000279511
3.46605e-10 -0.000254713
1.69032e-10 -0.000197525
4.74416e-11 -0.000113925
1.6942e-12 -1.41015e-05
2.32233e-11 8.98367e-05
1.73778e-10 0.000186014
4.22895e-10 0.000264362
6.47492e-10 0.000317446
7.51813e-10 0.000340041
6.67758e-10 0.000329132
4.43103e-10 0.000285113
2.31828e-10 0.000212627
8.64473e-11 0.000119882
-5.34757e-12 1.7257e-05
8.77446e-12 -8.3885e-05
1.49285e-10 -0.000172687
3.50388e-10 -0.000240608
5.0513e-10 -0.000282204
5.40308e-10 -0.000294573
4.57665e-10 -0.000277379
2.99992e-10 -0.000233315
1.56744e-10 -0.000167672
6.11554e-11 -8.79533e-05
-8.57255e-12 -3.23112e-06
8.20721e-12 7.71024e-05
1.19036e-10 0.000144449
2.24261e-10 0.000192327
2.82174e-10 0.000217002
2.77626e-10 0.000216892
1.97863e-10 0.00019218
1.04035e-10 0.000144826
3.4089e-11 7.91538e-05
-8.24392e-12 2.64274e-06
2.26111e-11 -7.50434e-05
1.17109e-10 -0.000144231
2.17526e-10 -0.000197341
3.06169e-10 -0.000229724
3.54942e-10 -0.000238984
3.21488e-10 -0.000224471
2.12916e-10 -0.000187426
9.36358e-11 -0.0001317
1.74462e-11 -6.31743e-05
-4.19931e-12 1.18079e-05
3.63968e-11 8.63793e-05
1.34813e-10 0.000153205
2.57842e-10 0.000205974
3.66067e-10 0.000240391
4.15134e-10 0.000253479
3.72272e-10 0.000243121
2.56889e-10 0.000209255
1.26622e-10 0.000154611
3.23839e-11 8.40346e-05
-4.34275e-12 3.91901e-06
2.58766e-11 -7.77012e-05
1.26479e-10 -0.000151488
2.54695e-10 -0.000208223
3.35398e-10 -0.00024031
3.31032e-10 -0.000243621
2.60123e-10 -0.000219272
1.72811e-10 -0.000172627
9.07447e-11 -0.000110317
1.02329e-11 -3.82944e-05
-6.70145e-12 3.76328e-05
8.41592e-11 0.000110639
2.1083e-10 0.000173208
2.96211e-10 0.000218277
3.16575e-10 0.000240844
2.9103e-10 0.000238914
2.61514e-10 0.000213293
2.02434e-10 0.000167317
8.68865e-11 0.000106263
5.88418e-13 3.65988e-05
6.39548e-12 -3.43905e-05
6.62025e-11 -9.8587e-05
1.27209e-10 -0.000147693
1.40659e-10 -0.00017544
1.19257e-10 -0.000179262
1.27484e-10 -0.000160419
1.19849e-10 -0.000123212
4.48835e-11 -7.35393e-05
-5.20502e-12 -1.80761e-05
1.21845e-11 3.63896e-05
4.96869e-11 8.39454e-05
9.09171e-11 0.000119789
1.02511e-10 0.00014061
8.37139e-11 0.000145384
9.47007e-11 0.000135425
1.05797e-10 0.000113688
6.2286e-11 8.38073e-05
1.80237e-11 4.93841e-05
4.3087e-12 1.37447e-05
1.14279e-13 -2.03656e-05
1.85847e-11 -5.05803e-05
3.44674e-11 -7.4095e-05
2.10355e-11 -8.80904e-05
2.62146e-11 -9.10005e-05
5.01418e-11 -8.32592e-05
4.01651e-11 -6.68012e-05
1.32011e-11 -4.36276e-05
-2.69562e-12 -1.56973e-05
-5.50804e-12 1.4248e-05
1.87902e-11 4.28038e-05
3.18215e-11 6.66223e-05
1.78416e-11 8.32935e-05
3.0044e-11 9.18437e-05
5.95663e-11 9.24214e-05
6.52237e-11 8.56564e-05
4.68205e-11 7.22418e-05
1.73087e-11 5.30486e-05
-3.5277e-12 2.97999e-05
-3.19034e-12 5.55574e-06
6.02673e-12 -1.57757e-05
5.60737e-13 -3.06171e-05
-1.38665e-11 -3.67637e-05
5.26246e-13 -3.40924e-05
1.99199e-11 -2.44533e-05
1.64313e-14 -1.05903e-05
-8.45812e-12 4.76935e-06
1.00377e-11 1.96273e-05
8.28212e-12 3.27752e-05
1.24576e-11 4.27436e-05
1.82032e-11 4.74346e-05
-7.02801e-12 4.53045e-05
-5.7289e-12 3.63314e-05
1.86464e-11 2.19011e-05
-8.44214e-13 4.17126e-06
-1.20068e-11 -1.46699e-05
1.73991e-11 -3.28639e-05
2.29208e-11 -4.902e-05
2.51708e-11 -6.19533e-05
4.09518e-11 -7.0845e-05
2.32109e-11 -7.5204e-05
1.81194e-11 -7.49295e-05
4.84386e-11 -7.07243e-05
4.24919e-11 -6.39481e-05
2.09604e-11 -5.58908e-05
2.22936e-11 -4.74324e-05
5.88847e-12 -3.91731e-05
-4.52334e-12 -3.17095e-05
1.41962e-11 -2.55632e-05
8.25192e-12 -2.07647e-05
-4.51535e-12 -1.69211e-05
7.29002e-12 -1.32352e-05
5.00341e-14 -8.59515e-06
-9.83421e-12 -2.29826e-06
6.96347e-12 5.38835e-06
3.8806e-12 1.33327e-05
-8.82953e-12 2.03747e-05
6.37342e-12 2.59957e-05
1.24343e-11 3.02198e-05
6.00157e-12 3.34472e-05
1.46952e-11 3.64927e-05
1.29995e-11 4.03362e-05
5.79226e-12 4.54277e-05
2.10156e-11 5.13959e-05
3.10546e-11 5.71905e-05
2.79978e-11 6.12398e-05
2.9247e-11 6.2079e-05
1.73335e-11 5.8732e-05
3.48418e-12 5.07471e-05
1.16912e-11 3.88151e-05
1.12393e-11 2.47245e-05
-3.44894e-12 1.03649e-05
-2.05776e-12 -2.54937e-06
2.56817e-12 -1.26914e-05
2.80812e-13 -1.97889e-05
5.56636e-12 -2.44157e-05
6.15596e-12 -2.73179e-05
5.31575e-13 -2.88963e-05
6.08032e-12 -2.91226e-05
9.23128e-12 -2.80355e-05
3.9293e-12 -2.59975e-05
5.01865e-12 -2.34402e-05
3.96394e-12 -2.04851e-05
-1.38926e-12 -1.71257e-05
1.72499e-12 -1.36438e-05
3.13986e-12 -1.06474e-05
-8.40661e-13 -9.04924e-06
1.43071e-12 -9.42985e-06
2.65077e-12 -1.14595e-05
-3.24925e-13 -1.45939e-05
1.91447e-12 -1.832e-05
4.19487e-12 -2.18909e-05
3.94869e-12 -2.47901e-05
6.53818e-12 -2.69924e-05
6.58421e-12 -2.84505e-05
3.86624e-12 -2.87555e-05
4.4927e-12 -2.75715e-05
4.55265e-12 -2.50112e-05
3.32223e-12 -2.17122e-05
3.86491e-12 -1.85218e-05
2.55677e-12 -1.58704e-05
6.49258e-13 -1.36624e-05
1.0781e-12 -1.16611e-05
4.19516e-13 -9.72262e-06
-5.15143e-14 -7.72799e-06
1.02807e-12 -5.61089e-06
6.88338e-14 -3.41227e-06
-6.11215e-13 -1.209e-06
5.14255e-13 8.35457e-07
-2.44249e-14 2.33603e-06
-3.42837e-13 2.86354e-06
3.71111e-13 2.32332e-06
-3.73775e-13 9.67138e-07
-1.52471e-13 -8.59987e-07
6.31347e-13 -2.8612e-06
-4.81393e-13 -4.74571e-06
-6.39488e-14 -6.24179e-06
1.2211e-12 -7.25829e-06
2.74003e-13 -7.81152e-06
2.26337e-13 -7.84807e-06
6.75312e-13 -7.25002e-06
-5.1766e-13 -5.88253e-06
-9.91799e-14 -3.63875e-06
6.99737e-13 -6.413e-07
-5.09962e-13 2.57589e-06
-1.74527e-13 5.30437e-06
8.51615e-13 7.04368e-06
3.73035e-14 7.52867e-06
7.66794e-14 6.59469e-06
3.43725e-13 4.35831e-06
-5.01969e-13 1.30685e-06
3.52311e-14 -2.06198e-06
5.0863e-13 -5.38178e-06
-2.58904e-13 -8.15859e-06
4.62001e-13 -9.78182e-06
1.05501e-12 -9.87791e-06
6.83897e-14 -8.50569e-06
1.13539e-13 -6.05942e-06
2.9902e-13 -3.11206e-06
-3.19004e-13 -4.60459e-07
3.92279e-14 1.13356e-06
1.13095e-13 1.38508e-06
-4.01161e-13 3.67771e-07
2.14791e-13 -1.6457e-06
2.96504e-13 -4.2061e-06
-2.26189e-13 -6.80711e-06
6.18912e-13 -9.00995e-06
1.08639e-12 -1.05435e-05
6.45854e-13 -1.12499e-05
8.59165e-13 -1.10311e-05
5.71543e-13 -9.93523e-06
2.29446e-14 -8.18686e-06
5.02857e-13 -6.03717e-06
3.18264e-13 -3.68811e-06
-3.31143e-13 -1.39206e-06
8.88178e-14 6.13784e-07
1.4877e-13 2.2422e-06
-1.57948e-13 3.48411e-06
2.69562e-13 4.31135e-06
1.63277e-13 4.69397e-06
-1.67718e-13 4.69477e-06
3.16043e-13 4.47277e-06
2.84661e-13 4.1617e-06
-6.32087e-14 3.83841e-06
2.3818e-13 3.56143e-06
1.15019e-13 3.39561e-06
-1.44773e-13 3.42821e-06
2.59052e-13 3.76401e-06
2.6675e-13 4.47496e-06
1.2849e-13 5.551e-06
5.22841e-13 6.87382e-06
4.59188e-13 8.1838e-06
2.46618e-13 9.16685e-06
6.42301e-13 9.61269e-06
7.35856e-13 9.44292e-06
5.01969e-13 8.64939e-06
4.60372e-13 7.29524e-06
1.41368e-13 5.53122e-06
-1.06137e-13 3.55436e-06
1.00364e-13 1.57989e-06
3.41949e-14 -1.67645e-07
-1.37668e-13 -1.49499e-06
4.54451e-14 -2.27898e-06
7.09062e-14 -2.45824e-06
-2.53131e-14 -2.03121e-06
4.75175e-14 -1.06049e-06
-2.14643e-14 3.40262e-07
-4.5001e-14 2.01092e-06
1.66237e-13 3.74802e-06
1.81336e-13 5.32489e-06
1.25529e-13 6.53513e-06
3.02277e-13 7.23568e-06
4.07082e-13 7.36148e-06
3.62969e-13 6.91707e-06
2.89398e-13 5.96013e-06
9.48871e-14 4.58669e-06
-4.08562e-14 2.92862e-06
1.4951e-14 1.15565e-06
1.58392e-14 -5.34082e-07
-3.95239e-14 -1.94301e-06
8.43769e-15 -2.91516e-06
6.9722e-14 -3.36465e-06
8.27486e-14 -3.2766e-06
6.35048e-14 -2.68651e-06
-7.84558e-15 -1.66156e-06
-4.39648e-14 -2.99444e-07
1.09542e-14 1.22276e-06
5.52151e-14 2.65276e-06
4.13003e-14 3.77442e-06
5.04781e-14 4.45131e-06
1.25677e-13 4.6184e-06
1.69198e-13 4.28518e-06
1.01992e-13 3.51328e-06
1.30266e-14 2.39118e-06
-2.44249e-14 1.02566e-06
-2.07242e-14 -4.51464e-07
2.62013e-14 -1.88013e-06
4.84057e-14 -3.08917e-06
2.85697e-14 -3.93194e-06
8.71895e-14 -4.31962e-06
1.60612e-13 -4.23175e-06
1.10282e-13 -3.7023e-06
3.4787e-14 -2.79806e-06
-1.62833e-15 -1.60779e-06
-3.16784e-14 -2.45956e-07
3.10862e-15 1.14288e-06
4.38168e-14 2.39598e-06
1.73195e-14 3.36236e-06
5.61033e-14 3.93533e-06
1.38408e-13 4.06864e-06
1.12503e-13 3.77024e-06
5.35868e-14 3.08475e-06
1.83557e-14 2.08213e-06
-2.88658e-14 8.58999e-07
-1.19904e-14 -4.57016e-07
3.30106e-14 -1.71476e-06
1.13983e-14 -2.76388e-06
3.27146e-14 -3.48555e-06
1.09986e-13 -3.81237e-06
1.0821e-13 -3.7284e-06
6.70575e-14 -3.25657e-06
3.43429e-14 -2.44783e-06
-1.80596e-14 -1.38057e-06
-1.85037e-14 -1.646e-07
2.05761e-14 1.06279e-06
7.54952e-15 2.15618e-06
1.68754e-14 2.98997e-06
8.08242e-14 3.48015e-06
9.72555e-14 3.58984e-06
7.43109e-14 3.32141e-06
4.66294e-14 2.70701e-06
-3.84877e-15 1.80675e-06
-1.77636e-14 7.12323e-07
9.91799e-15 -4.54598e-07
4.73695e-15 -1.55703e-06
6.51331e-15 -2.46729e-06
5.4623e-14 -3.08941e-06
8.17124e-14 -3.36889e-06
7.53471e-14 -3.28919e-06
5.43269e-14 -2.86436e-06
1.08062e-14 -2.13666e-06
-1.18424e-14 -1.17959e-06
2.66454e-15 -9.81268e-08
2.51651e-15 9.81913e-07
7.40149e-16 1.93487e-06
3.27146e-14 2.65731e-06
6.40969e-14 3.08056e-06
7.09062e-14 3.17138e-06
5.78796e-14 2.92685e-06
2.32407e-14 2.37208e-06
-3.10862e-15 1.56273e-06
-4.44089e-16 5.86523e-07
8.88178e-16 -4.43902e-07
-2.22045e-15 -1.40844e-06
1.67274e-14 -2.20023e-06
4.63333e-14 -2.74008e-06
6.21725e-14 -2.98051e-06
5.75836e-14 -2.90321e-06
3.24185e-14 -2.51711e-06
6.21725e-15 -1.86073e-06
1.4803e-16 -1.00449e-06
4.44089e-16 -4.64069e-08
-3.10862e-15 9.01785e-07
5.4771e-15 1.73345e-06
3.06422e-14 2.36243e-06
5.12183e-14 2.72977e-06
5.34387e-14 2.80353e-06
3.78956e-14 2.57785e-06
1.52471e-14 2.07503e-06
2.81257e-15 1.34852e-06
1.18424e-15 4.80921e-07
-2.51651e-15 -4.26592e-07
-1.03621e-15 -1.27083e-06
1.73195e-14 -1.96201e-06
3.92279e-14 -2.43251e-06
4.70735e-14 -2.63887e-06
3.95239e-14 -2.56198e-06
2.20564e-14 -2.20914e-06
7.40149e-15 -1.61751e-06
2.96059e-15 -8.53993e-07
-1.03621e-15 -7.60803e-09
-3.9968e-15 8.24569e-07
7.54952e-15 1.55224e-06
2.70894e-14 2.10189e-06
3.89318e-14 2.42083e-06
3.84877e-14 2.4784e-06
2.64973e-14 2.26833e-06
1.19904e-14 1.81251e-06
5.77316e-15 1.16228e-06
1.03621e-15 3.93477e-07
-4.73695e-15 -4.05084e-07
1.03621e-15 -1.14531e-06
1.70234e-14 -1.75057e-06
3.01981e-14 -2.16118e-06
3.4787e-14 -2.33684e-06
2.82737e-14 -2.25933e-06
1.59872e-14 -1.93648e-06
8.73375e-15 -1.4046e-06
3.70074e-15 -7.25826e-07
-3.55271e-15 2.08882e-08
-2.51651e-15 7.52036e-07
8.73375e-15 1.39036e-06
2.14643e-14 1.87152e-06
2.93099e-14 2.14754e-06
2.79776e-14 2.18996e-06
1.87998e-14 1.99395e-06
1.15463e-14 1.58168e-06
6.21725e-15 1.00151e-06
-1.03621e-15 3.21411e-07
-3.84877e-15 -3.81635e-07
2.81256e-15 -1.03204e-06
1.36187e-14 -1.56302e-06
2.32407e-14 -1.92091e-06
2.56091e-14 -2.06879e-06
2.02801e-14 -1.99077e-06
1.37668e-14 -1.69596e-06
8.73375e-15 -1.2193e-06
1.77636e-15 -6.17092e-07
-3.40468e-15 4.16984e-08
-1.03621e-15 6.85153e-07
7.54952e-15 1.24611e-06
1.70234e-14 1.6672e-06
2.17604e-14 1.90486e-06
2.0132e-14 1.93377e-06
1.55431e-14 1.75133e-06
1.05101e-14 1.37967e-06
4.44089e-15 8.63234e-07
-1.62833e-15 2.61856e-07
-2.81256e-15 -3.57878e-07
2.81256e-15 -9.30322e-07
1.13983e-14 -1.39628e-06
1.74675e-14 -1.70734e-06
1.85037e-14 -1.83049e-06
1.61352e-14 -1.75282e-06
1.18424e-14 -1.48463e-06
6.9574e-15 -1.0586e-06
7.40149e-16 -5.24759e-07
-2.96059e-15 5.69666e-08
-1.4803e-16 6.24111e-07
6.66134e-15 1.11739e-06
1.25825e-14 1.48532e-06
1.62833e-14 1.68886e-06
1.58392e-14 1.70639e-06
1.24345e-14 1.53746e-06
8.73375e-15 1.20347e-06
3.40468e-15 7.44325e-07
-2.22045e-15 2.12292e-07
-1.92439e-15 -3.34738e-07
3.10862e-15 -8.38985e-07
8.43769e-15 -1.24753e-06
1.31746e-14 -1.51701e-06
1.45069e-14 -1.61863e-06
1.25825e-14 -1.54251e-06
1.0066e-14 -1.29949e-06
5.4771e-15 -9.1935e-07
-5.92119e-16 -4.46053e-07
-2.07242e-15 6.82125e-08
4.44089e-16 5.68562e-07
4.88498e-15 1.00217e-06
1.0066e-14 1.32295e-06
1.22865e-14 1.49653e-06
1.19904e-14 1.50496e-06
1.08062e-14 1.34945e-06
6.9574e-15 1.04998e-06
1.62833e-15 6.41864e-07
-1.4803e-15 1.70739e-07
-1.18424e-15 -3.12581e-07
2.22045e-15 -7.56745e-07
6.9574e-15 -1.11442e-06
9.76996e-15 -1.34722e-06
1.09542e-14 -1.43055e-06
1.08062e-14 -1.3571e-06
8.14164e-15 -1.13756e-06
3.40468e-15 -7.98578e-07
-4.44089e-16 -3.78659e-07
-1.62833e-15 7.63997e-08
2.96059e-16 5.17915e-07
4.29286e-15 8.98693e-07
7.54952e-15 1.17779e-06
9.32587e-15 1.32541e-06
9.91799e-15 1.3269e-06
8.73375e-15 1.18446e-06
5.03301e-15 9.16241e-07
8.88178e-16 5.53316e-07
-1.18424e-15 1.35752e-07
-7.40149e-16 -2.9144e-07
1.92439e-15 -6.82426e-07
5.18104e-15 -9.95078e-07
7.54952e-15 -1.19582e-06
9.02981e-15 -1.26389e-06
8.73375e-15 -1.1939e-06
5.92119e-15 -9.95958e-07
2.51651e-15 -6.93628e-07
-4.44089e-16 -3.20762e-07
-1.33227e-15 8.21054e-08
4.44089e-16 4.71558e-07
3.40468e-15 8.05536e-07
5.4771e-15 1.04801e-06
7.54952e-15 1.17341e-06
8.4377e-15 1.16977e-06
6.66134e-15 1.03975e-06
3.40468e-15 7.99567e-07
5.92119e-16 4.766e-07
-8.88178e-16 1.06299e-07
-5.92119e-16 -2.71221e-07
1.62833e-15 -6.15076e-07
3.9968e-15 -8.88035e-07
6.06922e-15 -1.06098e-06
7.25346e-15 -1.11644e-06
6.66134e-15 -1.05039e-06
4.58892e-15 -8.72046e-07
1.92439e-15 -6.02251e-07
-5.92119e-16 -2.70967e-07
-1.03621e-15 8.56947e-08
5.92119e-16 4.28981e-07
2.51651e-15 7.21603e-07
4.29286e-15 9.32096e-07
6.36528e-15 1.0386e-06
6.36528e-15 1.03125e-06
4.88498e-15 9.12785e-07
2.96059e-15 6.97633e-07
2.96059e-16 4.1005e-07
-1.03621e-15 8.16192e-08
-1.4803e-16 -2.5183e-07
1.18424e-15 -5.53962e-07
2.96059e-15 -7.92093e-07
5.18104e-15 -9.4108e-07
5.62513e-15 -9.86152e-07
5.18104e-15 -9.24183e-07
3.70074e-15 -7.63495e-07
8.88178e-16 -5.22595e-07
-4.44089e-16 -2.28188e-07
-2.96059e-16 8.74506e-08
1.4803e-16 3.8981e-07
1.92439e-15 6.46018e-07
3.84877e-15 8.28717e-07
4.58892e-15 9.19187e-07
5.03301e-15 9.09169e-07
4.14483e-15 8.01307e-07
1.77636e-15 6.08478e-07
1.4803e-16 3.52325e-07
-4.44089e-16 6.11006e-08
-2.96059e-16 -2.33229e-07
8.88178e-16 -4.98524e-07
2.66454e-15 -7.06216e-07
3.84877e-15 -8.34598e-07
4.58892e-15 -8.71071e-07
4.14483e-15 -8.13139e-07
2.51651e-15 -6.6831e-07
7.40149e-16 -4.53136e-07
-2.96059e-16 -1.91537e-07
-4.44089e-16 8.76433e-08
2.96059e-16 3.53787e-07
1.62833e-15 5.78039e-07
2.81257e-15 7.3664e-07
3.84877e-15 8.13476e-07
3.9968e-15 8.01541e-07
2.96059e-15 7.03346e-07
1.33227e-15 5.30463e-07
1.4803e-16 3.02316e-07
-4.44089e-16 4.42033e-08
-1.4803e-16 -2.15443e-07
7.40149e-16 -4.48305e-07
2.07242e-15 -6.29459e-07
3.25665e-15 -7.40109e-07
3.55271e-15 -7.69417e-07
2.96059e-15 -7.15373e-07
2.07242e-15 -5.84801e-07
4.44089e-16 -3.92603e-07
-2.96059e-16 -1.60245e-07
-1.4803e-16 8.65509e-08
1.4803e-16 3.20722e-07
1.03621e-15 5.16996e-07
2.66454e-15 6.54709e-07
3.10862e-15 7.19909e-07
2.81257e-15 7.0661e-07
2.36848e-15 6.17216e-07
1.03621e-15 4.6221e-07
-1.4803e-16 2.59073e-07
-1.4803e-16 3.04254e-08
-6.10629e-25 -1.98527e-07
4.44089e-16 -4.02898e-07
1.62833e-15 -5.60933e-07
2.66454e-15 -6.56287e-07
2.81256e-15 -6.79592e-07
2.36848e-15 -6.29253e-07
1.18424e-15 -5.11534e-07
4.44089e-16 -3.39906e-07
-4.25719e-24 -1.33621e-07
-2.96059e-16 8.44509e-08
1.4803e-16 2.90454e-07
1.03621e-15 4.62259e-07
1.92439e-15 5.81842e-07
2.51651e-15 6.37074e-07
2.36848e-15 6.22838e-07
1.33227e-15 5.41478e-07
8.88178e-16 4.02537e-07
2.96059e-16 2.21753e-07
-4.44089e-16 1.92974e-08
-1.4803e-16 -1.82543e-07
7.40149e-16 -3.61917e-07
1.18424e-15 -4.99796e-07
2.07242e-15 -5.81925e-07
2.36848e-15 -6.00188e-07
1.4803e-15 -5.53373e-07
1.03621e-15 -4.47278e-07
5.92119e-16 -2.9409e-07
-2.96059e-16 -1.11036e-07
-2.96059e-16 8.16023e-08
2.96059e-16 2.62822e-07
7.40149e-16 4.13224e-07
1.4803e-15 5.17043e-07
1.92439e-15 5.63714e-07
1.77636e-15 5.48895e-07
1.33227e-15 4.74891e-07
5.92119e-16 3.50412e-07
1.26129e-23 1.89598e-07
-1.4803e-16 1.03906e-08
-3.18512e-25 -1.67535e-07
2.96059e-16 -3.24981e-07
1.03621e-15 -4.45269e-07
1.62833e-15 -5.15938e-07
1.62833e-15 -5.29976e-07
1.33227e-15 -4.86523e-07
8.88178e-16 -3.9096e-07
2.96059e-16 -2.54301e-07
-1.4803e-16 -9.19208e-08
-1.4803e-16 7.82293e-08
1.4803e-16 2.37654e-07
5.92119e-16 3.69319e-07
1.18424e-15 4.5941e-07
1.4803e-15 4.98729e-07
1.33227e-15 4.83626e-07
1.03621e-15 4.16377e-07
5.92119e-16 3.04919e-07
1.03382e-23 1.61926e-07
-2.96059e-16 3.32595e-09
-5.95815e-25 -1.5352e-07
4.44089e-16 -2.91721e-07
7.40149e-16 -3.96636e-07
1.18424e-15 -4.5737e-07
1.33227e-15 -4.67887e-07
1.03621e-15 -4.27646e-07
5.92119e-16 -3.41633e-07
2.96059e-16 -2.19776e-07
-1.4803e-16 -7.57675e-08
-1.4803e-16 7.4514e-08
2.96059e-16 2.14769e-07
4.44089e-16 3.30016e-07
8.88178e-16 4.08142e-07
1.18424e-15 4.41157e-07
1.03621e-15 4.26027e-07
7.40149e-16 3.64983e-07
4.44089e-16 2.65241e-07
3.63623e-24 1.38131e-07
-1.4803e-16 -2.22052e-09
-6.04254e-25 -1.40485e-07
2.96059e-16 -2.61786e-07
5.92119e-16 -3.53256e-07
1.03621e-15 -4.0538e-07
1.03621e-15 -4.12991e-07
7.40149e-16 -3.75813e-07
4.44089e-16 -2.98453e-07
2.96059e-16 -1.89835e-07
-1.4803e-16 -6.21354e-08
-1.4803e-16 7.05968e-08
1.4803e-16 1.93981e-07
4.44089e-16 2.94831e-07
7.40149e-16 3.6253e-07
8.88178e-16 3.90157e-07
7.40149e-16 3.75213e-07
5.92119e-16 3.19865e-07
2.96059e-16 2.30649e-07
2.3692e-24 1.1768e-07
2.09102e-24 -6.51896e-09
-6.73547e-25 -1.28401e-07
1.4803e-16 -2.34848e-07
5.92119e-16 -3.14556e-07
7.40149e-16 -3.59231e-07
7.40149e-16 -3.64466e-07
5.92119e-16 -3.302e-07
4.44089e-16 -2.60669e-07
1.4803e-16 -1.63876e-07
-1.4803e-16 -5.06469e-08
-1.4803e-16 6.65821e-08
1.4803e-16 1.75112e-07
4.44089e-16 2.63332e-07
5.92119e-16 3.21951e-07
5.92119e-16 3.44988e-07
5.92119e-16 3.30403e-07
5.92119e-16 2.80272e-07
1.4803e-16 2.005e-07
2.14523e-24 1.0011e-07
9.53648e-25 -9.79144e-09
-1.4803e-16 -1.17221e-07
1.4803e-16 -2.1061e-07
5.92119e-16 -2.80034e-07
4.44089e-16 -3.18275e-07
5.92119e-16 -3.21589e-07
7.40149e-16 -2.90076e-07
1.4803e-16 -2.27615e-07
-3.43762e-24 -1.41375e-07
1.4803e-16 -4.0982e-08
-1.4803e-16 6.25466e-08
2.20701e-24 1.57992e-07
4.44089e-16 2.35135e-07
2.96059e-16 2.85855e-07
4.44089e-16 3.04996e-07
7.40149e-16 2.90899e-07
2.96059e-16 2.45534e-07
1.41064e-24 1.74227e-07
1.4803e-16 8.50221e-08
-1.4803e-16 -1.22201e-08
-6.10029e-25 -1.06897e-07
2.96059e-16 -1.88806e-07
1.4803e-16 -2.49243e-07
4.44089e-16 -2.81938e-07
7.40149e-16 -2.83712e-07
1.4803e-16 -2.54787e-07
1.4803e-16 -1.98702e-07
2.96059e-16 -1.21875e-07
-1.4803e-16 -3.28699e-08
-1.4803e-16 5.85474e-08
2.96059e-16 1.42466e-07
1.4803e-16 2.09899e-07
2.96059e-16 2.53757e-07
5.92119e-16 2.69598e-07
2.96059e-16 2.56081e-07
1.4803e-16 2.15061e-07
2.96059e-16 1.51334e-07
-1.4803e-16 7.20759e-08
-1.4803e-16 -1.39554e-08
1.4803e-16 -9.73765e-08
1.4803e-16 -1.69196e-07
1.4803e-16 -2.21788e-07
4.44089e-16 -2.49708e-07
2.96059e-16 -2.50262e-07
2.96059e-16 -2.23757e-07
2.96059e-16 -1.73414e-07
-2.89334e-24 -1.04982e-07
-1.4803e-16 -2.60816e-08
1.4803e-16 5.46275e-08
1.53501e-24 1.28393e-07
3.33227e-24 1.87319e-07
4.44089e-16 2.25221e-07
2.96059e-16 2.38275e-07
1.4803e-16 2.254e-07
4.44089e-16 1.88332e-07
-1.7591e-24 1.31389e-07
-1.4803e-16 6.09781e-08
1.4803e-16 -1.51228e-08
-6.11295e-25 -8.86109e-08
-5.35378e-25 -1.51567e-07
2.96059e-16 -1.97314e-07
2.96059e-16 -2.21128e-07
1.4803e-16 -2.20727e-07
2.96059e-16 -1.96473e-07
1.4803e-16 -1.51299e-07
-1.77889e-26 -9.03531e-08
-1.4062e-24 -2.04214e-08
9.93869e-27 5.082e-08
1.3859e-24 1.15646e-07
1.4803e-16 1.67124e-07
2.96059e-16 1.9986e-07
1.4803e-16 2.10563e-07
2.96059e-16 1.98366e-07
1.4803e-16 1.64888e-07
7.25026e-25 1.14018e-07
2.11558e-24 5.14762e-08
6.85402e-25 -1.58283e-08
-1.07657e-24 -8.05529e-08
1.4803e-16 -1.35727e-07
1.4803e-16 -1.75506e-07
1.4803e-16 -1.95792e-07
2.96059e-16 -1.94651e-07
1.4803e-16 -1.72485e-07
-5.82228e-24 -1.31962e-07
1.4803e-16 -7.76931e-08
-9.81936e-25 -1.57215e-08
-1.4803e-16 4.71508e-08
1.4803e-16 1.04109e-07
1.4803e-16 1.49069e-07
-2.26262e-25 1.77327e-07
2.96059e-16 1.86049e-07
2.96059e-16 1.74548e-07
3.57969e-24 1.44328e-07
9.6907e-25 9.88941e-08
